source_identifier,identifier_local,identifier_call_number,model,parents,title,ark,photographer,language,subject_topic,rights_status,rights_statement,type_of_resource,series,date_created,genre_form,preferred_citation,digital_origin,description_standard,physical_description,sublocation,rights_note,note_general
hpamss032,,HPA Mss 32,Collection,,Carl R. Rogers collection,ark:/48907/f3zc8132,,,,,,,,,,,,,,,,
hpamss032-portrait-a-1,hpamss032-portrait-a-1,,GenericObject,hpamss032,"Carl Rogers, portrait",ark:/48907/f3pv6hkq,http://alexandria.ucsb.edu/authorities/people/ba8b3c41-9bdc-4c6b-8d59-2a1188d8e9e7,zxx,http://id.loc.gov/authorities/names/n80038475|http://id.loc.gov/vocabulary/graphicMaterials/tgm012264,http://id.loc.gov/vocabulary/preservation/copyrightStatus/cpr,http://rightsstatements.org/vocab/InC/1.0/,http://id.loc.gov/vocabulary/resourceTypes/img,Series 2: Biographical,[1950..1959],http://vocab.getty.edu/aat/300015637|http://vocab.getty.edu/aat/300046300,"[Identification of Item], Carl R. Rogers Collection. HPA Mss 32. Department of Special Research Collections, UC Santa Barbara Library, University of California, Santa Barbara.",about:surfliner_schema/controlled_values/digital_origin/reformatted_digital,http://id.loc.gov/vocabulary/descriptionConventions/local,1 photograph : print ; 28 x 35 cm,about:surfliner_schema/controlled_values/sublocation/SRC,"Transmission or reproduction of materials protected by copyright beyond that allowed by fair use requires the written permission of the copyright owners. In addition, the reproduction of some materials may be restricted by terms of gift or purchase agreements, donor restrictions, privacy and publicity rights, licensing and trademarks (contact the department of Special Research Collections at the UC Santa Barbara Library for more information). Works not in the public domain cannot be commercially exploited without permission of the copyright owner. Responsibility for any use rests exclusively with the user.",Donated by Carl Rogers.
hpamss032-portrait-b-1,hpamss032-portrait-b-1,,GenericObject,hpamss032,"Carl Rogers, portrait",ark:/48907/f3tm78bw,,zxx,http://id.loc.gov/authorities/names/n80038475|http://id.loc.gov/vocabulary/graphicMaterials/tgm012264,http://id.loc.gov/vocabulary/preservation/copyrightStatus/cpr,http://rightsstatements.org/vocab/InC/1.0/,http://id.loc.gov/vocabulary/resourceTypes/img,Series 2: Biographical,[1960..1969],http://vocab.getty.edu/aat/300015637|http://vocab.getty.edu/aat/300046300,"[Identification of Item], Carl R. Rogers Collection. HPA Mss 32. Department of Special Research Collections, UC Santa Barbara Library, University of California, Santa Barbara.",about:surfliner_schema/controlled_values/digital_origin/reformatted_digital,http://id.loc.gov/vocabulary/descriptionConventions/local,1 photograph : print ; 21 x 26 cm,about:surfliner_schema/controlled_values/sublocation/SRC,"Transmission or reproduction of materials protected by copyright beyond that allowed by fair use requires the written permission of the copyright owners. In addition, the reproduction of some materials may be restricted by terms of gift or purchase agreements, donor restrictions, privacy and publicity rights, licensing and trademarks (contact the department of Special Research Collections at the UC Santa Barbara Library for more information). Works not in the public domain cannot be commercially exploited without permission of the copyright owner. Responsibility for any use rests exclusively with the user.",Donated by Carl Rogers.