source_identifier,identifier_local,identifier_call_number,model,parents,title,ark,title_alternative,note_description,language,subject_spatial,publication_statement,rights_status,rights_statement,type_of_resource,genre_form,digital_origin,physical_description,sublocation,note_general,date_issued
sb-gazette,,F869.S23 S354,Collection,,Santa Barbara gazette,ark:/48907/f36h4n1n,,,,,,,,,,,,,,
sb-gazette-18550524,sb-gazette-18550524,F869.S23 S354,GenericObject,sb-gazette,"Santa Barbara gazette, May 24, 1855",ark:/48907/f32r3w8g,La gazeta|The gazette,"Volume 1, Number 1.",en|es,http://id.loc.gov/authorities/names/n79041717|http://id.loc.gov/authorities/names/n79081574,"W. B. Keep & Co. : Santa Barbara, [Calif.]",http://id.loc.gov/vocabulary/preservation/copyrightStatus/pub,http://rightsstatements.org/vocab/NoC-US/1.0/,http://id.loc.gov/vocabulary/resourceTypes/txt,http://vocab.getty.edu/aat/300026656,about:surfliner_schema/controlled_values/digital_origin/reformatted_digital,4 pages,about:surfliner_schema/controlled_values/sublocation/SRC,,1855-05-24
sb-gazette-18550531,sb-gazette-18550531,F869.S23 S354,GenericObject,sb-gazette,"Santa Barbara gazette, May 31, 1855",ark:/48907/f3z03csg,La gazeta|The gazette,"Volume 1, Number 2.",en|es,http://id.loc.gov/authorities/names/n79041717|http://id.loc.gov/authorities/names/n79081574,"W. B. Keep & Co. : Santa Barbara, Cal.",http://id.loc.gov/vocabulary/preservation/copyrightStatus/pub,http://rightsstatements.org/vocab/NoC-US/1.0/,http://id.loc.gov/vocabulary/resourceTypes/txt,http://vocab.getty.edu/aat/300026656,about:surfliner_schema/controlled_values/digital_origin/reformatted_digital,4 pages,about:surfliner_schema/controlled_values/sublocation/SRC,,1855-05-31
sb-gazette-18550607,sb-gazette-18550607,F869.S23 S354,GenericObject,sb-gazette,"Santa Barbara gazette, June 7, 1855",ark:/48907/f3tb1bhx,La gazeta|The gazette,"Volume 1, Number 3.",en|es,http://id.loc.gov/authorities/names/n79041717|http://id.loc.gov/authorities/names/n79081574,"W. B. Keep & Co. : Santa Barbara, Cal.",http://id.loc.gov/vocabulary/preservation/copyrightStatus/pub,http://rightsstatements.org/vocab/NoC-US/1.0/,http://id.loc.gov/vocabulary/resourceTypes/txt,http://vocab.getty.edu/aat/300026656,about:surfliner_schema/controlled_values/digital_origin/reformatted_digital,4 pages,about:surfliner_schema/controlled_values/sublocation/SRC,,1855-06-07
sb-gazette-18550614,sb-gazette-18550614,F869.S23 S354,GenericObject,sb-gazette,"Santa Barbara gazette, June 14, 1855",ark:/48907/f3pk0ks6,La gazeta|The gazette,"Volume 1, Number 4.",en|es,http://id.loc.gov/authorities/names/n79041717|http://id.loc.gov/authorities/names/n79081574,"W. B. Keep & Co. : Santa Barbara, Cal.",http://id.loc.gov/vocabulary/preservation/copyrightStatus/pub,http://rightsstatements.org/vocab/NoC-US/1.0/,http://id.loc.gov/vocabulary/resourceTypes/txt,http://vocab.getty.edu/aat/300026656,about:surfliner_schema/controlled_values/digital_origin/reformatted_digital,4 pages,about:surfliner_schema/controlled_values/sublocation/SRC,,1855-06-14
sb-gazette-18550621,sb-gazette-18550621,F869.S23 S354,GenericObject,sb-gazette,"Santa Barbara gazette, June 21, 1855",ark:/48907/f3js9v2b,La gazeta|The gazette,"Volume 1, Number 5.",en|es,http://id.loc.gov/authorities/names/n79041717|http://id.loc.gov/authorities/names/n79081574,"W. B. Keep & Co. : Santa Barbara, Cal.",http://id.loc.gov/vocabulary/preservation/copyrightStatus/pub,http://rightsstatements.org/vocab/NoC-US/1.0/,http://id.loc.gov/vocabulary/resourceTypes/txt,http://vocab.getty.edu/aat/300026656,about:surfliner_schema/controlled_values/digital_origin/reformatted_digital,4 pages,about:surfliner_schema/controlled_values/sublocation/SRC,,1855-06-21
sb-gazette-18550628,sb-gazette-18550628,F869.S23 S354,GenericObject,sb-gazette,"Santa Barbara gazette, June 28, 1855",ark:/48907/f3f193b9,La gazeta|The gazette,"Volume 1, Number 6.",en|es,http://id.loc.gov/authorities/names/n79041717|http://id.loc.gov/authorities/names/n79081574,"W. B. Keep & Co. : Santa Barbara, Cal.",http://id.loc.gov/vocabulary/preservation/copyrightStatus/pub,http://rightsstatements.org/vocab/NoC-US/1.0/,http://id.loc.gov/vocabulary/resourceTypes/txt,http://vocab.getty.edu/aat/300026656,about:surfliner_schema/controlled_values/digital_origin/reformatted_digital,4 pages,about:surfliner_schema/controlled_values/sublocation/SRC,,1855-06-28
sb-gazette-18550705,sb-gazette-18550705,F869.S23 S354,GenericObject,sb-gazette,"Santa Barbara gazette, July 5, 1855",ark:/48907/f3988bmk,La gazeta|The gazette,"Volume 1, Number 7.",en|es,http://id.loc.gov/authorities/names/n79041717|http://id.loc.gov/authorities/names/n79081574,"Keep & Hubbard : Santa Barbara, Cal.",http://id.loc.gov/vocabulary/preservation/copyrightStatus/pub,http://rightsstatements.org/vocab/NoC-US/1.0/,http://id.loc.gov/vocabulary/resourceTypes/txt,http://vocab.getty.edu/aat/300026656,about:surfliner_schema/controlled_values/digital_origin/reformatted_digital,4 pages,about:surfliner_schema/controlled_values/sublocation/SRC,,1855-07-05
sb-gazette-18550712,sb-gazette-18550712,F869.S23 S354,GenericObject,sb-gazette,"Santa Barbara gazette, July 12, 1855",ark:/48907/f35h7kvd,La gazeta|The gazette,"Volume 1, Number 8.",en|es,http://id.loc.gov/authorities/names/n79041717|http://id.loc.gov/authorities/names/n79081574,"Keep & Hubbard : Santa Barbara, Cal.",http://id.loc.gov/vocabulary/preservation/copyrightStatus/pub,http://rightsstatements.org/vocab/NoC-US/1.0/,http://id.loc.gov/vocabulary/resourceTypes/txt,http://vocab.getty.edu/aat/300026656,about:surfliner_schema/controlled_values/digital_origin/reformatted_digital,4 pages,about:surfliner_schema/controlled_values/sublocation/SRC,,1855-07-12
sb-gazette-18550719,sb-gazette-18550719,F869.S23 S354,GenericObject,sb-gazette,"Santa Barbara gazette, July 19, 1855",ark:/48907/f31r6v43,La gazeta|The gazette,"Volume 1, Number 9.",en|es,http://id.loc.gov/authorities/names/n79041717|http://id.loc.gov/authorities/names/n79081574,"Keep & Hubbard : Santa Barbara, Cal.",http://id.loc.gov/vocabulary/preservation/copyrightStatus/pub,http://rightsstatements.org/vocab/NoC-US/1.0/,http://id.loc.gov/vocabulary/resourceTypes/txt,http://vocab.getty.edu/aat/300026656,about:surfliner_schema/controlled_values/digital_origin/reformatted_digital,4 pages,about:surfliner_schema/controlled_values/sublocation/SRC,,1855-07-19
sb-gazette-18550726,sb-gazette-18550726,F869.S23 S354,GenericObject,sb-gazette,"Santa Barbara gazette, July 26, 1855",ark:/48907/f3x3522t,La gazeta|The gazette,"Volume 1, Number 10.",en|es,http://id.loc.gov/authorities/names/n79041717|http://id.loc.gov/authorities/names/n79081574,"Keep & Hubbard : Santa Barbara, Cal.",http://id.loc.gov/vocabulary/preservation/copyrightStatus/pub,http://rightsstatements.org/vocab/NoC-US/1.0/,http://id.loc.gov/vocabulary/resourceTypes/txt,http://vocab.getty.edu/aat/300026656,about:surfliner_schema/controlled_values/digital_origin/reformatted_digital,4 pages,about:surfliner_schema/controlled_values/sublocation/SRC,,1855-07-26
sb-gazette-18550802,sb-gazette-18550802,F869.S23 S354,GenericObject,sb-gazette,"Santa Barbara gazette, August 2, 1855",ark:/48907/f3sb49cj,La gaceta|The gazette,"Volume 1, Number 11.",en|es,http://id.loc.gov/authorities/names/n79041717|http://id.loc.gov/authorities/names/n79081574,"Keep & Hubbard : Santa Barbara, Cal.",http://id.loc.gov/vocabulary/preservation/copyrightStatus/pub,http://rightsstatements.org/vocab/NoC-US/1.0/,http://id.loc.gov/vocabulary/resourceTypes/txt,http://vocab.getty.edu/aat/300026656,about:surfliner_schema/controlled_values/digital_origin/reformatted_digital,4 pages,about:surfliner_schema/controlled_values/sublocation/SRC,,1855-08-02
sb-gazette-18550809,sb-gazette-18550809,F869.S23 S354,GenericObject,sb-gazette,"Santa Barbara gazette, August 9, 1855",ark:/48907/f3nk3jnt,La gaceta|The gazette,"Volume 1, Number 12.",en|es,http://id.loc.gov/authorities/names/n79041717|http://id.loc.gov/authorities/names/n79081574,"Keep & Hubbard : Santa Barbara, Cal.",http://id.loc.gov/vocabulary/preservation/copyrightStatus/pub,http://rightsstatements.org/vocab/NoC-US/1.0/,http://id.loc.gov/vocabulary/resourceTypes/txt,http://vocab.getty.edu/aat/300026656,about:surfliner_schema/controlled_values/digital_origin/reformatted_digital,4 pages,about:surfliner_schema/controlled_values/sublocation/SRC,,1855-08-09
sb-gazette-18550816,sb-gazette-18550816,F869.S23 S354,GenericObject,sb-gazette,"Santa Barbara gazette, August 16, 1855",ark:/48907/f3ht2szj,La gaceta|The gazette,"Volume 1, Number 13.",en|es,http://id.loc.gov/authorities/names/n79041717|http://id.loc.gov/authorities/names/n79081574,"Keep & Hubbard : Santa Barbara, Cal.",http://id.loc.gov/vocabulary/preservation/copyrightStatus/pub,http://rightsstatements.org/vocab/NoC-US/1.0/,http://id.loc.gov/vocabulary/resourceTypes/txt,http://vocab.getty.edu/aat/300026656,about:surfliner_schema/controlled_values/digital_origin/reformatted_digital,4 pages,about:surfliner_schema/controlled_values/sublocation/SRC,,1855-08-16
sb-gazette-18550823,sb-gazette-18550823,F869.S23 S354,GenericObject,sb-gazette,"Santa Barbara gazette, August 23, 1855",ark:/48907/f3d2227x,La gaceta|The gazette,"Volume 1, Number 14.",en|es,http://id.loc.gov/authorities/names/n79041717|http://id.loc.gov/authorities/names/n79081574,"Keep & Hubbard : Santa Barbara, Cal.",http://id.loc.gov/vocabulary/preservation/copyrightStatus/pub,http://rightsstatements.org/vocab/NoC-US/1.0/,http://id.loc.gov/vocabulary/resourceTypes/txt,http://vocab.getty.edu/aat/300026656,about:surfliner_schema/controlled_values/digital_origin/reformatted_digital,4 pages,about:surfliner_schema/controlled_values/sublocation/SRC,,1855-08-23
sb-gazette-18550830,sb-gazette-18550830,F869.S23 S354,GenericObject,sb-gazette,"Santa Barbara gazette, August 30, 1855",ark:/48907/f38919f9,La gaceta|The gazette,"Volume 1, Number 15.",en|es,http://id.loc.gov/authorities/names/n79041717|http://id.loc.gov/authorities/names/n79081574,"Keep & Hubbard : Santa Barbara, Cal.",http://id.loc.gov/vocabulary/preservation/copyrightStatus/pub,http://rightsstatements.org/vocab/NoC-US/1.0/,http://id.loc.gov/vocabulary/resourceTypes/txt,http://vocab.getty.edu/aat/300026656,about:surfliner_schema/controlled_values/digital_origin/reformatted_digital,4 pages,about:surfliner_schema/controlled_values/sublocation/SRC,,1855-08-30
sb-gazette-18550906,sb-gazette-18550906,F869.S23 S354,GenericObject,sb-gazette,"Santa Barbara gazette, September 6, 1855",ark:/48907/f34j0jqk,La gaceta|The gazette,"Volume 1, Number 16.",en|es,http://id.loc.gov/authorities/names/n79041717|http://id.loc.gov/authorities/names/n79081574,"Keep & Hubbard : Santa Barbara, Cal.",http://id.loc.gov/vocabulary/preservation/copyrightStatus/pub,http://rightsstatements.org/vocab/NoC-US/1.0/,http://id.loc.gov/vocabulary/resourceTypes/txt,http://vocab.getty.edu/aat/300026656,about:surfliner_schema/controlled_values/digital_origin/reformatted_digital,4 pages,about:surfliner_schema/controlled_values/sublocation/SRC,,1855-09-06
sb-gazette-18550913,sb-gazette-18550913,F869.S23 S354,GenericObject,sb-gazette,"Santa Barbara gazette, September 13, 1855",ark:/48907/f30v8hd1,La gaceta|The gazette,"Volume 1, Number 17.",en|es,http://id.loc.gov/authorities/names/n79041717|http://id.loc.gov/authorities/names/n79081574,"Keep & Hubbard : Santa Barbara, Cal.",http://id.loc.gov/vocabulary/preservation/copyrightStatus/pub,http://rightsstatements.org/vocab/NoC-US/1.0/,http://id.loc.gov/vocabulary/resourceTypes/txt,http://vocab.getty.edu/aat/300026656,about:surfliner_schema/controlled_values/digital_origin/reformatted_digital,4 pages,about:surfliner_schema/controlled_values/sublocation/SRC,,1855-09-13
sb-gazette-18550920,sb-gazette-18550920,F869.S23 S354,GenericObject,sb-gazette,"Santa Barbara gazette, September 20, 1855",ark:/48907/f3w380zg,La gaceta|The gazette,"Volume 1, Number 18.",en|es,http://id.loc.gov/authorities/names/n79041717|http://id.loc.gov/authorities/names/n79081574,"Keep & Hubbard : Santa Barbara, Cal.",http://id.loc.gov/vocabulary/preservation/copyrightStatus/pub,http://rightsstatements.org/vocab/NoC-US/1.0/,http://id.loc.gov/vocabulary/resourceTypes/txt,http://vocab.getty.edu/aat/300026656,about:surfliner_schema/controlled_values/digital_origin/reformatted_digital,4 pages,about:surfliner_schema/controlled_values/sublocation/SRC,,1855-09-20
sb-gazette-18550927,sb-gazette-18550927,F869.S23 S354,GenericObject,sb-gazette,"Santa Barbara gazette, September 27, 1855",ark:/48907/f3rb7875,La gaceta|The gazette,"Volume 1, Number 19.",en|es,http://id.loc.gov/authorities/names/n79041717|http://id.loc.gov/authorities/names/n79081574,"Keep & Hubbard : Santa Barbara, Cal.",http://id.loc.gov/vocabulary/preservation/copyrightStatus/pub,http://rightsstatements.org/vocab/NoC-US/1.0/,http://id.loc.gov/vocabulary/resourceTypes/txt,http://vocab.getty.edu/aat/300026656,about:surfliner_schema/controlled_values/digital_origin/reformatted_digital,4 pages,about:surfliner_schema/controlled_values/sublocation/SRC,,1855-09-27
sb-gazette-18551004,sb-gazette-18551004,F869.S23 S354,GenericObject,sb-gazette,"Santa Barbara gazette, October 4, 1855",ark:/48907/f3mk6hhf,La gaceta|The gazette,"Volume 1, Number 20.",en|es,http://id.loc.gov/authorities/names/n79041717|http://id.loc.gov/authorities/names/n79081574,"Keep & Hubbard : Santa Barbara, Cal.",http://id.loc.gov/vocabulary/preservation/copyrightStatus/pub,http://rightsstatements.org/vocab/NoC-US/1.0/,http://id.loc.gov/vocabulary/resourceTypes/txt,http://vocab.getty.edu/aat/300026656,about:surfliner_schema/controlled_values/digital_origin/reformatted_digital,4 pages,about:surfliner_schema/controlled_values/sublocation/SRC,,1855-10-04
sb-gazette-18551011,sb-gazette-18551011,F869.S23 S354,GenericObject,sb-gazette,"Santa Barbara gazette, October 11, 1855",ark:/48907/f3gt5rsq,La gaceta|The gazette,"Volume 1, Number 21.",en|es,http://id.loc.gov/authorities/names/n79041717|http://id.loc.gov/authorities/names/n79081574,"Keep & Hubbard : Santa Barbara, Cal.",http://id.loc.gov/vocabulary/preservation/copyrightStatus/pub,http://rightsstatements.org/vocab/NoC-US/1.0/,http://id.loc.gov/vocabulary/resourceTypes/txt,http://vocab.getty.edu/aat/300026656,about:surfliner_schema/controlled_values/digital_origin/reformatted_digital,4 pages,about:surfliner_schema/controlled_values/sublocation/SRC,,1855-10-11
sb-gazette-18551018,sb-gazette-18551018,F869.S23 S354,GenericObject,sb-gazette,"Santa Barbara gazette, October 18, 1855",ark:/48907/f3c2511n,La gaceta|The gazette,"Volume 1, Number 22.",en|es,http://id.loc.gov/authorities/names/n79041717|http://id.loc.gov/authorities/names/n79081574,"Keep & Hubbard : Santa Barbara, Cal.",http://id.loc.gov/vocabulary/preservation/copyrightStatus/pub,http://rightsstatements.org/vocab/NoC-US/1.0/,http://id.loc.gov/vocabulary/resourceTypes/txt,http://vocab.getty.edu/aat/300026656,about:surfliner_schema/controlled_values/digital_origin/reformatted_digital,4 pages,about:surfliner_schema/controlled_values/sublocation/SRC,,1855-10-18
sb-gazette-18551025,sb-gazette-18551025,F869.S23 S354,GenericObject,sb-gazette,"Santa Barbara gazette, October 25, 1855",ark:/48907/f379489x,La gaceta|The gazette,"Volume 1, Number 23.",en|es,http://id.loc.gov/authorities/names/n79041717|http://id.loc.gov/authorities/names/n79081574,"Keep & Hubbard : Santa Barbara, Cal.",http://id.loc.gov/vocabulary/preservation/copyrightStatus/pub,http://rightsstatements.org/vocab/NoC-US/1.0/,http://id.loc.gov/vocabulary/resourceTypes/txt,http://vocab.getty.edu/aat/300026656,about:surfliner_schema/controlled_values/digital_origin/reformatted_digital,4 pages,about:surfliner_schema/controlled_values/sublocation/SRC,,1855-10-25
sb-gazette-18551101,sb-gazette-18551101,F869.S23 S354,GenericObject,sb-gazette,"Santa Barbara gazette, November 1, 1855",ark:/48907/f33n270x,La gaceta|The gazette,"Volume 1, Number 24.",en|es,http://id.loc.gov/authorities/names/n79041717|http://id.loc.gov/authorities/names/n79081574,"Keep & Hubbard : Santa Barbara, Cal.",http://id.loc.gov/vocabulary/preservation/copyrightStatus/pub,http://rightsstatements.org/vocab/NoC-US/1.0/,http://id.loc.gov/vocabulary/resourceTypes/txt,http://vocab.getty.edu/aat/300026656,about:surfliner_schema/controlled_values/digital_origin/reformatted_digital,4 pages,about:surfliner_schema/controlled_values/sublocation/SRC,,1855-11-01
sb-gazette-18551108,sb-gazette-18551108,F869.S23 S354,GenericObject,sb-gazette,"Santa Barbara gazette, November 8, 1855",ark:/48907/f3zw1qjp,La gaceta|The gazette,"Volume 1, Number 25.",en|es,http://id.loc.gov/authorities/names/n79041717|http://id.loc.gov/authorities/names/n79081574,"Keep & Hubbard : Santa Barbara, Cal.",http://id.loc.gov/vocabulary/preservation/copyrightStatus/pub,http://rightsstatements.org/vocab/NoC-US/1.0/,http://id.loc.gov/vocabulary/resourceTypes/txt,http://vocab.getty.edu/aat/300026656,about:surfliner_schema/controlled_values/digital_origin/reformatted_digital,4 pages,about:surfliner_schema/controlled_values/sublocation/SRC,,1855-11-08
sb-gazette-18551115,sb-gazette-18551115,F869.S23 S354,GenericObject,sb-gazette,"Santa Barbara gazette, November 15, 1855",ark:/48907/f3v40zt8,La gaceta|The gazette,"Volume 1, Number 26.",en|es,http://id.loc.gov/authorities/names/n79041717|http://id.loc.gov/authorities/names/n79081574,"Keep & Hubbard : Santa Barbara, Cal.",http://id.loc.gov/vocabulary/preservation/copyrightStatus/pub,http://rightsstatements.org/vocab/NoC-US/1.0/,http://id.loc.gov/vocabulary/resourceTypes/txt,http://vocab.getty.edu/aat/300026656,about:surfliner_schema/controlled_values/digital_origin/reformatted_digital,4 pages,about:surfliner_schema/controlled_values/sublocation/SRC,,1855-11-15
sb-gazette-18551122,sb-gazette-18551122,F869.S23 S354,GenericObject,sb-gazette,"Santa Barbara gazette, November 22, 1855",ark:/48907/f3qc074s,La gaceta|The gazette,"Volume 1, Number 27.",en|es,http://id.loc.gov/authorities/names/n79041717|http://id.loc.gov/authorities/names/n79081574,"Keep & Hubbard : Santa Barbara, Cal.",http://id.loc.gov/vocabulary/preservation/copyrightStatus/pub,http://rightsstatements.org/vocab/NoC-US/1.0/,http://id.loc.gov/vocabulary/resourceTypes/txt,http://vocab.getty.edu/aat/300026656,about:surfliner_schema/controlled_values/digital_origin/reformatted_digital,4 pages,about:surfliner_schema/controlled_values/sublocation/SRC,,1855-11-22
sb-gazette-18551129,sb-gazette-18551129,F869.S23 S354,GenericObject,sb-gazette,"Santa Barbara gazette, November 29, 1855",ark:/48907/f3kk9gdh,La gaceta|The gazette,"Volume 1, Number 28.",en|es,http://id.loc.gov/authorities/names/n79041717|http://id.loc.gov/authorities/names/n79081574,"Keep & Hubbard : Santa Barbara, Cal.",http://id.loc.gov/vocabulary/preservation/copyrightStatus/pub,http://rightsstatements.org/vocab/NoC-US/1.0/,http://id.loc.gov/vocabulary/resourceTypes/txt,http://vocab.getty.edu/aat/300026656,about:surfliner_schema/controlled_values/digital_origin/reformatted_digital,4 pages,about:surfliner_schema/controlled_values/sublocation/SRC,,1855-11-29
sb-gazette-18551206,sb-gazette-18551206,F869.S23 S354,GenericObject,sb-gazette,"Santa Barbara gazette, December 6, 1855",ark:/48907/f3ft8qnb,La gaceta|The gazette,"Volume 1, Number 29.",en|es,http://id.loc.gov/authorities/names/n79041717|http://id.loc.gov/authorities/names/n79081574,"Keep & Hubbard : Santa Barbara, Cal.",http://id.loc.gov/vocabulary/preservation/copyrightStatus/pub,http://rightsstatements.org/vocab/NoC-US/1.0/,http://id.loc.gov/vocabulary/resourceTypes/txt,http://vocab.getty.edu/aat/300026656,about:surfliner_schema/controlled_values/digital_origin/reformatted_digital,4 pages,about:surfliner_schema/controlled_values/sublocation/SRC,,1855-12-06
sb-gazette-18551213,sb-gazette-18551213,F869.S23 S354,GenericObject,sb-gazette,"Santa Barbara gazette, December 13, 1855",ark:/48907/f3b27zxx,La gaceta|The gazette,"Volume 1, Number 30.",en|es,http://id.loc.gov/authorities/names/n79041717|http://id.loc.gov/authorities/names/n79081574,"Keep & Hubbard : Santa Barbara, Cal.",http://id.loc.gov/vocabulary/preservation/copyrightStatus/pub,http://rightsstatements.org/vocab/NoC-US/1.0/,http://id.loc.gov/vocabulary/resourceTypes/txt,http://vocab.getty.edu/aat/300026656,about:surfliner_schema/controlled_values/digital_origin/reformatted_digital,4 pages,about:surfliner_schema/controlled_values/sublocation/SRC,,1855-12-13
sb-gazette-18551220,sb-gazette-18551220,F869.S23 S354,GenericObject,sb-gazette,"Santa Barbara gazette, December 20, 1855",ark:/48907/f36d5xkg,La gaceta|The gazette,"Volume 1, Number 31.",en|es,http://id.loc.gov/authorities/names/n79041717|http://id.loc.gov/authorities/names/n79081574,"Keep & Hubbard : Santa Barbara, Cal.",http://id.loc.gov/vocabulary/preservation/copyrightStatus/pub,http://rightsstatements.org/vocab/NoC-US/1.0/,http://id.loc.gov/vocabulary/resourceTypes/txt,http://vocab.getty.edu/aat/300026656,about:surfliner_schema/controlled_values/digital_origin/reformatted_digital,4 pages,about:surfliner_schema/controlled_values/sublocation/SRC,,1855-12-20
sb-gazette-18551227,sb-gazette-18551227,F869.S23 S354,GenericObject,sb-gazette,"Santa Barbara gazette, December 27, 1855",ark:/48907/f32n55wk,The gazette,"Volume 1, Number 32.",en,http://id.loc.gov/authorities/names/n79041717|http://id.loc.gov/authorities/names/n79081574,"Keep & Hubbard : Santa Barbara, Cal.",http://id.loc.gov/vocabulary/preservation/copyrightStatus/pub,http://rightsstatements.org/vocab/NoC-US/1.0/,http://id.loc.gov/vocabulary/resourceTypes/txt,http://vocab.getty.edu/aat/300026656,about:surfliner_schema/controlled_values/digital_origin/reformatted_digital,4 pages,about:surfliner_schema/controlled_values/sublocation/SRC,"From here on, still have some ads in Spanish, but no longer have Spanish section of newspaper.",1855-12-27
sb-gazette-18560103,sb-gazette-18560103,F869.S23 S354,GenericObject,sb-gazette,"Santa Barbara gazette, January 3, 1856",ark:/48907/f3xw4pd9,The gazette,"Volume 1, Number 33.",en,http://id.loc.gov/authorities/names/n79041717|http://id.loc.gov/authorities/names/n79081574,"Keep & Hubbard : Santa Barbara, Cal.",http://id.loc.gov/vocabulary/preservation/copyrightStatus/pub,http://rightsstatements.org/vocab/NoC-US/1.0/,http://id.loc.gov/vocabulary/resourceTypes/txt,http://vocab.getty.edu/aat/300026656,about:surfliner_schema/controlled_values/digital_origin/reformatted_digital,4 pages,about:surfliner_schema/controlled_values/sublocation/SRC,,1856-01-03
sb-gazette-18560110,sb-gazette-18560110,F869.S23 S354,GenericObject,sb-gazette,"Santa Barbara gazette, January 10, 1856",ark:/48907/f3t43xpw,The gazette,"Volume 1, Number 34.",en,http://id.loc.gov/authorities/names/n79041717|http://id.loc.gov/authorities/names/n79081574,"Keep & Hubbard : Santa Barbara, Cal.",http://id.loc.gov/vocabulary/preservation/copyrightStatus/pub,http://rightsstatements.org/vocab/NoC-US/1.0/,http://id.loc.gov/vocabulary/resourceTypes/txt,http://vocab.getty.edu/aat/300026656,about:surfliner_schema/controlled_values/digital_origin/reformatted_digital,4 pages,about:surfliner_schema/controlled_values/sublocation/SRC,,1856-01-10
sb-gazette-18560117,sb-gazette-18560117,F869.S23 S354,GenericObject,sb-gazette,"Santa Barbara gazette, January 17, 1856",ark:/48907/f3pc35zj,The gazette,"Volume 1, Number 35.",en,http://id.loc.gov/authorities/names/n79041717|http://id.loc.gov/authorities/names/n79081574,"Keep & Hubbard : Santa Barbara, Cal.",http://id.loc.gov/vocabulary/preservation/copyrightStatus/pub,http://rightsstatements.org/vocab/NoC-US/1.0/,http://id.loc.gov/vocabulary/resourceTypes/txt,http://vocab.getty.edu/aat/300026656,about:surfliner_schema/controlled_values/digital_origin/reformatted_digital,4 pages,about:surfliner_schema/controlled_values/sublocation/SRC,,1856-01-17
sb-gazette-18560124,sb-gazette-18560124,F869.S23 S354,GenericObject,sb-gazette,"Santa Barbara gazette, January 24, 1856",ark:/48907/f3jm2f77,The gazette,"Volume 1, Number 36.",en,http://id.loc.gov/authorities/names/n79041717|http://id.loc.gov/authorities/names/n79081574,"Keep & Hubbard : Santa Barbara, Cal.",http://id.loc.gov/vocabulary/preservation/copyrightStatus/pub,http://rightsstatements.org/vocab/NoC-US/1.0/,http://id.loc.gov/vocabulary/resourceTypes/txt,http://vocab.getty.edu/aat/300026656,about:surfliner_schema/controlled_values/digital_origin/reformatted_digital,4 pages,about:surfliner_schema/controlled_values/sublocation/SRC,,1856-01-24
sb-gazette-18560131,sb-gazette-18560131,F869.S23 S354,GenericObject,sb-gazette,"Santa Barbara gazette, January 31, 1856",ark:/48907/f3dv1phh,The gazette,"Volume 1, Number 37.",en,http://id.loc.gov/authorities/names/n79041717|http://id.loc.gov/authorities/names/n79081574,"Keep & Hubbard : Santa Barbara, Cal.",http://id.loc.gov/vocabulary/preservation/copyrightStatus/pub,http://rightsstatements.org/vocab/NoC-US/1.0/,http://id.loc.gov/vocabulary/resourceTypes/txt,http://vocab.getty.edu/aat/300026656,about:surfliner_schema/controlled_values/digital_origin/reformatted_digital,4 pages,about:surfliner_schema/controlled_values/sublocation/SRC,,1856-01-31
sb-gazette-18560207,sb-gazette-18560207,F869.S23 S354,GenericObject,sb-gazette,"Santa Barbara gazette, February 7, 1856",ark:/48907/f3959n5t,The gazette,"Volume 1, Number 38.",en,http://id.loc.gov/authorities/names/n79041717|http://id.loc.gov/authorities/names/n79081574,"Keep & Hubbard : Santa Barbara, Cal.",http://id.loc.gov/vocabulary/preservation/copyrightStatus/pub,http://rightsstatements.org/vocab/NoC-US/1.0/,http://id.loc.gov/vocabulary/resourceTypes/txt,http://vocab.getty.edu/aat/300026656,about:surfliner_schema/controlled_values/digital_origin/reformatted_digital,4 pages,about:surfliner_schema/controlled_values/sublocation/SRC,,1856-02-07
sb-gazette-18560214,sb-gazette-18560214,F869.S23 S354,GenericObject,sb-gazette,"Santa Barbara gazette, February 14, 1856",ark:/48907/f35d8wgj,The gazette,"Volume 1, Number 39.",en,http://id.loc.gov/authorities/names/n79041717|http://id.loc.gov/authorities/names/n79081574,"Keep & Hubbard : Santa Barbara, Cal.",http://id.loc.gov/vocabulary/preservation/copyrightStatus/pub,http://rightsstatements.org/vocab/NoC-US/1.0/,http://id.loc.gov/vocabulary/resourceTypes/txt,http://vocab.getty.edu/aat/300026656,about:surfliner_schema/controlled_values/digital_origin/reformatted_digital,4 pages,about:surfliner_schema/controlled_values/sublocation/SRC,,1856-02-14
sb-gazette-18560221,sb-gazette-18560221,F869.S23 S354,GenericObject,sb-gazette,"Santa Barbara gazette, February 21, 1856",ark:/48907/f31n84r6,The gazette,"Volume 1, Number 40.",en,http://id.loc.gov/authorities/names/n79041717|http://id.loc.gov/authorities/names/n79081574,"Keep & Hubbard : Santa Barbara, Cal.",http://id.loc.gov/vocabulary/preservation/copyrightStatus/pub,http://rightsstatements.org/vocab/NoC-US/1.0/,http://id.loc.gov/vocabulary/resourceTypes/txt,http://vocab.getty.edu/aat/300026656,about:surfliner_schema/controlled_values/digital_origin/reformatted_digital,4 pages,about:surfliner_schema/controlled_values/sublocation/SRC,,1856-02-21
sb-gazette-18560228,sb-gazette-18560228,F869.S23 S354,GenericObject,sb-gazette,"Santa Barbara gazette, February 28, 1856",ark:/48907/f3ww7n9c,The gazette,"Volume 1, Number 41.",en,http://id.loc.gov/authorities/names/n79041717|http://id.loc.gov/authorities/names/n79081574,"Keep & Hubbard : Santa Barbara, Cal.",http://id.loc.gov/vocabulary/preservation/copyrightStatus/pub,http://rightsstatements.org/vocab/NoC-US/1.0/,http://id.loc.gov/vocabulary/resourceTypes/txt,http://vocab.getty.edu/aat/300026656,about:surfliner_schema/controlled_values/digital_origin/reformatted_digital,4 pages,about:surfliner_schema/controlled_values/sublocation/SRC,,1856-02-28
sb-gazette-18560306,sb-gazette-18560306,F869.S23 S354,GenericObject,sb-gazette,"Santa Barbara gazette, March 6, 1856",ark:/48907/f3s46wkz,The gazette,"Volume 1, Number 42.",en,http://id.loc.gov/authorities/names/n79041717|http://id.loc.gov/authorities/names/n79081574,"Keep & Hubbard : Santa Barbara, Cal.",http://id.loc.gov/vocabulary/preservation/copyrightStatus/pub,http://rightsstatements.org/vocab/NoC-US/1.0/,http://id.loc.gov/vocabulary/resourceTypes/txt,http://vocab.getty.edu/aat/300026656,about:surfliner_schema/controlled_values/digital_origin/reformatted_digital,4 pages,about:surfliner_schema/controlled_values/sublocation/SRC,,1856-03-06
sb-gazette-18560313,sb-gazette-18560313,F869.S23 S354,GenericObject,sb-gazette,"Santa Barbara gazette, March 13, 1856",ark:/48907/f3nc64t5,The gazette,"Volume 1, Number 43.",en,http://id.loc.gov/authorities/names/n79041717|http://id.loc.gov/authorities/names/n79081574,"Keep & Hubbard : Santa Barbara, Cal.",http://id.loc.gov/vocabulary/preservation/copyrightStatus/pub,http://rightsstatements.org/vocab/NoC-US/1.0/,http://id.loc.gov/vocabulary/resourceTypes/txt,http://vocab.getty.edu/aat/300026656,about:surfliner_schema/controlled_values/digital_origin/reformatted_digital,4 pages,about:surfliner_schema/controlled_values/sublocation/SRC,,1856-03-13
sb-gazette-18560320,sb-gazette-18560320,F869.S23 S354,GenericObject,sb-gazette,"Santa Barbara gazette, March 20, 1856",ark:/48907/f3hq43h5,The gazette,"Volume 1, Number 44.",en,http://id.loc.gov/authorities/names/n79041717|http://id.loc.gov/authorities/names/n79081574,"Keep & Hubbard : Santa Barbara, Cal.",http://id.loc.gov/vocabulary/preservation/copyrightStatus/pub,http://rightsstatements.org/vocab/NoC-US/1.0/,http://id.loc.gov/vocabulary/resourceTypes/txt,http://vocab.getty.edu/aat/300026656,about:surfliner_schema/controlled_values/digital_origin/reformatted_digital,4 pages,about:surfliner_schema/controlled_values/sublocation/SRC,,1856-03-20
sb-gazette-18560327,sb-gazette-18560327,F869.S23 S354,GenericObject,sb-gazette,"Santa Barbara gazette, March 27, 1856",ark:/48907/f3cz3bsf,The gazette,"Volume 1, Number 45.",en,http://id.loc.gov/authorities/names/n79041717|http://id.loc.gov/authorities/names/n79081574,"Keep & Hubbard : Santa Barbara, Cal.",http://id.loc.gov/vocabulary/preservation/copyrightStatus/pub,http://rightsstatements.org/vocab/NoC-US/1.0/,http://id.loc.gov/vocabulary/resourceTypes/txt,http://vocab.getty.edu/aat/300026656,about:surfliner_schema/controlled_values/digital_origin/reformatted_digital,4 pages,about:surfliner_schema/controlled_values/sublocation/SRC,,1856-03-27
sb-gazette-18560403,sb-gazette-18560403,F869.S23 S354,GenericObject,sb-gazette,"Santa Barbara gazette, April 3, 1856",ark:/48907/f3862m3w,The gazette,"Volume 1, Number 46.",en,http://id.loc.gov/authorities/names/n79041717|http://id.loc.gov/authorities/names/n79081574,"Keep & Hubbard : Santa Barbara, Cal.",http://id.loc.gov/vocabulary/preservation/copyrightStatus/pub,http://rightsstatements.org/vocab/NoC-US/1.0/,http://id.loc.gov/vocabulary/resourceTypes/txt,http://vocab.getty.edu/aat/300026656,about:surfliner_schema/controlled_values/digital_origin/reformatted_digital,4 pages,about:surfliner_schema/controlled_values/sublocation/SRC,,1856-04-03
sb-gazette-18560410,sb-gazette-18560410,F869.S23 S354,GenericObject,sb-gazette,"Santa Barbara gazette, April 10, 1856",ark:/48907/f34f1vc5,The gazette,"Volume 1, Number 47.",en,http://id.loc.gov/authorities/names/n79041717|http://id.loc.gov/authorities/names/n79081574,"Keep & Hubbard : Santa Barbara, Cal.",http://id.loc.gov/vocabulary/preservation/copyrightStatus/pub,http://rightsstatements.org/vocab/NoC-US/1.0/,http://id.loc.gov/vocabulary/resourceTypes/txt,http://vocab.getty.edu/aat/300026656,about:surfliner_schema/controlled_values/digital_origin/reformatted_digital,4 pages,about:surfliner_schema/controlled_values/sublocation/SRC,,1856-04-10
sb-gazette-18560417,sb-gazette-18560417,F869.S23 S354,GenericObject,sb-gazette,"Santa Barbara gazette, April 17, 1856",ark:/48907/f30p13nt,The gazette,"Volume 1, Number 48.",en,http://id.loc.gov/authorities/names/n79041717|http://id.loc.gov/authorities/names/n79081574,"Keep & Hubbard : Santa Barbara, Cal.",http://id.loc.gov/vocabulary/preservation/copyrightStatus/pub,http://rightsstatements.org/vocab/NoC-US/1.0/,http://id.loc.gov/vocabulary/resourceTypes/txt,http://vocab.getty.edu/aat/300026656,about:surfliner_schema/controlled_values/digital_origin/reformatted_digital,4 pages,about:surfliner_schema/controlled_values/sublocation/SRC,,1856-04-17
sb-gazette-18560424,sb-gazette-18560424,F869.S23 S354,GenericObject,sb-gazette,"Santa Barbara gazette, April 24, 1856",ark:/48907/f3vx0m43,The gazette,"Volume 1, Number 49.",en,http://id.loc.gov/authorities/names/n79041717|http://id.loc.gov/authorities/names/n79081574,"Keep & Hubbard : Santa Barbara, Cal.",http://id.loc.gov/vocabulary/preservation/copyrightStatus/pub,http://rightsstatements.org/vocab/NoC-US/1.0/,http://id.loc.gov/vocabulary/resourceTypes/txt,http://vocab.getty.edu/aat/300026656,about:surfliner_schema/controlled_values/digital_origin/reformatted_digital,4 pages,about:surfliner_schema/controlled_values/sublocation/SRC,,1856-04-24
sb-gazette-18560501,sb-gazette-18560501,F869.S23 S354,GenericObject,sb-gazette,"Santa Barbara gazette, May 1, 1856",ark:/48907/f3r49vd4,The gazette,"Volume 1, Number 50.",en,http://id.loc.gov/authorities/names/n79041717|http://id.loc.gov/authorities/names/n79081574,"Keep & Hubbard : Santa Barbara, Cal.",http://id.loc.gov/vocabulary/preservation/copyrightStatus/pub,http://rightsstatements.org/vocab/NoC-US/1.0/,http://id.loc.gov/vocabulary/resourceTypes/txt,http://vocab.getty.edu/aat/300026656,about:surfliner_schema/controlled_values/digital_origin/reformatted_digital,4 pages,about:surfliner_schema/controlled_values/sublocation/SRC,Last page ripped/has holes; a few words are missing or cut off.,1856-05-01
sb-gazette-18560508,sb-gazette-18560508,F869.S23 S354,GenericObject,sb-gazette,"Santa Barbara gazette, May 8, 1856",ark:/48907/f3mg7t34,The gazette,"Volume 1, Number 51.",en,http://id.loc.gov/authorities/names/n79041717|http://id.loc.gov/authorities/names/n79081574,"Keep & Hubbard : Santa Barbara, Cal.",http://id.loc.gov/vocabulary/preservation/copyrightStatus/pub,http://rightsstatements.org/vocab/NoC-US/1.0/,http://id.loc.gov/vocabulary/resourceTypes/txt,http://vocab.getty.edu/aat/300026656,about:surfliner_schema/controlled_values/digital_origin/reformatted_digital,4 pages,about:surfliner_schema/controlled_values/sublocation/SRC,,1856-05-08
sb-gazette-18560515,sb-gazette-18560515,F869.S23 S354,GenericObject,sb-gazette,"Santa Barbara gazette, May 15, 1856",ark:/48907/f3gq72cs,The gazette,"Volume 1, Number 52.",en,http://id.loc.gov/authorities/names/n79041717|http://id.loc.gov/authorities/names/n79081574,"Keep & Hubbard : Santa Barbara, Cal.",http://id.loc.gov/vocabulary/preservation/copyrightStatus/pub,http://rightsstatements.org/vocab/NoC-US/1.0/,http://id.loc.gov/vocabulary/resourceTypes/txt,http://vocab.getty.edu/aat/300026656,about:surfliner_schema/controlled_values/digital_origin/reformatted_digital,4 pages,about:surfliner_schema/controlled_values/sublocation/SRC,,1856-05-15
sb-gazette-18560522,sb-gazette-18560522,F869.S23 S354,GenericObject,sb-gazette,"Santa Barbara gazette, May 22, 1856",ark:/48907/f3bz69ph,The gazette,"Volume 2, Number 1 (Whole number 53).",en,http://id.loc.gov/authorities/names/n79041717|http://id.loc.gov/authorities/names/n79081574,"Keep & Hubbard : Santa Barbara, Cal.",http://id.loc.gov/vocabulary/preservation/copyrightStatus/pub,http://rightsstatements.org/vocab/NoC-US/1.0/,http://id.loc.gov/vocabulary/resourceTypes/txt,http://vocab.getty.edu/aat/300026656,about:surfliner_schema/controlled_values/digital_origin/reformatted_digital,4 pages,about:surfliner_schema/controlled_values/sublocation/SRC,,1856-05-22
sb-gazette-18560529,sb-gazette-18560529,F869.S23 S354,GenericObject,sb-gazette,"Santa Barbara gazette, May 29, 1856",ark:/48907/f3765jz3,The gazette,"Volume 2, Number 2 (Whole number 54).",en,http://id.loc.gov/authorities/names/n79041717|http://id.loc.gov/authorities/names/n79081574,"Keep & Hubbard : Santa Barbara, Cal.",http://id.loc.gov/vocabulary/preservation/copyrightStatus/pub,http://rightsstatements.org/vocab/NoC-US/1.0/,http://id.loc.gov/vocabulary/resourceTypes/txt,http://vocab.getty.edu/aat/300026656,about:surfliner_schema/controlled_values/digital_origin/reformatted_digital,4 pages,about:surfliner_schema/controlled_values/sublocation/SRC,,1856-05-29
sb-gazette-18560605,sb-gazette-18560605,F869.S23 S354,GenericObject,sb-gazette,"Santa Barbara gazette, June 5, 1856",ark:/48907/f33f4t87,The gazette,"Volume 2, Number 3 (Whole number 55).",en,http://id.loc.gov/authorities/names/n79041717|http://id.loc.gov/authorities/names/n79081574,"Keep & Hubbard : Santa Barbara, Cal.",http://id.loc.gov/vocabulary/preservation/copyrightStatus/pub,http://rightsstatements.org/vocab/NoC-US/1.0/,http://id.loc.gov/vocabulary/resourceTypes/txt,http://vocab.getty.edu/aat/300026656,about:surfliner_schema/controlled_values/digital_origin/reformatted_digital,4 pages,about:surfliner_schema/controlled_values/sublocation/SRC,,1856-06-05
sb-gazette-18560612,sb-gazette-18560612,F869.S23 S354,GenericObject,sb-gazette,"Santa Barbara gazette, June 12, 1856",ark:/48907/f3zp49q1,The gazette,"Volume 2, Number 4 (Whole number 56).",en,http://id.loc.gov/authorities/names/n79041717|http://id.loc.gov/authorities/names/n79081574,"Keep & Hubbard : Santa Barbara, Cal.",http://id.loc.gov/vocabulary/preservation/copyrightStatus/pub,http://rightsstatements.org/vocab/NoC-US/1.0/,http://id.loc.gov/vocabulary/resourceTypes/txt,http://vocab.getty.edu/aat/300026656,about:surfliner_schema/controlled_values/digital_origin/reformatted_digital,4 pages,about:surfliner_schema/controlled_values/sublocation/SRC,,1856-06-12
sb-gazette-18560619,sb-gazette-18560619,F869.S23 S354,GenericObject,sb-gazette,"Santa Barbara gazette, June 19, 1856",ark:/48907/f3tx3k0q,The gazette,"Volume 2, Number 5 (Whole number 57).",en,http://id.loc.gov/authorities/names/n79041717|http://id.loc.gov/authorities/names/n79081574,"Keep & Hubbard : Santa Barbara, Cal.",http://id.loc.gov/vocabulary/preservation/copyrightStatus/pub,http://rightsstatements.org/vocab/NoC-US/1.0/,http://id.loc.gov/vocabulary/resourceTypes/txt,http://vocab.getty.edu/aat/300026656,about:surfliner_schema/controlled_values/digital_origin/reformatted_digital,4 pages,about:surfliner_schema/controlled_values/sublocation/SRC,,1856-06-19
sb-gazette-18560626,sb-gazette-18560626,F869.S23 S354,GenericObject,sb-gazette,"Santa Barbara gazette, June 26, 1856",ark:/48907/f3q81hpm,The gazette,"Volume 2, Number 6 (Whole number 58).",en,http://id.loc.gov/authorities/names/n79041717|http://id.loc.gov/authorities/names/n79081574,"Keep & Hubbard : Santa Barbara, Cal.",http://id.loc.gov/vocabulary/preservation/copyrightStatus/pub,http://rightsstatements.org/vocab/NoC-US/1.0/,http://id.loc.gov/vocabulary/resourceTypes/txt,http://vocab.getty.edu/aat/300026656,about:surfliner_schema/controlled_values/digital_origin/reformatted_digital,4 pages,about:surfliner_schema/controlled_values/sublocation/SRC,,1856-06-26
sb-gazette-18560703,sb-gazette-18560703,F869.S23 S354,GenericObject,sb-gazette,"Santa Barbara gazette, July 3, 1856",ark:/48907/f3kh0rzw,The gazette,"Volume 2, Number 7 (Whole number 59).",en,http://id.loc.gov/authorities/names/n79041717|http://id.loc.gov/authorities/names/n79081574,"Keep & Hubbard : Santa Barbara, Cal.",http://id.loc.gov/vocabulary/preservation/copyrightStatus/pub,http://rightsstatements.org/vocab/NoC-US/1.0/,http://id.loc.gov/vocabulary/resourceTypes/txt,http://vocab.getty.edu/aat/300026656,about:surfliner_schema/controlled_values/digital_origin/reformatted_digital,4 pages,about:surfliner_schema/controlled_values/sublocation/SRC,Some content appears to have somehow transferred (rubbed off?) from bottom right corner of page 1 to bottom left of page 2.,1856-07-03
sb-gazette-18560710,sb-gazette-18560710,F869.S23 S354,GenericObject,sb-gazette,"Santa Barbara gazette, July 10, 1856",ark:/48907/f3fr017z,The gazette,"Volume 2, Number 8 (Whole number 60).",en,http://id.loc.gov/authorities/names/n79041717|http://id.loc.gov/authorities/names/n79081574,"Keep & Hubbard : Santa Barbara, Cal.",http://id.loc.gov/vocabulary/preservation/copyrightStatus/pub,http://rightsstatements.org/vocab/NoC-US/1.0/,http://id.loc.gov/vocabulary/resourceTypes/txt,http://vocab.getty.edu/aat/300026656,about:surfliner_schema/controlled_values/digital_origin/reformatted_digital,4 pages,about:surfliner_schema/controlled_values/sublocation/SRC,,1856-07-10
sb-gazette-18560717,sb-gazette-18560717,F869.S23 S354,GenericObject,sb-gazette,"Santa Barbara gazette, July 17, 1856",ark:/48907/f39z98hp,The gazette,"Volume 2, Number 9 (Whole number 61).",en,http://id.loc.gov/authorities/names/n79041717|http://id.loc.gov/authorities/names/n79081574,"Keep & Hubbard : Santa Barbara, Cal.",http://id.loc.gov/vocabulary/preservation/copyrightStatus/pub,http://rightsstatements.org/vocab/NoC-US/1.0/,http://id.loc.gov/vocabulary/resourceTypes/txt,http://vocab.getty.edu/aat/300026656,about:surfliner_schema/controlled_values/digital_origin/reformatted_digital,4 pages,about:surfliner_schema/controlled_values/sublocation/SRC,,1856-07-17
sb-gazette-18560724,sb-gazette-18560724,F869.S23 S354,GenericObject,sb-gazette,"Santa Barbara gazette, July 24, 1856",ark:/48907/f3668hs8,The gazette,"Volume 2, Number 10 (Whole number 62).",en,http://id.loc.gov/authorities/names/n79041717|http://id.loc.gov/authorities/names/n79081574,"Keep & Hubbard : Santa Barbara, Cal.",http://id.loc.gov/vocabulary/preservation/copyrightStatus/pub,http://rightsstatements.org/vocab/NoC-US/1.0/,http://id.loc.gov/vocabulary/resourceTypes/txt,http://vocab.getty.edu/aat/300026656,about:surfliner_schema/controlled_values/digital_origin/reformatted_digital,4 pages,about:surfliner_schema/controlled_values/sublocation/SRC,,1856-07-24
sb-gazette-18560731,sb-gazette-18560731,F869.S23 S354,GenericObject,sb-gazette,"Santa Barbara gazette, July 31, 1856",ark:/48907/f32f7s1h,The gazette,"Volume 2, Number 11 (Whole number 63).",en,http://id.loc.gov/authorities/names/n79041717|http://id.loc.gov/authorities/names/n79081574,"Keep & Hubbard : Santa Barbara, Cal.",http://id.loc.gov/vocabulary/preservation/copyrightStatus/pub,http://rightsstatements.org/vocab/NoC-US/1.0/,http://id.loc.gov/vocabulary/resourceTypes/txt,http://vocab.getty.edu/aat/300026656,about:surfliner_schema/controlled_values/digital_origin/reformatted_digital,4 pages,about:surfliner_schema/controlled_values/sublocation/SRC,,1856-07-31
sb-gazette-18560807,sb-gazette-18560807,F869.S23 S354,GenericObject,sb-gazette,"Santa Barbara gazette, August 7, 1856",ark:/48907/f3xp78j6,The gazette,"Volume 2, Number 12 (Whole number 64).",en,http://id.loc.gov/authorities/names/n79041717|http://id.loc.gov/authorities/names/n79081574,"Keep & Hubbard : Santa Barbara, Cal.",http://id.loc.gov/vocabulary/preservation/copyrightStatus/pub,http://rightsstatements.org/vocab/NoC-US/1.0/,http://id.loc.gov/vocabulary/resourceTypes/txt,http://vocab.getty.edu/aat/300026656,about:surfliner_schema/controlled_values/digital_origin/reformatted_digital,4 pages,about:surfliner_schema/controlled_values/sublocation/SRC,,1856-08-07
sb-gazette-18560814,sb-gazette-18560814,F869.S23 S354,GenericObject,sb-gazette,"Santa Barbara gazette, August 14, 1856",ark:/48907/f3t1578z,The gazette,"Volume 2, Number 13 (Whole number 65).",en,http://id.loc.gov/authorities/names/n79041717|http://id.loc.gov/authorities/names/n79081574,"Keep & Hubbard : Santa Barbara, Cal.",http://id.loc.gov/vocabulary/preservation/copyrightStatus/pub,http://rightsstatements.org/vocab/NoC-US/1.0/,http://id.loc.gov/vocabulary/resourceTypes/txt,http://vocab.getty.edu/aat/300026656,about:surfliner_schema/controlled_values/digital_origin/reformatted_digital,4 pages,about:surfliner_schema/controlled_values/sublocation/SRC,,1856-08-14
sb-gazette-18560821,sb-gazette-18560821,F869.S23 S354,GenericObject,sb-gazette,"Santa Barbara gazette, August 21, 1856",ark:/48907/f3p84gj7,The gazette,"Volume 2, Number 14 (Whole number 66).",en,http://id.loc.gov/authorities/names/n79041717|http://id.loc.gov/authorities/names/n79081574,"Keep & Hubbard : Santa Barbara, Cal.",http://id.loc.gov/vocabulary/preservation/copyrightStatus/pub,http://rightsstatements.org/vocab/NoC-US/1.0/,http://id.loc.gov/vocabulary/resourceTypes/txt,http://vocab.getty.edu/aat/300026656,about:surfliner_schema/controlled_values/digital_origin/reformatted_digital,4 pages,about:surfliner_schema/controlled_values/sublocation/SRC,,1856-08-21
sb-gazette-18560828,sb-gazette-18560828,F869.S23 S354,GenericObject,sb-gazette,"Santa Barbara gazette, August 28, 1856",ark:/48907/f3jh3qth,The gazette,"Volume 2, Number 15 (Whole number 67).",en,http://id.loc.gov/authorities/names/n79041717|http://id.loc.gov/authorities/names/n79081574,"Keep & Hubbard : Santa Barbara, Cal.",http://id.loc.gov/vocabulary/preservation/copyrightStatus/pub,http://rightsstatements.org/vocab/NoC-US/1.0/,http://id.loc.gov/vocabulary/resourceTypes/txt,http://vocab.getty.edu/aat/300026656,about:surfliner_schema/controlled_values/digital_origin/reformatted_digital,4 pages,about:surfliner_schema/controlled_values/sublocation/SRC,,1856-08-28
sb-gazette-18560904,sb-gazette-18560904,F869.S23 S354,GenericObject,sb-gazette,"Santa Barbara gazette, September 4, 1856",ark:/48907/f3dr3041,The gazette,"Volume 2, Number 16 (Whole number 68).",en,http://id.loc.gov/authorities/names/n79041717|http://id.loc.gov/authorities/names/n79081574,"Keep & Hubbard : Santa Barbara, Cal.",http://id.loc.gov/vocabulary/preservation/copyrightStatus/pub,http://rightsstatements.org/vocab/NoC-US/1.0/,http://id.loc.gov/vocabulary/resourceTypes/txt,http://vocab.getty.edu/aat/300026656,about:surfliner_schema/controlled_values/digital_origin/reformatted_digital,4 pages,about:surfliner_schema/controlled_values/sublocation/SRC,,1856-09-04
sb-gazette-18560911,sb-gazette-18560911,F869.S23 S354,GenericObject,sb-gazette,"Santa Barbara gazette, September 11, 1856",ark:/48907/f39027dm,The gazette,"Volume 2, Number 17 (Whole number 69).",en,http://id.loc.gov/authorities/names/n79041717|http://id.loc.gov/authorities/names/n79081574,"Keep & Hubbard : Santa Barbara, Cal.",http://id.loc.gov/vocabulary/preservation/copyrightStatus/pub,http://rightsstatements.org/vocab/NoC-US/1.0/,http://id.loc.gov/vocabulary/resourceTypes/txt,http://vocab.getty.edu/aat/300026656,about:surfliner_schema/controlled_values/digital_origin/reformatted_digital,4 pages,about:surfliner_schema/controlled_values/sublocation/SRC,,1856-09-11
sb-gazette-18560918,sb-gazette-18560918,F869.S23 S354,GenericObject,sb-gazette,"Santa Barbara gazette, September 18, 1856",ark:/48907/f3571gm0,The gazette,"Volume 2, Number 18 (Whole number 70).",en,http://id.loc.gov/authorities/names/n79041717|http://id.loc.gov/authorities/names/n79081574,"Keep & Hubbard : Santa Barbara, Cal.",http://id.loc.gov/vocabulary/preservation/copyrightStatus/pub,http://rightsstatements.org/vocab/NoC-US/1.0/,http://id.loc.gov/vocabulary/resourceTypes/txt,http://vocab.getty.edu/aat/300026656,about:surfliner_schema/controlled_values/digital_origin/reformatted_digital,2 pages,about:surfliner_schema/controlled_values/sublocation/SRC,"""Owing to a lack of help, we this week issue our paper on a half sheet."" (page 2, column 1)",1856-09-18
sb-gazette-18560925,sb-gazette-18560925,F869.S23 S354,GenericObject,sb-gazette,"Santa Barbara gazette, September 25, 1856",ark:/48907/f31g0qw8,The gazette,"Volume 2, Number 19 (Whole number 71).",en,http://id.loc.gov/authorities/names/n79041717|http://id.loc.gov/authorities/names/n79081574,"Keep & Hubbard : Santa Barbara, Cal.",http://id.loc.gov/vocabulary/preservation/copyrightStatus/pub,http://rightsstatements.org/vocab/NoC-US/1.0/,http://id.loc.gov/vocabulary/resourceTypes/txt,http://vocab.getty.edu/aat/300026656,about:surfliner_schema/controlled_values/digital_origin/reformatted_digital,2 pages,about:surfliner_schema/controlled_values/sublocation/SRC,,1856-09-25
sb-gazette-18561002,sb-gazette-18561002,F869.S23 S354,GenericObject,sb-gazette,"Santa Barbara gazette, October 2, 1856",ark:/48907/f3ws8xv6,The gazette,"Volume 2, Number 20 (Whole number 72).",en,http://id.loc.gov/authorities/names/n79041717|http://id.loc.gov/authorities/names/n79081574,"Keep & Hubbard : Santa Barbara, Cal.",http://id.loc.gov/vocabulary/preservation/copyrightStatus/pub,http://rightsstatements.org/vocab/NoC-US/1.0/,http://id.loc.gov/vocabulary/resourceTypes/txt,http://vocab.getty.edu/aat/300026656,about:surfliner_schema/controlled_values/digital_origin/reformatted_digital,2 pages,about:surfliner_schema/controlled_values/sublocation/SRC,,1856-10-02
sb-gazette-18561009,sb-gazette-18561009,F869.S23 S354,GenericObject,sb-gazette,"Santa Barbara gazette, October 9, 1856",ark:/48907/f3s1864k,The gazette,"Volume 2, Number 21 (Whole number 73).",en,http://id.loc.gov/authorities/names/n79041717|http://id.loc.gov/authorities/names/n79081574,"Keep & Hubbard : Santa Barbara, Cal.",http://id.loc.gov/vocabulary/preservation/copyrightStatus/pub,http://rightsstatements.org/vocab/NoC-US/1.0/,http://id.loc.gov/vocabulary/resourceTypes/txt,http://vocab.getty.edu/aat/300026656,about:surfliner_schema/controlled_values/digital_origin/reformatted_digital,2 pages,about:surfliner_schema/controlled_values/sublocation/SRC,,1856-10-09
sb-gazette-18561016,sb-gazette-18561016,F869.S23 S354,GenericObject,sb-gazette,"Santa Barbara gazette, October 16, 1856",ark:/48907/f3n87fdv,The gazette,"Volume 2, Number 22 (Whole number 74).",en,http://id.loc.gov/authorities/names/n79041717|http://id.loc.gov/authorities/names/n79081574,"Keep & Hubbard : Santa Barbara, Cal.",http://id.loc.gov/vocabulary/preservation/copyrightStatus/pub,http://rightsstatements.org/vocab/NoC-US/1.0/,http://id.loc.gov/vocabulary/resourceTypes/txt,http://vocab.getty.edu/aat/300026656,about:surfliner_schema/controlled_values/digital_origin/reformatted_digital,2 pages,about:surfliner_schema/controlled_values/sublocation/SRC,,1856-10-16
sb-gazette-18561023,sb-gazette-18561023,F869.S23 S354,GenericObject,sb-gazette,"Santa Barbara gazette, October 23, 1856",ark:/48907/f3hh6pp4,The gazette,"Volume 2, Number 23 (Whole number 75).",en,http://id.loc.gov/authorities/names/n79041717|http://id.loc.gov/authorities/names/n79081574,"Keep & Hubbard : Santa Barbara, Cal.",http://id.loc.gov/vocabulary/preservation/copyrightStatus/pub,http://rightsstatements.org/vocab/NoC-US/1.0/,http://id.loc.gov/vocabulary/resourceTypes/txt,http://vocab.getty.edu/aat/300026656,about:surfliner_schema/controlled_values/digital_origin/reformatted_digital,2 pages,about:surfliner_schema/controlled_values/sublocation/SRC,,1856-10-23
sb-gazette-18561030,sb-gazette-18561030,F869.S23 S354,GenericObject,sb-gazette,"Santa Barbara gazette, October 30, 1856",ark:/48907/f3cr5xzd,The gazette,"Volume 2, Number 24 (Whole number 76).",en,http://id.loc.gov/authorities/names/n79041717|http://id.loc.gov/authorities/names/n79081574,"Keep & Hubbard : Santa Barbara, Cal.",http://id.loc.gov/vocabulary/preservation/copyrightStatus/pub,http://rightsstatements.org/vocab/NoC-US/1.0/,http://id.loc.gov/vocabulary/resourceTypes/txt,http://vocab.getty.edu/aat/300026656,about:surfliner_schema/controlled_values/digital_origin/reformatted_digital,2 pages,about:surfliner_schema/controlled_values/sublocation/SRC,,1856-10-30
sb-gazette-18561106,sb-gazette-18561106,F869.S23 S354,GenericObject,sb-gazette,"Santa Barbara gazette, November 6, 1856",ark:/48907/f380566b,The gazette,"Volume 2, Number 25 (Whole number 77).",en,http://id.loc.gov/authorities/names/n79041717|http://id.loc.gov/authorities/names/n79081574,"Keep & Hubbard : Santa Barbara, Cal.",http://id.loc.gov/vocabulary/preservation/copyrightStatus/pub,http://rightsstatements.org/vocab/NoC-US/1.0/,http://id.loc.gov/vocabulary/resourceTypes/txt,http://vocab.getty.edu/aat/300026656,about:surfliner_schema/controlled_values/digital_origin/reformatted_digital,2 pages,about:surfliner_schema/controlled_values/sublocation/SRC,,1856-11-06
sb-gazette-18561113,sb-gazette-18561113,F869.S23 S354,GenericObject,sb-gazette,"Santa Barbara gazette, November 13, 1856",ark:/48907/f3474fgm,The gazette,"Volume 2, Number 26 (Whole number 78).",en,http://id.loc.gov/authorities/names/n79041717|http://id.loc.gov/authorities/names/n79081574,"Keep & Hubbard : Santa Barbara, Cal.",http://id.loc.gov/vocabulary/preservation/copyrightStatus/pub,http://rightsstatements.org/vocab/NoC-US/1.0/,http://id.loc.gov/vocabulary/resourceTypes/txt,http://vocab.getty.edu/aat/300026656,about:surfliner_schema/controlled_values/digital_origin/reformatted_digital,2 pages,about:surfliner_schema/controlled_values/sublocation/SRC,,1856-11-13
sb-gazette-18561120,sb-gazette-18561120,F869.S23 S354,GenericObject,sb-gazette,"Santa Barbara gazette, November 20, 1856",ark:/48907/f30k2d5m,The gazette,"Volume 2, Number 27 (Whole number 79).",en,http://id.loc.gov/authorities/names/n79041717|http://id.loc.gov/authorities/names/n79081574,"Keep & Hubbard : Santa Barbara, Cal.",http://id.loc.gov/vocabulary/preservation/copyrightStatus/pub,http://rightsstatements.org/vocab/NoC-US/1.0/,http://id.loc.gov/vocabulary/resourceTypes/txt,http://vocab.getty.edu/aat/300026656,about:surfliner_schema/controlled_values/digital_origin/reformatted_digital,2 pages,about:surfliner_schema/controlled_values/sublocation/SRC,,1856-11-20
sb-gazette-18561127,sb-gazette-18561127,F869.S23 S354,GenericObject,sb-gazette,"Santa Barbara gazette, November 27, 1856",ark:/48907/f3vt1wqc,The gazette,"Volume 2, Number 28 (Whole number 80).",en,http://id.loc.gov/authorities/names/n79041717|http://id.loc.gov/authorities/names/n79081574,"Keep & Hubbard : Santa Barbara, Cal.",http://id.loc.gov/vocabulary/preservation/copyrightStatus/pub,http://rightsstatements.org/vocab/NoC-US/1.0/,http://id.loc.gov/vocabulary/resourceTypes/txt,http://vocab.getty.edu/aat/300026656,about:surfliner_schema/controlled_values/digital_origin/reformatted_digital,2 pages,about:surfliner_schema/controlled_values/sublocation/SRC,,1856-11-27
sb-gazette-18561204,sb-gazette-18561204,F869.S23 S354,GenericObject,sb-gazette,"Santa Barbara gazette, December 4, 1856",ark:/48907/f3r2150r,The gazette,"Volume 2, Number 29 (Whole number 81).",en,http://id.loc.gov/authorities/names/n79041717|http://id.loc.gov/authorities/names/n79081574,"Keep & Hubbard : Santa Barbara, Cal.",http://id.loc.gov/vocabulary/preservation/copyrightStatus/pub,http://rightsstatements.org/vocab/NoC-US/1.0/,http://id.loc.gov/vocabulary/resourceTypes/txt,http://vocab.getty.edu/aat/300026656,about:surfliner_schema/controlled_values/digital_origin/reformatted_digital,2 pages,about:surfliner_schema/controlled_values/sublocation/SRC,,1856-12-04
sb-gazette-18561211,sb-gazette-18561211,F869.S23 S354,GenericObject,sb-gazette,"Santa Barbara gazette, December 11, 1856",ark:/48907/f3m90d81,The gazette,"Volume 2, Number 30 (Whole number 82).",en,http://id.loc.gov/authorities/names/n79041717|http://id.loc.gov/authorities/names/n79081574,"Keep & Hubbard : Santa Barbara, Cal.",http://id.loc.gov/vocabulary/preservation/copyrightStatus/pub,http://rightsstatements.org/vocab/NoC-US/1.0/,http://id.loc.gov/vocabulary/resourceTypes/txt,http://vocab.getty.edu/aat/300026656,about:surfliner_schema/controlled_values/digital_origin/reformatted_digital,2 pages,about:surfliner_schema/controlled_values/sublocation/SRC,,1856-12-11
sb-gazette-18561218,sb-gazette-18561218,F869.S23 S354,GenericObject,sb-gazette,"Santa Barbara gazette, December 18, 1856",ark:/48907/f3gh9njr,The gazette,"Volume 2, Number 31 (Whole number 83).",en,http://id.loc.gov/authorities/names/n79041717|http://id.loc.gov/authorities/names/n79081574,"Keep & Hubbard : Santa Barbara, Cal.",http://id.loc.gov/vocabulary/preservation/copyrightStatus/pub,http://rightsstatements.org/vocab/NoC-US/1.0/,http://id.loc.gov/vocabulary/resourceTypes/txt,http://vocab.getty.edu/aat/300026656,about:surfliner_schema/controlled_values/digital_origin/reformatted_digital,2 pages,about:surfliner_schema/controlled_values/sublocation/SRC,,1856-12-18
sb-gazette-18561226,sb-gazette-18561226,F869.S23 S354,GenericObject,sb-gazette,"Santa Barbara gazette, December 26, 1856",ark:/48907/f3br8wr4,The gazette,"Volume 2, Number 32 (Whole number 84).",en,http://id.loc.gov/authorities/names/n79041717|http://id.loc.gov/authorities/names/n79081574,"Keep & Hubbard : Santa Barbara, Cal.",http://id.loc.gov/vocabulary/preservation/copyrightStatus/pub,http://rightsstatements.org/vocab/NoC-US/1.0/,http://id.loc.gov/vocabulary/resourceTypes/txt,http://vocab.getty.edu/aat/300026656,about:surfliner_schema/controlled_values/digital_origin/reformatted_digital,2 pages,about:surfliner_schema/controlled_values/sublocation/SRC,,1856-12-26
sb-gazette-18570102,sb-gazette-18570102,F869.S23 S354,GenericObject,sb-gazette,"Santa Barbara gazette, January 2, 1857",ark:/48907/f370851h,The gazette,"Volume 2, Number 33 (Whole number 85).",en,http://id.loc.gov/authorities/names/n79041717|http://id.loc.gov/authorities/names/n79081574,"Keep & Hubbard : Santa Barbara, Cal.",http://id.loc.gov/vocabulary/preservation/copyrightStatus/pub,http://rightsstatements.org/vocab/NoC-US/1.0/,http://id.loc.gov/vocabulary/resourceTypes/txt,http://vocab.getty.edu/aat/300026656,about:surfliner_schema/controlled_values/digital_origin/reformatted_digital,2 pages,about:surfliner_schema/controlled_values/sublocation/SRC,,1857-01-02
sb-gazette-18570108,sb-gazette-18570108,F869.S23 S354,GenericObject,sb-gazette,"Santa Barbara gazette, January 8, 1857",ark:/48907/f33b63rj,The gazette,"Volume 2, Number 34 (Whole number 86).",en,http://id.loc.gov/authorities/names/n79041717|http://id.loc.gov/authorities/names/n79081574,"Keep & Hubbard : Santa Barbara, Cal.",http://id.loc.gov/vocabulary/preservation/copyrightStatus/pub,http://rightsstatements.org/vocab/NoC-US/1.0/,http://id.loc.gov/vocabulary/resourceTypes/txt,http://vocab.getty.edu/aat/300026656,about:surfliner_schema/controlled_values/digital_origin/reformatted_digital,2 pages,about:surfliner_schema/controlled_values/sublocation/SRC,,1857-01-08
sb-gazette-18570115,sb-gazette-18570115,F869.S23 S354,GenericObject,sb-gazette,"Santa Barbara gazette, January 15, 1857",ark:/48907/f3zk5m9q,The gazette,"Volume 2, Number 35 (Whole number 87).",en,http://id.loc.gov/authorities/names/n79041717|http://id.loc.gov/authorities/names/n79081574,"Keep & Hubbard : Santa Barbara, Cal.",http://id.loc.gov/vocabulary/preservation/copyrightStatus/pub,http://rightsstatements.org/vocab/NoC-US/1.0/,http://id.loc.gov/vocabulary/resourceTypes/txt,http://vocab.getty.edu/aat/300026656,about:surfliner_schema/controlled_values/digital_origin/reformatted_digital,4 pages,about:surfliner_schema/controlled_values/sublocation/SRC,"""The proprietors of this paper take the present occasion to apologise to their readers for the paucity of dimension . . . which has characterised the Gazette for some three months past . . . [o]wing to a severe accident to one of its members . . . The Gazette is herewith increased in size equal to its former dimensions"" (page 2, columns 1-2)",1857-01-15
sb-gazette-18570122,sb-gazette-18570122,F869.S23 S354,GenericObject,sb-gazette,"Santa Barbara gazette, January 22, 1857",ark:/48907/f3tt4vk0,The gazette,"Volume 2, Number 36 (Whole number 88).",en,http://id.loc.gov/authorities/names/n79041717|http://id.loc.gov/authorities/names/n79081574,"Keep & Hubbard : Santa Barbara, Cal.",http://id.loc.gov/vocabulary/preservation/copyrightStatus/pub,http://rightsstatements.org/vocab/NoC-US/1.0/,http://id.loc.gov/vocabulary/resourceTypes/txt,http://vocab.getty.edu/aat/300026656,about:surfliner_schema/controlled_values/digital_origin/reformatted_digital,4 pages,about:surfliner_schema/controlled_values/sublocation/SRC,,1857-01-22
sb-gazette-18570129,sb-gazette-18570129,F869.S23 S354,GenericObject,sb-gazette,"Santa Barbara gazette, January 29, 1857",ark:/48907/f3q243vz,The gazette,"Volume 2, Number 37 (Whole number 89).",en,http://id.loc.gov/authorities/names/n79041717|http://id.loc.gov/authorities/names/n79081574,"Keep & Hubbard : Santa Barbara, Cal.",http://id.loc.gov/vocabulary/preservation/copyrightStatus/pub,http://rightsstatements.org/vocab/NoC-US/1.0/,http://id.loc.gov/vocabulary/resourceTypes/txt,http://vocab.getty.edu/aat/300026656,about:surfliner_schema/controlled_values/digital_origin/reformatted_digital,4 pages,about:surfliner_schema/controlled_values/sublocation/SRC,,1857-01-29
sb-gazette-18570205,sb-gazette-18570205,F869.S23 S354,GenericObject,sb-gazette,"Santa Barbara gazette, February 5, 1857",ark:/48907/f3k93c4n,The gazette,"Volume 2, Number 38 (Whole number 90).",en,http://id.loc.gov/authorities/names/n79041717|http://id.loc.gov/authorities/names/n79081574,"Keep & Hubbard : Santa Barbara, Cal.",http://id.loc.gov/vocabulary/preservation/copyrightStatus/pub,http://rightsstatements.org/vocab/NoC-US/1.0/,http://id.loc.gov/vocabulary/resourceTypes/txt,http://vocab.getty.edu/aat/300026656,about:surfliner_schema/controlled_values/digital_origin/reformatted_digital,4 pages,about:surfliner_schema/controlled_values/sublocation/SRC,,1857-02-05
sb-gazette-18570212,sb-gazette-18570212,F869.S23 S354,GenericObject,sb-gazette,"Santa Barbara gazette, February 12, 1857",ark:/48907/f3fj2mdx,The gazette,"Volume 2, Number 39 (Whole number 91).",en,http://id.loc.gov/authorities/names/n79041717|http://id.loc.gov/authorities/names/n79081574,"Keep & Hubbard : Santa Barbara, Cal.",http://id.loc.gov/vocabulary/preservation/copyrightStatus/pub,http://rightsstatements.org/vocab/NoC-US/1.0/,http://id.loc.gov/vocabulary/resourceTypes/txt,http://vocab.getty.edu/aat/300026656,about:surfliner_schema/controlled_values/digital_origin/reformatted_digital,4 pages,about:surfliner_schema/controlled_values/sublocation/SRC,,1857-02-12
sb-gazette-18570219,sb-gazette-18570219,F869.S23 S354,GenericObject,sb-gazette,"Santa Barbara gazette, February 19, 1857",ark:/48907/f39s1vp6,The gazette,"Volume 2, Number 40 (Whole number 92).",en,http://id.loc.gov/authorities/names/n79041717|http://id.loc.gov/authorities/names/n79081574,"Keep & Hubbard : Santa Barbara, Cal.",http://id.loc.gov/vocabulary/preservation/copyrightStatus/pub,http://rightsstatements.org/vocab/NoC-US/1.0/,http://id.loc.gov/vocabulary/resourceTypes/txt,http://vocab.getty.edu/aat/300026656,about:surfliner_schema/controlled_values/digital_origin/reformatted_digital,4 pages,about:surfliner_schema/controlled_values/sublocation/SRC,,1857-02-19
sb-gazette-18570226,sb-gazette-18570226,F869.S23 S354,GenericObject,sb-gazette,"Santa Barbara gazette, February 26, 1857",ark:/48907/f3639tbh,The gazette,"Volume 2, Number 41 (Whole number 93).",en,http://id.loc.gov/authorities/names/n79041717|http://id.loc.gov/authorities/names/n79081574,"Keep & Hubbard : Santa Barbara, Cal.",http://id.loc.gov/vocabulary/preservation/copyrightStatus/pub,http://rightsstatements.org/vocab/NoC-US/1.0/,http://id.loc.gov/vocabulary/resourceTypes/txt,http://vocab.getty.edu/aat/300026656,about:surfliner_schema/controlled_values/digital_origin/reformatted_digital,4 pages,about:surfliner_schema/controlled_values/sublocation/SRC,,1857-02-26
sb-gazette-18570305,sb-gazette-18570305,F869.S23 S354,GenericObject,sb-gazette,"Santa Barbara gazette, March 5, 1857",ark:/48907/f32b92nm,The gazette,"Volume 2, Number 42 (Whole number 94).",en,http://id.loc.gov/authorities/names/n79041717|http://id.loc.gov/authorities/names/n79081574,"Keep & Hubbard : Santa Barbara, Cal.",http://id.loc.gov/vocabulary/preservation/copyrightStatus/pub,http://rightsstatements.org/vocab/NoC-US/1.0/,http://id.loc.gov/vocabulary/resourceTypes/txt,http://vocab.getty.edu/aat/300026656,about:surfliner_schema/controlled_values/digital_origin/reformatted_digital,4 pages,about:surfliner_schema/controlled_values/sublocation/SRC,,1857-03-05
sb-gazette-18570312,sb-gazette-18570312,F869.S23 S354,GenericObject,sb-gazette,"Santa Barbara gazette, March 12, 1857",ark:/48907/f3xk8k5b,The gazette,"Volume 2, Number 43 (Whole number 95).",en,http://id.loc.gov/authorities/names/n79041717|http://id.loc.gov/authorities/names/n79081574,"Keep & Hubbard : Santa Barbara, Cal.",http://id.loc.gov/vocabulary/preservation/copyrightStatus/pub,http://rightsstatements.org/vocab/NoC-US/1.0/,http://id.loc.gov/vocabulary/resourceTypes/txt,http://vocab.getty.edu/aat/300026656,about:surfliner_schema/controlled_values/digital_origin/reformatted_digital,4 pages,about:surfliner_schema/controlled_values/sublocation/SRC,,1857-03-12
sb-gazette-18570319,sb-gazette-18570319,F869.S23 S354,GenericObject,sb-gazette,"Santa Barbara gazette, March 19, 1857",ark:/48907/f3st7tfm,The gazette,"Volume 2, Number 44 (Whole number 96).",en,http://id.loc.gov/authorities/names/n79041717|http://id.loc.gov/authorities/names/n79081574,"Keep & Hubbard : Santa Barbara, Cal.",http://id.loc.gov/vocabulary/preservation/copyrightStatus/pub,http://rightsstatements.org/vocab/NoC-US/1.0/,http://id.loc.gov/vocabulary/resourceTypes/txt,http://vocab.getty.edu/aat/300026656,about:surfliner_schema/controlled_values/digital_origin/reformatted_digital,4 pages,about:surfliner_schema/controlled_values/sublocation/SRC,,1857-03-19
sb-gazette-18570326,sb-gazette-18570326,F869.S23 S354,GenericObject,sb-gazette,"Santa Barbara gazette, March 26, 1857",ark:/48907/f3p272qk,The gazette,"Volume 2, Number 45 (Whole number 97).",en,http://id.loc.gov/authorities/names/n79041717|http://id.loc.gov/authorities/names/n79081574,"Keep & Hubbard : Santa Barbara, Cal.",http://id.loc.gov/vocabulary/preservation/copyrightStatus/pub,http://rightsstatements.org/vocab/NoC-US/1.0/,http://id.loc.gov/vocabulary/resourceTypes/txt,http://vocab.getty.edu/aat/300026656,about:surfliner_schema/controlled_values/digital_origin/reformatted_digital,4 pages,about:surfliner_schema/controlled_values/sublocation/SRC,"Piece torn off in upper right corner of page 3/upper left of page 4, but no loss of content.",1857-03-26
sb-gazette-18570402,sb-gazette-18570402,F869.S23 S354,GenericObject,sb-gazette,"Santa Barbara gazette, April 2, 1857",ark:/48907/f3j96b08,The gazette,"Volume 2, Number 46 (Whole number 98).",en,http://id.loc.gov/authorities/names/n79041717|http://id.loc.gov/authorities/names/n79081574,"Keep & Hubbard : Santa Barbara, Cal.",http://id.loc.gov/vocabulary/preservation/copyrightStatus/pub,http://rightsstatements.org/vocab/NoC-US/1.0/,http://id.loc.gov/vocabulary/resourceTypes/txt,http://vocab.getty.edu/aat/300026656,about:surfliner_schema/controlled_values/digital_origin/reformatted_digital,4 pages,about:surfliner_schema/controlled_values/sublocation/SRC,,1857-04-02
sb-gazette-18570409,sb-gazette-18570409,F869.S23 S354,GenericObject,sb-gazette,"Santa Barbara gazette, April 9, 1857",ark:/48907/f3dj5k8j,The gazette,"Volume 2, Number 47 (Whole number 99).",en,http://id.loc.gov/authorities/names/n79041717|http://id.loc.gov/authorities/names/n79081574,"Keep & Hubbard : Santa Barbara, Cal.",http://id.loc.gov/vocabulary/preservation/copyrightStatus/pub,http://rightsstatements.org/vocab/NoC-US/1.0/,http://id.loc.gov/vocabulary/resourceTypes/txt,http://vocab.getty.edu/aat/300026656,about:surfliner_schema/controlled_values/digital_origin/reformatted_digital,4 pages,about:surfliner_schema/controlled_values/sublocation/SRC,,1857-04-09
sb-gazette-18570416,sb-gazette-18570416,F869.S23 S354,GenericObject,sb-gazette,"Santa Barbara gazette, April 16, 1857",ark:/48907/f38w3hw7,The gazette,"Volume 2, Number 48 (Whole number 100).",en,http://id.loc.gov/authorities/names/n79041717|http://id.loc.gov/authorities/names/n79081574,"Keep & Hubbard : Santa Barbara, Cal.",http://id.loc.gov/vocabulary/preservation/copyrightStatus/pub,http://rightsstatements.org/vocab/NoC-US/1.0/,http://id.loc.gov/vocabulary/resourceTypes/txt,http://vocab.getty.edu/aat/300026656,about:surfliner_schema/controlled_values/digital_origin/reformatted_digital,4 pages,about:surfliner_schema/controlled_values/sublocation/SRC,,1857-04-16
sb-gazette-18570423,sb-gazette-18570423,F869.S23 S354,GenericObject,sb-gazette,"Santa Barbara gazette, April 23, 1857",ark:/48907/f3542s6p,The gazette,"Volume 2, Number 49 (Whole number 101).",en,http://id.loc.gov/authorities/names/n79041717|http://id.loc.gov/authorities/names/n79081574,"Keep & Hubbard : Santa Barbara, Cal.",http://id.loc.gov/vocabulary/preservation/copyrightStatus/pub,http://rightsstatements.org/vocab/NoC-US/1.0/,http://id.loc.gov/vocabulary/resourceTypes/txt,http://vocab.getty.edu/aat/300026656,about:surfliner_schema/controlled_values/digital_origin/reformatted_digital,4 pages,about:surfliner_schema/controlled_values/sublocation/SRC,,1857-04-23
sb-gazette-18570430,sb-gazette-18570430,F869.S23 S354,GenericObject,sb-gazette,"Santa Barbara gazette, April 30, 1857",ark:/48907/f31c21gb,The gazette,"Volume 2, Number 50 (Whole number 102).",en,http://id.loc.gov/authorities/names/n79041717|http://id.loc.gov/authorities/names/n79081574,"Keep & Hubbard : Santa Barbara, Cal.",http://id.loc.gov/vocabulary/preservation/copyrightStatus/pub,http://rightsstatements.org/vocab/NoC-US/1.0/,http://id.loc.gov/vocabulary/resourceTypes/txt,http://vocab.getty.edu/aat/300026656,about:surfliner_schema/controlled_values/digital_origin/reformatted_digital,4 pages,about:surfliner_schema/controlled_values/sublocation/SRC,,1857-04-30
sb-gazette-18570507,sb-gazette-18570507,F869.S23 S354,GenericObject,sb-gazette,"Santa Barbara gazette, May 7, 1857",ark:/48907/f3wm1j1h,The gazette,"Volume 2, Number 51 (Whole number 103).",en,http://id.loc.gov/authorities/names/n79041717|http://id.loc.gov/authorities/names/n79081574,"Keep & Hubbard : Santa Barbara, Cal.",http://id.loc.gov/vocabulary/preservation/copyrightStatus/pub,http://rightsstatements.org/vocab/NoC-US/1.0/,http://id.loc.gov/vocabulary/resourceTypes/txt,http://vocab.getty.edu/aat/300026656,about:surfliner_schema/controlled_values/digital_origin/reformatted_digital,4 pages,about:surfliner_schema/controlled_values/sublocation/SRC,,1857-05-07
sb-gazette-18570514,sb-gazette-18570514,F869.S23 S354,GenericObject,sb-gazette,"Santa Barbara gazette, May 14, 1857",ark:/48907/f3rv0s9s,The gazette,"Volume 2, Number 52 (Whole number 104).",en,http://id.loc.gov/authorities/names/n79041717|http://id.loc.gov/authorities/names/n79081574,"Keep & Hubbard : Santa Barbara, Cal.",http://id.loc.gov/vocabulary/preservation/copyrightStatus/pub,http://rightsstatements.org/vocab/NoC-US/1.0/,http://id.loc.gov/vocabulary/resourceTypes/txt,http://vocab.getty.edu/aat/300026656,about:surfliner_schema/controlled_values/digital_origin/reformatted_digital,4 pages,about:surfliner_schema/controlled_values/sublocation/SRC,,1857-05-14