source_identifier,identifier_local,identifier_call_number,model,parents,title,ark,title_alternative,creator,contributor,performer,singer,language,publication_statement,subject_topic,rights_status,rights_statement,type_of_resource,identifier_issue_number,identifier_matrix_number,genre_form,preferred_citation,digital_origin,description_standard,physical_description,sublocation,rights_note,note_general,date_issued
pamss001,,PA Mss 1,Collection,,Verne Todd collection,ark:/48907/f3d50k99,,,,,,,,,,,,,,,,,,,,,,
pamss001-vogue-r710,pamss001-vogue-r710,Vogue R 710,GenericObject,pamss001,The bells of St. Mary's,ark:/48907/f37d2sf6,Star dust|Stardust,,http://id.loc.gov/authorities/names/n50032462|http://id.loc.gov/authorities/names/n88600090|http://id.loc.gov/authorities/names/n90602103|http://id.loc.gov/authorities/names/nr2006029904,http://id.loc.gov/authorities/names/no2011122107,,en,"Vogue : Detroit, Mich.",http://id.loc.gov/authorities/subjects/sh90003868,http://id.loc.gov/vocabulary/preservation/copyrightStatus/cpr,http://rightsstatements.org/vocab/InC/1.0/,http://id.loc.gov/vocabulary/resourceTypes/img,Vogue: R 710,Vogue: P10-1A|Vogue: P9-1B,http://vocab.getty.edu/aat/300265790,"[Identification of Item], Verne Todd collection, PA Mss 1. Department of Special Research Collections, UC Santa Barbara Library, University of California, Santa Barbara.",about:surfliner_schema/controlled_values/digital_origin/reformatted_digital,http://id.loc.gov/vocabulary/descriptionConventions/aacr,1 sound disc : [78 rpm.] ; 10 in.,about:surfliner_schema/controlled_values/sublocation/SRC,"Transmission or reproduction of materials protected by copyright beyond that allowed by fair use requires the written permission of the copyright owners. In addition, the reproduction of some materials may be restricted by terms of gift or purchase agreements, donor restrictions, privacy and publicity rights, licensing and trademarks (contact the department of Special Research Collections at the UC Santa Barbara Library for more information). Works not in the public domain cannot be commercially exploited without permission of the copyright owner. Responsibility for any use rests exclusively with the user.","The Don Large Chorus.|Todd collection : 21048.|Vogue picture disc.|Vogue: R 710, mx P9-1B, mx P10-1A.",[1946..1947]
pamss001-vogue-r719,pamss001-vogue-r719,Vogue R 719,GenericObject,pamss001,Have I told you lately that I love you,ark:/48907/f34m92vp,I get a kick out of corn,,http://id.loc.gov/authorities/names/n81023047|http://id.loc.gov/authorities/names/n87113159|http://id.loc.gov/authorities/names/no00016569,http://id.loc.gov/authorities/names/n87113139,,en,"Vogue : Detroit, Mich.",http://id.loc.gov/authorities/subjects/sh90003868,http://id.loc.gov/vocabulary/preservation/copyrightStatus/cpr,http://rightsstatements.org/vocab/InC/1.0/,http://id.loc.gov/vocabulary/resourceTypes/img,Vogue: R 719,Vogue: P28-1AA|Vogue: P43-1AA,http://vocab.getty.edu/aat/300265790,"[Identification of Item], Verne Todd collection, PA Mss 1. Department of Special Research Collections, UC Santa Barbara Library, University of California, Santa Barbara.",about:surfliner_schema/controlled_values/digital_origin/reformatted_digital,http://id.loc.gov/vocabulary/descriptionConventions/aacr,1 sound disc : [78 rpm.] ; 10 in.,about:surfliner_schema/controlled_values/sublocation/SRC,"Transmission or reproduction of materials protected by copyright beyond that allowed by fair use requires the written permission of the copyright owners. In addition, the reproduction of some materials may be restricted by terms of gift or purchase agreements, donor restrictions, privacy and publicity rights, licensing and trademarks (contact the department of Special Research Collections at the UC Santa Barbara Library for more information). Works not in the public domain cannot be commercially exploited without permission of the copyright owner. Responsibility for any use rests exclusively with the user.","Lulu Belle and Scotty.|Todd collection : 6151.|Vogue picture disc.|Vogue: R 719, mx P28-1AA, mx P43-1AA.",[1946..1947]
pamss001-vogue-r721,pamss001-vogue-r721,Vogue R 721,GenericObject,pamss001,When I gets to where I'm goin',ark:/48907/f3rb72xn,You're only in my arms|You're only in my arms to cry on my shoulder,,http://alexandria.ucsb.edu/authorities/people/5547a5ac-5064-4028-9fa2-c84b96f43c9e|http://alexandria.ucsb.edu/authorities/people/9ec310ef-3125-40d9-9161-551f964c2686|http://id.loc.gov/authorities/names/nb2001089452|http://id.loc.gov/authorities/names/no2004114466|http://id.loc.gov/authorities/names/no2007128133|http://id.loc.gov/authorities/names/no2007154098,http://id.loc.gov/authorities/names/n92106160,,en,"Vogue : Detroit, Mich.",http://id.loc.gov/authorities/subjects/sh90003868,http://id.loc.gov/vocabulary/preservation/copyrightStatus/cpr,http://rightsstatements.org/vocab/InC/1.0/,http://id.loc.gov/vocabulary/resourceTypes/img,Vogue: R 721,Vogue: P29-1B|Vogue: P31-1C,http://vocab.getty.edu/aat/300265790,"[Identification of Item], Verne Todd collection, PA Mss 1. Department of Special Research Collections, UC Santa Barbara Library, University of California, Santa Barbara.",about:surfliner_schema/controlled_values/digital_origin/reformatted_digital,http://id.loc.gov/vocabulary/descriptionConventions/aacr,1 sound disc : [78 rpm.] ; 10 in.,about:surfliner_schema/controlled_values/sublocation/SRC,"Transmission or reproduction of materials protected by copyright beyond that allowed by fair use requires the written permission of the copyright owners. In addition, the reproduction of some materials may be restricted by terms of gift or purchase agreements, donor restrictions, privacy and publicity rights, licensing and trademarks (contact the department of Special Research Collections at the UC Santa Barbara Library for more information). Works not in the public domain cannot be commercially exploited without permission of the copyright owner. Responsibility for any use rests exclusively with the user.","Pasty Montana.|Todd collection : 17908.|Vogue picture disc.|Vogue: R 721, mx P29-1B, mx P31-1C.",[1946..1947]
pamss001-vogue-r731,pamss001-vogue-r731,Vogue R 731,GenericObject,pamss001,Between the devil and the deep blue sea,ark:/48907/f30v8b3x,You took advantage of me,,http://id.loc.gov/authorities/names/n50048058|http://id.loc.gov/authorities/names/n81097890|http://id.loc.gov/authorities/names/n82155108|http://id.loc.gov/authorities/names/n87911793,http://id.loc.gov/authorities/names/n93016339,http://id.loc.gov/authorities/names/no98102023,en,"Vogue : Detroit, Mich",http://id.loc.gov/authorities/subjects/sh90003868,http://id.loc.gov/vocabulary/preservation/copyrightStatus/cpr,http://rightsstatements.org/vocab/InC/1.0/,http://id.loc.gov/vocabulary/resourceTypes/img,Vogue: R 731,Vogue: P-105|Vogue: P103-1A,http://vocab.getty.edu/aat/300265790,"[Identification of Item], Verne Todd collection, PA Mss 1. Department of Special Research Collections, UC Santa Barbara Library, University of California, Santa Barbara.",about:surfliner_schema/controlled_values/digital_origin/reformatted_digital,http://id.loc.gov/vocabulary/descriptionConventions/aacr,1 sound disc : [78 rpm.] ; 10 in.,about:surfliner_schema/controlled_values/sublocation/SRC,"Transmission or reproduction of materials protected by copyright beyond that allowed by fair use requires the written permission of the copyright owners. In addition, the reproduction of some materials may be restricted by terms of gift or purchase agreements, donor restrictions, privacy and publicity rights, licensing and trademarks (contact the department of Special Research Collections at the UC Santa Barbara Library for more information). Works not in the public domain cannot be commercially exploited without permission of the copyright owner. Responsibility for any use rests exclusively with the user.","Marion Mann, accompanied by Bob Haggart and orchestra.|Todd collection : 19642.|Vogue picture disc.|Vogue: R 7315, mx P103-1A, mx P-105.",[1946..1947]
pamss001-vogue-r734,pamss001-vogue-r734,Vogue R 734,GenericObject,pamss001,Sweetheart,ark:/48907/f3c53j5x,A little consideration,http://id.loc.gov/authorities/names/n82145580,http://id.loc.gov/authorities/names/no2002028606|http://id.loc.gov/authorities/names/no95052608|http://id.loc.gov/authorities/names/no97048106,,http://id.loc.gov/authorities/names/no2002100068|http://id.loc.gov/authorities/names/no2008113635,en,"Vogue : Detroit, Mich.",http://id.loc.gov/authorities/subjects/sh90003868,http://id.loc.gov/vocabulary/preservation/copyrightStatus/cpr,http://rightsstatements.org/vocab/InC/1.0/,http://id.loc.gov/vocabulary/resourceTypes/img,Vogue: R 734,Vogue: P12-4|Vogue: P13-1,http://vocab.getty.edu/aat/300265790,"[Identification of Item], Verne Todd collection, PA Mss 1. Department of Special Research Collections, UC Santa Barbara Library, University of California, Santa Barbara.",about:surfliner_schema/controlled_values/digital_origin/reformatted_digital,http://id.loc.gov/vocabulary/descriptionConventions/aacr,1 sound disc : [78 rpm.] ; 10 in.,about:surfliner_schema/controlled_values/sublocation/SRC,"Transmission or reproduction of materials protected by copyright beyond that allowed by fair use requires the written permission of the copyright owners. In addition, the reproduction of some materials may be restricted by terms of gift or purchase agreements, donor restrictions, privacy and publicity rights, licensing and trademarks (contact the department of Special Research Collections at the UC Santa Barbara Library for more information). Works not in the public domain cannot be commercially exploited without permission of the copyright owner. Responsibility for any use rests exclusively with the user.","Art Kassel and his orchestra ; Vocal by The Kassel Trio [side A] and Gloria Hart [side B].|Todd collection : 14434.|Vogue picture disc.|Vogue: R 734, mx P12-4, mx P13-1.",[1946..1947]
pamss001-vogue-r736,pamss001-vogue-r736,Vogue R 736,GenericObject,pamss001,Out where the west winds blow,ark:/48907/f38c9tk1,Who's gonna kiss you when I'm gone,http://alexandria.ucsb.edu/authorities/people/cec11582-2744-4af1-8b79-15b9958b3e11,http://alexandria.ucsb.edu/authorities/people/50327b77-1a6c-46b7-8826-c696ca37ccde,http://id.loc.gov/authorities/names/n94046328|http://id.loc.gov/authorities/names/no98051440,,en,"Vogue : Detroit, Mich.",http://id.loc.gov/authorities/subjects/sh90003868,http://id.loc.gov/vocabulary/preservation/copyrightStatus/cpr,http://rightsstatements.org/vocab/InC/1.0/,http://id.loc.gov/vocabulary/resourceTypes/img,Vogue: R 736,Vogue: P-48|Vogue: P49-1D,http://vocab.getty.edu/aat/300265790,"[Identification of Item], Verne Todd collection, PA Mss 1. Department of Special Research Collections, UC Santa Barbara Library, University of California, Santa Barbara.",about:surfliner_schema/controlled_values/digital_origin/reformatted_digital,http://id.loc.gov/vocabulary/descriptionConventions/aacr,1 sound disc : [78 rpm.] ; 10 in.,about:surfliner_schema/controlled_values/sublocation/SRC,"Transmission or reproduction of materials protected by copyright beyond that allowed by fair use requires the written permission of the copyright owners. In addition, the reproduction of some materials may be restricted by terms of gift or purchase agreements, donor restrictions, privacy and publicity rights, licensing and trademarks (contact the department of Special Research Collections at the UC Santa Barbara Library for more information). Works not in the public domain cannot be commercially exploited without permission of the copyright owner. Responsibility for any use rests exclusively with the user.","Kenny Roberts, accompanied by the Down Homers [side A] ; The Down Homers [side B].|Todd collection : 13661.|Vogue picture disc.|Vogue: R 736, mx P-48, mx P49-1D.",[1946..1947]
pamss001-vogue-r755,pamss001-vogue-r755,Vogue R 755,GenericObject,pamss001,Serenade to a pair of nylons,ark:/48907/f3v40sjm,Broadjump,,,http://id.loc.gov/authorities/names/no2011057510,,en,"Vogue : Detroit, Mich.",http://id.loc.gov/authorities/subjects/sh90002679|http://id.loc.gov/authorities/subjects/sh90003868,http://id.loc.gov/vocabulary/preservation/copyrightStatus/cpr,http://rightsstatements.org/vocab/InC/1.0/,http://id.loc.gov/vocabulary/resourceTypes/img,Vogue: R 755,Vogue: 93-1C|Vogue: 95-1D,http://vocab.getty.edu/aat/300265790,"[Identification of Item], Verne Todd collection, PA Mss 1. Department of Special Research Collections, UC Santa Barbara Library, University of California, Santa Barbara.",about:surfliner_schema/controlled_values/digital_origin/reformatted_digital,http://id.loc.gov/vocabulary/descriptionConventions/aacr,"1 sound disc : analog, 78 rpm, mono. ; 10 in.",about:surfliner_schema/controlled_values/sublocation/SRC,"Transmission or reproduction of materials protected by copyright beyond that allowed by fair use requires the written permission of the copyright owners. In addition, the reproduction of some materials may be restricted by terms of gift or purchase agreements, donor restrictions, privacy and publicity rights, licensing and trademarks (contact the department of Special Research Collections at the UC Santa Barbara Library for more information). Works not in the public domain cannot be commercially exploited without permission of the copyright owner. Responsibility for any use rests exclusively with the user.","Charlie Shavers Quintet (Charlie Shavers, trumpet; Buddy De Franco, clarinet; Alvin Stoller, drums; John Potaker, piano; Sidney Block, bass).|Recorded in Detroit, late 1945--Cf. 60 years of recorded jazz / Bruyninckx.|The picture record.|Todd collection : 4287.|Vogue: R 755 (93-1C (matrix), 95-1D (matrix)).",[1946..1947]
pamss001-vogue-r756,pamss001-vogue-r756,Vogue R 756,GenericObject,pamss001,Musicomania,ark:/48907/f3w37tmj,If I had you,,http://id.loc.gov/authorities/names/n78023410|http://id.loc.gov/authorities/names/no2005102335|http://id.loc.gov/authorities/names/no2007092231,http://id.loc.gov/authorities/names/no2011057510,,en,"Vogue : Detroit, Mich.",http://id.loc.gov/authorities/subjects/sh90003868,http://id.loc.gov/vocabulary/preservation/copyrightStatus/cpr,http://rightsstatements.org/vocab/InC/1.0/,http://id.loc.gov/vocabulary/resourceTypes/img,Vogue: R 756,Vogue: P96-1B|Vogue: P97-1B,http://vocab.getty.edu/aat/300265790,"[Identification of Item], Verne Todd collection, PA Mss 1. Department of Special Research Collections, UC Santa Barbara Library, University of California, Santa Barbara.",about:surfliner_schema/controlled_values/digital_origin/reformatted_digital,http://id.loc.gov/vocabulary/descriptionConventions/aacr,1 sound disc : [78 rpm.] ; 10 in.,about:surfliner_schema/controlled_values/sublocation/SRC,"Transmission or reproduction of materials protected by copyright beyond that allowed by fair use requires the written permission of the copyright owners. In addition, the reproduction of some materials may be restricted by terms of gift or purchase agreements, donor restrictions, privacy and publicity rights, licensing and trademarks (contact the department of Special Research Collections at the UC Santa Barbara Library for more information). Works not in the public domain cannot be commercially exploited without permission of the copyright owner. Responsibility for any use rests exclusively with the user.","The Charlie Shavers Quintet (Charlie Shavers, trumpet; Buddy De Franco, clarinet; Alvin Stoller, drums; John Potaker, piano; Sidney Block, bass)|Todd collection : 20347.|Vogue picture disc.|Vogue: R 756, mx P96-1B, mx P97-1B.",[1946..1947]
pamss001-vogue-r758,pamss001-vogue-r758,Vogue R 758,GenericObject,pamss001,You're gonna hate yourself in the mornin',ark:/48907/f3gx48wx,"Long, strong and consecutive",,http://id.loc.gov/authorities/names/n50080187|http://id.loc.gov/authorities/names/nb2001079481|http://id.loc.gov/authorities/names/no89012520|http://id.loc.gov/authorities/names/no96045784|http://id.loc.gov/authorities/names/no97007987,http://id.loc.gov/authorities/names/n93016339,http://id.loc.gov/authorities/names/no98102023,en,"Vogue : Detroit, Mich.",http://id.loc.gov/authorities/subjects/sh90003868,http://id.loc.gov/vocabulary/preservation/copyrightStatus/cpr,http://rightsstatements.org/vocab/InC/1.0/,http://id.loc.gov/vocabulary/resourceTypes/img,Vogue: R 758,Vogue: P104-1A|Vogue: P106-1A,http://vocab.getty.edu/aat/300265790,"[Identification of Item], Verne Todd collection, PA Mss 1. Department of Special Research Collections, UC Santa Barbara Library, University of California, Santa Barbara.",about:surfliner_schema/controlled_values/digital_origin/reformatted_digital,http://id.loc.gov/vocabulary/descriptionConventions/aacr,1 sound disc : [78 rpm.] ; 10 in.,about:surfliner_schema/controlled_values/sublocation/SRC,"Transmission or reproduction of materials protected by copyright beyond that allowed by fair use requires the written permission of the copyright owners. In addition, the reproduction of some materials may be restricted by terms of gift or purchase agreements, donor restrictions, privacy and publicity rights, licensing and trademarks (contact the department of Special Research Collections at the UC Santa Barbara Library for more information). Works not in the public domain cannot be commercially exploited without permission of the copyright owner. Responsibility for any use rests exclusively with the user.","Marion Mann, accompanied by Bob Haggart and orchestra.|Todd collection : 20346.|Vogue picture disc.|Vogue: R 758, mx P104-1A, mx P106-1A.",[1946..1947]
pamss001-vogue-r771,pamss001-vogue-r771,Vogue R 771,GenericObject,pamss001,If I could be with you,ark:/48907/f3mp51k6,Jeannine,http://id.loc.gov/authorities/names/n82145580,http://id.loc.gov/authorities/names/n81139253|http://id.loc.gov/authorities/names/n87847833|http://id.loc.gov/authorities/names/n92100048|http://id.loc.gov/authorities/names/no89003985,,http://id.loc.gov/authorities/names/no2002100068|http://id.loc.gov/authorities/names/no2008113635|http://id.loc.gov/authorities/names/no2012152474,en,"Vogue : Detroit, Mich.",http://id.loc.gov/authorities/subjects/sh90003868,http://id.loc.gov/vocabulary/preservation/copyrightStatus/cpr,http://rightsstatements.org/vocab/InC/1.0/,http://id.loc.gov/vocabulary/resourceTypes/img,Vogue: R 771,Vogue: P125-1D|Vogue: P126-1A,http://vocab.getty.edu/aat/300265790,"[Identification of Item], Verne Todd collection, PA Mss 1. Department of Special Research Collections, UC Santa Barbara Library, University of California, Santa Barbara.",about:surfliner_schema/controlled_values/digital_origin/reformatted_digital,http://id.loc.gov/vocabulary/descriptionConventions/aacr,1 sound disc : [78 rpm.] ; 10 in.,about:surfliner_schema/controlled_values/sublocation/SRC,"Transmission or reproduction of materials protected by copyright beyond that allowed by fair use requires the written permission of the copyright owners. In addition, the reproduction of some materials may be restricted by terms of gift or purchase agreements, donor restrictions, privacy and publicity rights, licensing and trademarks (contact the department of Special Research Collections at the UC Santa Barbara Library for more information). Works not in the public domain cannot be commercially exploited without permission of the copyright owner. Responsibility for any use rests exclusively with the user.","Art Kassel and his orchestra ; Vocal by The Kassel Trio and Gloria Hart [side A] and Jimmie Featherstone [side B].|Todd collection : 27260.|Vogue picture disc.|Vogue: R 771, mx P125-1D, mx P126-1A.",[1946..1947]
pamss001-vogue-r778,pamss001-vogue-r778,Vogue R 778,GenericObject,pamss001,Guilty of love,ark:/48907/f33n21pd,Mucho dinero,,http://alexandria.ucsb.edu/authorities/people/c71432a5-8722-4a70-8e06-fb51583a620d|http://id.loc.gov/authorities/names/no2005040825|http://id.loc.gov/authorities/names/nr98041247,http://id.loc.gov/authorities/names/n91085763,http://id.loc.gov/authorities/names/no2012053666,en,"Vogue : Detroit, Mich.",http://id.loc.gov/authorities/subjects/sh90003868,http://id.loc.gov/vocabulary/preservation/copyrightStatus/cpr,http://rightsstatements.org/vocab/InC/1.0/,http://id.loc.gov/vocabulary/resourceTypes/img,Vogue: R 778,Vogue: P135-1A|Vogue: P137-2A,http://vocab.getty.edu/aat/300265790,"[Identification of Item], Verne Todd collection, PA Mss 1. Department of Special Research Collections, UC Santa Barbara Library, University of California, Santa Barbara.",about:surfliner_schema/controlled_values/digital_origin/reformatted_digital,http://id.loc.gov/vocabulary/descriptionConventions/aacr,1 sound disc : [78 rpm.] ; 10 in.,about:surfliner_schema/controlled_values/sublocation/SRC,,,
pamss001-vogue-r722,pamss001-vogue-r722,Vogue R 722,GenericObject,pamss001,Tear it down,ark:/48907/f3zw1j7k,Put that ring on my finger,,http://alexandria.ucsb.edu/authorities/people/838a5df8-f1c3-4939-b6ff-f52bf7a1a534|http://id.loc.gov/authorities/names/no2002028606,http://id.loc.gov/authorities/names/n83176083,,en,"Vogue : Detroit, Mich.",http://id.loc.gov/authorities/subjects/sh85035647|http://id.loc.gov/authorities/subjects/sh90003868,http://id.loc.gov/vocabulary/preservation/copyrightStatus/cpr,http://rightsstatements.org/vocab/InC/1.0/,http://id.loc.gov/vocabulary/resourceTypes/img,Vogue: R722,Vogue: P6-1BA|Vogue: P8-1BA,http://vocab.getty.edu/aat/300265790,"[Identification of Item], Verne Todd collection, PA Mss 1. Department of Special Research Collections, UC Santa Barbara Library, University of California, Santa Barbara.",about:surfliner_schema/controlled_values/digital_origin/reformatted_digital,http://id.loc.gov/vocabulary/descriptionConventions/aacr,1 sound disc : [78 rpm.] ; 10 in.,about:surfliner_schema/controlled_values/sublocation/SRC,"Transmission or reproduction of materials protected by copyright beyond that allowed by fair use requires the written permission of the copyright owners. In addition, the reproduction of some materials may be restricted by terms of gift or purchase agreements, donor restrictions, privacy and publicity rights, licensing and trademarks (contact the department of Special Research Collections at the UC Santa Barbara Library for more information). Works not in the public domain cannot be commercially exploited without permission of the copyright owner. Responsibility for any use rests exclusively with the user.","Clyde McCoy and his orchestra ; Billy Jane Bennett, vocalist.|Todd collection : (11290).|Vogue picture disc.|Vogue: R722, mx P6-1BA, mx P8-1BA.",[1940..1949]