source_identifier,identifier_local,identifier_call_number,model,parents,title,ark,issuing_body,note_description,language,subject_spatial,publication_statement,subject_topic,rights_status,rights_statement,type_of_resource,series,genre_form,digital_origin,physical_description,sublocation,note_general,date_issued
stray-feathers,,LB3621.65 .R63,Collection,,Stray feathers (Summer sessions 1932-1934),,,,,,,,,,,,,,,,,
stray-feathers-19320627,stray-feathers-19320627,LB3621.65 .R63,GenericObject,stray-feathers,"Stray feathers, June 27, 1932",ark:/48907/f3765hws,http://id.loc.gov/authorities/names/nr98028291,"Volume 4, Number 1.",en,http://id.loc.gov/authorities/names/n79041717|http://id.loc.gov/authorities/names/n79081574,"Associated Students, Santa Barbara State College : Santa Barbara, Cal.",http://id.loc.gov/authorities/names/nr98028291|http://id.loc.gov/authorities/subjects/sh85028351,http://id.loc.gov/vocabulary/preservation/copyrightStatus/pub,http://rightsstatements.org/vocab/NoC-US/1.0/,http://id.loc.gov/vocabulary/resourceTypes/txt,Stray feathers,http://vocab.getty.edu/aat/300026656|http://vocab.getty.edu/aat/300026657,about:surfliner_schema/controlled_values/digital_origin/reformatted_digital,6 pages,about:surfliner_schema/controlled_values/sublocation/SRC,"Later title: El Gauchito.|Numbering irregularities throughout: Issues for 1932 continues numbering from Summer Roadrunner and called Volume 4, Numbers 1-6;  for 1933 called Volume 2, Numbers 1-6; issues for 1934 also called Volume 4, no. 1-6.|Summer edition of Roadrunner. ""Official publication of the ... summer session.""",1932-06-27
stray-feathers-19320706,stray-feathers-19320706,LB3621.65 .R63,GenericObject,stray-feathers,"Stray feathers, July 6, 1932",ark:/48907/f33f4s7c,http://id.loc.gov/authorities/names/nr98028291,"Volume 4, Number 2.",en,http://id.loc.gov/authorities/names/n79041717|http://id.loc.gov/authorities/names/n79081574,"Associated Students, Santa Barbara State College : Santa Barbara, California",http://id.loc.gov/authorities/names/nr98028291|http://id.loc.gov/authorities/subjects/sh85028351,http://id.loc.gov/vocabulary/preservation/copyrightStatus/pub,http://rightsstatements.org/vocab/NoC-US/1.0/,http://id.loc.gov/vocabulary/resourceTypes/txt,Stray feathers,http://vocab.getty.edu/aat/300026656|http://vocab.getty.edu/aat/300026657,about:surfliner_schema/controlled_values/digital_origin/reformatted_digital,4 pages,about:surfliner_schema/controlled_values/sublocation/SRC,"Later title: El Gauchito.|Numbering irregularities throughout: Issues for 1932 continues numbering from Summer Roadrunner and called Volume 4, Numbers 1-6;  for 1933 called Volume 2, Numbers 1-6; issues for 1934 also called Volume 4, no. 1-6.|Summer edition of Roadrunner. ""Official publication of the ... summer session.""",1932-07-06
stray-feathers-19320714,stray-feathers-19320714,LB3621.65 .R63,GenericObject,stray-feathers,"Stray feathers, July 14, 1932",ark:/48907/f3zp48p5,http://id.loc.gov/authorities/names/nr98028291,"Volume 4, Number 3.",en,http://id.loc.gov/authorities/names/n79041717|http://id.loc.gov/authorities/names/n79081574,"Associated Students, Santa Barbara State College : Santa Barbara, California",http://id.loc.gov/authorities/names/nr98028291|http://id.loc.gov/authorities/subjects/sh85028351,http://id.loc.gov/vocabulary/preservation/copyrightStatus/pub,http://rightsstatements.org/vocab/NoC-US/1.0/,http://id.loc.gov/vocabulary/resourceTypes/txt,Stray feathers,http://vocab.getty.edu/aat/300026656|http://vocab.getty.edu/aat/300026657,about:surfliner_schema/controlled_values/digital_origin/reformatted_digital,4 pages,about:surfliner_schema/controlled_values/sublocation/SRC,"Later title: El Gauchito.|Numbering irregularities throughout: Issues for 1932 continues numbering from Summer Roadrunner and called Volume 4, Numbers 1-6;  for 1933 called Volume 2, Numbers 1-6; issues for 1934 also called Volume 4, no. 1-6.|Summer edition of Roadrunner. ""Official publication of the ... summer session.""",1932-07-14
stray-feathers-19320720,stray-feathers-19320720,LB3621.65 .R63,GenericObject,stray-feathers,"Stray feathers, July 20, 1932",ark:/48907/f3tx3hx0,http://id.loc.gov/authorities/names/nr98028291,"Volume 4, Number 4.",en,http://id.loc.gov/authorities/names/n79041717|http://id.loc.gov/authorities/names/n79081574,"Associated Students, Santa Barbara State College : Santa Barbara, California",http://id.loc.gov/authorities/names/nr98028291|http://id.loc.gov/authorities/subjects/sh85028351,http://id.loc.gov/vocabulary/preservation/copyrightStatus/pub,http://rightsstatements.org/vocab/NoC-US/1.0/,http://id.loc.gov/vocabulary/resourceTypes/txt,Stray feathers,http://vocab.getty.edu/aat/300026656|http://vocab.getty.edu/aat/300026657,about:surfliner_schema/controlled_values/digital_origin/reformatted_digital,4 pages,about:surfliner_schema/controlled_values/sublocation/SRC,"Later title: El Gauchito.|Numbering irregularities throughout: Issues for 1932 continues numbering from Summer Roadrunner and called Volume 4, Numbers 1-6;  for 1933 called Volume 2, Numbers 1-6; issues for 1934 also called Volume 4, no. 1-6.|Summer edition of Roadrunner. ""Official publication of the ... summer session.""",1932-07-20
stray-feathers-19320727,stray-feathers-19320727,LB3621.65 .R63,GenericObject,stray-feathers,"Stray feathers, July 27, 1932",ark:/48907/f3q52s5j,http://id.loc.gov/authorities/names/nr98028291,"Volume 4, Number 5.",en,http://id.loc.gov/authorities/names/n79041717|http://id.loc.gov/authorities/names/n79081574,"Associated Students, Santa Barbara State College : Santa Barbara, California",http://id.loc.gov/authorities/names/nr98028291|http://id.loc.gov/authorities/subjects/sh85028351,http://id.loc.gov/vocabulary/preservation/copyrightStatus/pub,http://rightsstatements.org/vocab/NoC-US/1.0/,http://id.loc.gov/vocabulary/resourceTypes/txt,Stray feathers,http://vocab.getty.edu/aat/300026656|http://vocab.getty.edu/aat/300026657,about:surfliner_schema/controlled_values/digital_origin/reformatted_digital,4 pages,about:surfliner_schema/controlled_values/sublocation/SRC,"Later title: El Gauchito.|Numbering irregularities throughout: Issues for 1932 continues numbering from Summer Roadrunner and called Volume 4, Numbers 1-6;  for 1933 called Volume 2, Numbers 1-6; issues for 1934 also called Volume 4, no. 1-6.|Summer edition of Roadrunner. ""Official publication of the ... summer session.""",1932-07-27
stray-feathers-19320803,stray-feathers-19320803,LB3621.65 .R63,GenericObject,stray-feathers,"Stray feathers, August 3, 1932",ark:/48907/f3kd21gn,http://id.loc.gov/authorities/names/nr98028291,"Volume 4, Number 6.",en,http://id.loc.gov/authorities/names/n79041717|http://id.loc.gov/authorities/names/n79081574,"Associated Students, Santa Barbara State College : Santa Barbara, California",http://id.loc.gov/authorities/names/nr98028291|http://id.loc.gov/authorities/subjects/sh85028351,http://id.loc.gov/vocabulary/preservation/copyrightStatus/pub,http://rightsstatements.org/vocab/NoC-US/1.0/,http://id.loc.gov/vocabulary/resourceTypes/txt,Stray feathers,http://vocab.getty.edu/aat/300026656|http://vocab.getty.edu/aat/300026657,about:surfliner_schema/controlled_values/digital_origin/reformatted_digital,4 pages,about:surfliner_schema/controlled_values/sublocation/SRC,"Later title: El Gauchito.|Numbering irregularities throughout: Issues for 1932 continues numbering from Summer Roadrunner and called Volume 4, Numbers 1-6;  for 1933 called Volume 2, Numbers 1-6; issues for 1934 also called Volume 4, no. 1-6.|Summer edition of Roadrunner. ""Official publication of the ... summer session.""",1932-08-03
stray-feathers-19330626,stray-feathers-19330626,LB3621.65 .R63,GenericObject,stray-feathers,"Stray feathers, June 26, 1933",ark:/48907/f3fr005n,http://id.loc.gov/authorities/names/nr98028291,"Volume 2, Number 1.",en,http://id.loc.gov/authorities/names/n79041717|http://id.loc.gov/authorities/names/n79081574,"[Associated Students, Santa Barbara State College] : [Santa Barbara, Calif.]",http://id.loc.gov/authorities/names/nr98028291|http://id.loc.gov/authorities/subjects/sh85028351,http://id.loc.gov/vocabulary/preservation/copyrightStatus/pub,http://rightsstatements.org/vocab/NoC-US/1.0/,http://id.loc.gov/vocabulary/resourceTypes/txt,Stray feathers,http://vocab.getty.edu/aat/300026656|http://vocab.getty.edu/aat/300026657,about:surfliner_schema/controlled_values/digital_origin/reformatted_digital,4 pages,about:surfliner_schema/controlled_values/sublocation/SRC,"Later title: El Gauchito.|Numbering irregularities throughout: Issues for 1932 continues numbering from Summer Roadrunner and called Volume 4, Numbers 1-6;  for 1933 called Volume 2, Numbers 1-6; issues for 1934 also called Volume 4, no. 1-6.|Summer edition of Roadrunner. ""Official publication of the ... summer session.""",1933-06-26
stray-feathers-19330703,stray-feathers-19330703,LB3621.65 .R63,GenericObject,stray-feathers,"Stray feathers, July 3, 1933",ark:/48907/f39z97gt,http://id.loc.gov/authorities/names/nr98028291,"Volume 2, Number 2.",en,http://id.loc.gov/authorities/names/n79041717|http://id.loc.gov/authorities/names/n79081574,"[Associated Students, Santa Barbara State College] : [Santa Barbara, Calif.]",http://id.loc.gov/authorities/names/nr98028291|http://id.loc.gov/authorities/subjects/sh85028351,http://id.loc.gov/vocabulary/preservation/copyrightStatus/pub,http://rightsstatements.org/vocab/NoC-US/1.0/,http://id.loc.gov/vocabulary/resourceTypes/txt,Stray feathers,http://vocab.getty.edu/aat/300026656|http://vocab.getty.edu/aat/300026657,about:surfliner_schema/controlled_values/digital_origin/reformatted_digital,4 pages,about:surfliner_schema/controlled_values/sublocation/SRC,"Later title: El Gauchito.|Numbering irregularities throughout: Issues for 1932 continues numbering from Summer Roadrunner and called Volume 4, Numbers 1-6;  for 1933 called Volume 2, Numbers 1-6; issues for 1934 also called Volume 4, no. 1-6.|Summer edition of Roadrunner. ""Official publication of the ... summer session.""",1933-07-03
stray-feathers-19330710,stray-feathers-19330710,LB3621.65 .R63,GenericObject,stray-feathers,"Stray feathers, July 10, 1933",ark:/48907/f3668gsv,http://id.loc.gov/authorities/names/nr98028291,"Volume 2, Number 3.",en,http://id.loc.gov/authorities/names/n79041717|http://id.loc.gov/authorities/names/n79081574,"[Associated Students, Santa Barbara State College] : [Santa Barbara, Calif.]",http://id.loc.gov/authorities/names/nr98028291|http://id.loc.gov/authorities/subjects/sh85028351,http://id.loc.gov/vocabulary/preservation/copyrightStatus/pub,http://rightsstatements.org/vocab/NoC-US/1.0/,http://id.loc.gov/vocabulary/resourceTypes/txt,Stray feathers,http://vocab.getty.edu/aat/300026656|http://vocab.getty.edu/aat/300026657,about:surfliner_schema/controlled_values/digital_origin/reformatted_digital,4 pages,about:surfliner_schema/controlled_values/sublocation/SRC,"Later title: El Gauchito.|Numbering irregularities throughout: Issues for 1932 continues numbering from Summer Roadrunner and called Volume 4, Numbers 1-6;  for 1933 called Volume 2, Numbers 1-6; issues for 1934 also called Volume 4, no. 1-6.|Summer edition of Roadrunner. ""Official publication of the ... summer session.""",1933-07-10
stray-feathers-19330717,stray-feathers-19330717,LB3621.65 .R63,GenericObject,stray-feathers,"Stray feathers, July 17, 1933",ark:/48907/f32f7r13,http://id.loc.gov/authorities/names/nr98028291,"Volume 2, Number 4.",en,http://id.loc.gov/authorities/names/n79041717|http://id.loc.gov/authorities/names/n79081574,"[Associated Students, Santa Barbara State College] : [Santa Barbara, Calif.]",http://id.loc.gov/authorities/names/nr98028291|http://id.loc.gov/authorities/subjects/sh85028351,http://id.loc.gov/vocabulary/preservation/copyrightStatus/pub,http://rightsstatements.org/vocab/NoC-US/1.0/,http://id.loc.gov/vocabulary/resourceTypes/txt,Stray feathers,http://vocab.getty.edu/aat/300026656|http://vocab.getty.edu/aat/300026657,about:surfliner_schema/controlled_values/digital_origin/reformatted_digital,4 pages,about:surfliner_schema/controlled_values/sublocation/SRC,"Later title: El Gauchito.|Numbering irregularities throughout: Issues for 1932 continues numbering from Summer Roadrunner and called Volume 4, Numbers 1-6;  for 1933 called Volume 2, Numbers 1-6; issues for 1934 also called Volume 4, no. 1-6.|Summer edition of Roadrunner. ""Official publication of the ... summer session.""",1933-07-17
stray-feathers-19330724,stray-feathers-19330724,LB3621.65 .R63,GenericObject,stray-feathers,"Stray feathers, July 24, 1933",ark:/48907/f3xp77hb,http://id.loc.gov/authorities/names/nr98028291,"Volume 2, Number 5.",en,http://id.loc.gov/authorities/names/n79041717|http://id.loc.gov/authorities/names/n79081574,"[Associated Students, Santa Barbara State College] : [Santa Barbara, Calif.]",http://id.loc.gov/authorities/names/nr98028291|http://id.loc.gov/authorities/subjects/sh85028351,http://id.loc.gov/vocabulary/preservation/copyrightStatus/pub,http://rightsstatements.org/vocab/NoC-US/1.0/,http://id.loc.gov/vocabulary/resourceTypes/txt,Stray feathers,http://vocab.getty.edu/aat/300026656|http://vocab.getty.edu/aat/300026657,about:surfliner_schema/controlled_values/digital_origin/reformatted_digital,4 pages,about:surfliner_schema/controlled_values/sublocation/SRC,"Later title: El Gauchito.|Numbering irregularities throughout: Issues for 1932 continues numbering from Summer Roadrunner and called Volume 4, Numbers 1-6;  for 1933 called Volume 2, Numbers 1-6; issues for 1934 also called Volume 4, no. 1-6.|Summer edition of Roadrunner. ""Official publication of the ... summer session.""",1933-07-24
stray-feathers-19330801,stray-feathers-19330801,LB3621.65 .R63,GenericObject,stray-feathers,"Stray feathers, August 1, 1933",ark:/48907/f3sx6gsm,http://id.loc.gov/authorities/names/nr98028291,"Volume 2, Number 6.",en,http://id.loc.gov/authorities/names/n79041717|http://id.loc.gov/authorities/names/n79081574,"[Associated Students, Santa Barbara State College] : [Santa Barbara, Calif.]",http://id.loc.gov/authorities/names/nr98028291|http://id.loc.gov/authorities/subjects/sh85028351,http://id.loc.gov/vocabulary/preservation/copyrightStatus/pub,http://rightsstatements.org/vocab/NoC-US/1.0/,http://id.loc.gov/vocabulary/resourceTypes/txt,Stray feathers,http://vocab.getty.edu/aat/300026656|http://vocab.getty.edu/aat/300026657,about:surfliner_schema/controlled_values/digital_origin/reformatted_digital,4 pages,about:surfliner_schema/controlled_values/sublocation/SRC,"Later title: El Gauchito.|Numbering irregularities throughout: Issues for 1932 continues numbering from Summer Roadrunner and called Volume 4, Numbers 1-6;  for 1933 called Volume 2, Numbers 1-6; issues for 1934 also called Volume 4, no. 1-6.|Summer edition of Roadrunner. ""Official publication of the ... summer session.""",1933-08-01
stray-feathers-19340622,stray-feathers-19340622,LB3621.65 .R63,GenericObject,stray-feathers,"Stray feathers, June 22, 1934",ark:/48907/f3p55r32,http://id.loc.gov/authorities/names/nr98028291,"Volume 4, Number 1.",en,http://id.loc.gov/authorities/names/n79041717|http://id.loc.gov/authorities/names/n79081574,"[Associated Students, Santa Barbara State College] : [Santa Barbara, Calif.]",http://id.loc.gov/authorities/names/nr98028291|http://id.loc.gov/authorities/subjects/sh85028351,http://id.loc.gov/vocabulary/preservation/copyrightStatus/pub,http://rightsstatements.org/vocab/NoC-US/1.0/,http://id.loc.gov/vocabulary/resourceTypes/txt,Stray feathers,http://vocab.getty.edu/aat/300026656|http://vocab.getty.edu/aat/300026657,about:surfliner_schema/controlled_values/digital_origin/reformatted_digital,4 pages,about:surfliner_schema/controlled_values/sublocation/SRC,"Later title: El Gauchito.|Numbering irregularities throughout: Issues for 1932 continues numbering from Summer Roadrunner and called Volume 4, Numbers 1-6;  for 1933 called Volume 2, Numbers 1-6; issues for 1934 also called Volume 4, no. 1-6.|Summer edition of Roadrunner. ""Official publication of the ... summer session.""",1934-06-22
stray-feathers-19340706,stray-feathers-19340706,LB3621.65 .R63,GenericObject,stray-feathers,"Stray feathers, July 6, 1934",ark:/48907/f3jh3pqr,http://id.loc.gov/authorities/names/nr98028291,"Volume 4, Number 2.",en,http://id.loc.gov/authorities/names/n79041717|http://id.loc.gov/authorities/names/n79081574,"[Associated Students, Santa Barbara State College] : [Santa Barbara, Calif.]",http://id.loc.gov/authorities/names/nr98028291|http://id.loc.gov/authorities/subjects/sh85028351,http://id.loc.gov/vocabulary/preservation/copyrightStatus/pub,http://rightsstatements.org/vocab/NoC-US/1.0/,http://id.loc.gov/vocabulary/resourceTypes/txt,Stray feathers,http://vocab.getty.edu/aat/300026656|http://vocab.getty.edu/aat/300026657,about:surfliner_schema/controlled_values/digital_origin/reformatted_digital,4 pages,about:surfliner_schema/controlled_values/sublocation/SRC,"Later title: El Gauchito.|Numbering irregularities throughout: Issues for 1932 continues numbering from Summer Roadrunner and called Volume 4, Numbers 1-6;  for 1933 called Volume 2, Numbers 1-6; issues for 1934 also called Volume 4, no. 1-6.|Summer edition of Roadrunner. ""Official publication of the ... summer session.""",1934-07-06
stray-feathers-19340720,stray-feathers-19340720,LB3621.65 .R63,GenericObject,stray-feathers,"Stray feathers, July 20, 1934",ark:/48907/f3dr2z2b,http://id.loc.gov/authorities/names/nr98028291,"Volume 4, Number 4.",en,http://id.loc.gov/authorities/names/n79041717|http://id.loc.gov/authorities/names/n79081574,"[Associated Students, Santa Barbara State College] : [Santa Barbara, Calif.]",http://id.loc.gov/authorities/names/nr98028291|http://id.loc.gov/authorities/subjects/sh85028351,http://id.loc.gov/vocabulary/preservation/copyrightStatus/pub,http://rightsstatements.org/vocab/NoC-US/1.0/,http://id.loc.gov/vocabulary/resourceTypes/txt,Stray feathers,http://vocab.getty.edu/aat/300026656|http://vocab.getty.edu/aat/300026657,about:surfliner_schema/controlled_values/digital_origin/reformatted_digital,4 pages,about:surfliner_schema/controlled_values/sublocation/SRC,"Later title: El Gauchito.|Numbering irregularities throughout: Issues for 1932 continues numbering from Summer Roadrunner and called Volume 4, Numbers 1-6;  for 1933 called Volume 2, Numbers 1-6; issues for 1934 also called Volume 4, no. 1-6.|Summer edition of Roadrunner. ""Official publication of the ... summer session.""",1934-07-20
stray-feathers-19340727,stray-feathers-19340727,LB3621.65 .R63,GenericObject,stray-feathers,"Stray feathers, July 27, 1934",ark:/48907/f39026cr,http://id.loc.gov/authorities/names/nr98028291,"Volume 4, Number 5.",en,http://id.loc.gov/authorities/names/n79041717|http://id.loc.gov/authorities/names/n79081574,"[Associated Students, Santa Barbara State College] : [Santa Barbara, Calif.]",http://id.loc.gov/authorities/names/nr98028291|http://id.loc.gov/authorities/subjects/sh85028351,http://id.loc.gov/vocabulary/preservation/copyrightStatus/pub,http://rightsstatements.org/vocab/NoC-US/1.0/,http://id.loc.gov/vocabulary/resourceTypes/txt,Stray feathers,http://vocab.getty.edu/aat/300026656|http://vocab.getty.edu/aat/300026657,about:surfliner_schema/controlled_values/digital_origin/reformatted_digital,4 pages,about:surfliner_schema/controlled_values/sublocation/SRC,"Later title: El Gauchito.|Numbering irregularities throughout: Issues for 1932 continues numbering from Summer Roadrunner and called Volume 4, Numbers 1-6;  for 1933 called Volume 2, Numbers 1-6; issues for 1934 also called Volume 4, no. 1-6.|Summer edition of Roadrunner. ""Official publication of the ... summer session.""",1934-07-27
stray-feathers-19340802,stray-feathers-19340802,LB3621.65 .R63,GenericObject,stray-feathers,"Stray feathers, August 2, 1934",ark:/48907/f3571fk4,http://id.loc.gov/authorities/names/nr98028291,"Volume 4, Number 6.",en,http://id.loc.gov/authorities/names/n79041717|http://id.loc.gov/authorities/names/n79081574,"[Associated Students, Santa Barbara State College] : [Santa Barbara, Calif.]",http://id.loc.gov/authorities/names/nr98028291|http://id.loc.gov/authorities/subjects/sh85028351,http://id.loc.gov/vocabulary/preservation/copyrightStatus/pub,http://rightsstatements.org/vocab/NoC-US/1.0/,http://id.loc.gov/vocabulary/resourceTypes/txt,Stray feathers,http://vocab.getty.edu/aat/300026656|http://vocab.getty.edu/aat/300026657,about:surfliner_schema/controlled_values/digital_origin/reformatted_digital,4 pages,about:surfliner_schema/controlled_values/sublocation/SRC,"Later title: El Gauchito.|Numbering irregularities throughout: Issues for 1932 continues numbering from Summer Roadrunner and called Volume 4, Numbers 1-6;  for 1933 called Volume 2, Numbers 1-6; issues for 1934 also called Volume 4, no. 1-6.|Summer edition of Roadrunner. ""Official publication of the ... summer session.""",1934-08-02