# The object `uarch112-g00581` has both a “created” and “issued” date. We’ve
# determined that the created date is erroneous and only the issued date should
# be used. It’s not possible to derive this from the RDF, so the values are
# hardcoded here.
accession_number,issued_start,issued_finish,issued_label,issued_start_qualifier,issued_finish_qualifier
uarch112-g00581,1954,1956,[circa 1954-1956],approximate,approximate
