# This file includes all of the accession numbers and note fields for objects in
# the `uarch112` or `sbhcmss001` collections which include a statement of
# responsibility. It is sourced from the original ADRL ingest CSVs, not from
# ADRL proper. It is necessary because it is impossible to know which of the
# notes on an object was intended to be typed `statement_of_responsibility` in
# ADRL. In this CSV, note types precede the notes they modify.
accession_number,note_type,note,note_type,note,note_type,note,note_type,note,note_type,note,note_type,note,note_type,note
uarch112-g00540,statement_of_responsibility,Jim Pitcher Photo,,Title supplied by library staff.,,Date from finding aid.,,Photographer's stamp on back.,,,,,,
uarch112-g00550,statement_of_responsibility,"Credit will be appreciated by Karl Obert, A.P.S.A.",,Title supplied by library staff.,,Date from finding aid.,,"Stamped on back ""Office of Public Information University of California Santa Barbara College Goleta, California.""",,Photographer's stamp on back.,,,,
uarch112-g00553,statement_of_responsibility,Photo by Karl Obert,,Title from item.,,Date supplied by library staff.,,,,,,,,
uarch112-g00557,statement_of_responsibility,"Credit will be appreciated by Karl Obert, A.P.S.A.",,Title from label on item.,,"Written on back ""Storke Plaza in foreground"".",,Photographer's stamp on back.,,,,,,
uarch112-g00562,statement_of_responsibility,"Credit will be appreciated by Karl Obert, A.P.S.A.",,Title supplied by library staff.,,Date from finding aid.,,Photographer's stamp on back.,,"Stamped on back ""Office of Public Information.""",,,,
uarch112-g00564,statement_of_responsibility,Gilberts of Goleta,,Title and date supplied by library staff.,,"Stamped on back ""Gilberts of Goleta.""",,,,,,,,
uarch112-g00568,statement_of_responsibility,Jim Pitcher Photo,,Title and date supplied by library staff.,,Photographer's stamp on back.,,,,,,,,
uarch112-g00569,statement_of_responsibility,"Credit will be appreciated by Karl Obert, A.P.S.A.",,Title and date supplied by library staff.,,Photographer's stamp on back.,,,,,,,,
uarch112-g00580,statement_of_responsibility,Color photography by Max Mason,,Title from item.,,Date supplied by library staff.,,Post card number H1059.,,,,,,
uarch112-g00581,statement_of_responsibility,Color photography by Max Mason,,Title from item,,Date supplied by library staff.,,Post card number H1059.,,,,,,
uarch112-g00585,statement_of_responsibility,Jerry Stoll photographer,,Title supplied by library staff.,,Date from finding aid.,,"Stamped on back ""Office of Public Information.""",,,,,,
uarch112-g00588,statement_of_responsibility,"Credit will be appreciated by Karl Obert, A.P.S.A.",,Title supplied by library staff.,,Date from finding aid.,,"Stamped on back ""Office of public information.""",,Photographer's stamp on back.,,,,
uarch112-g00590,statement_of_responsibility,"Credit will be appreciated by Karl Obert, A.P.S.A.",,Title supplied by library staff.,,Date supplied by library staff.,,"Stamped on back ""Office of public information.""",,Photographer's stamp on back.,,,,
uarch112-g00591,statement_of_responsibility,Photograph by Vincent J. Mandese,,Title supplied by library staff.,,Photographer's stamp on back.,,,,,,,,
uarch112-g00592,statement_of_responsibility,"Credit will be appreciated by Karl Obert, A.P.S.A.",,Title supplied by library staff.,,Date supplied by library staff.,,"Stamped on back ""Office of public information.""",,Photographer's stamp on back.,,,,
uarch112-g00595,statement_of_responsibility,Hal Boucher Photo,,Title from note on back.,,Photographer's stamp on back.,,,,,,,,
uarch112-g00601,statement_of_responsibility,"Credit will be appreciated by Karl Obert, A.P.S.A.",,Title supplied by library staff.,,Date from finding aid.,,Photographer's stamp on back.,,,,,,
uarch112-g00611,statement_of_responsibility,Photograph by E. J. Ellison,,Title from note on back.,,Date from finding aid.,,"Pencil note on back ""Newspaper Room.""",,"Stamped on back ""Learning Resources/Photographic Services.""",,Photographer's stamp on back.,,
uarch112-g00618,statement_of_responsibility,Jim Pitcher photo,,Title supplied by library staff.,,Date from finding aid.,,,,,,,,
uarch112-g00620,statement_of_responsibility,Jim Pitcher photo,,Title supplied by library staff.,,Date from finding aid.,,,,,,,,
uarch112-g00624,statement_of_responsibility,Jim Pitcher photo,,Title supplied by library staff.,,Date from finding aid.,,,,,,,,
uarch112-g00626,statement_of_responsibility,Jim Pitcher photo,,Title and date from finding aid.,,,,,,,,,,
uarch112-g00631,statement_of_responsibility,Photograph by W. Swalling,,Title from note on back.,,Date from finding aid.,,Photographer's stamp on back.,,"Stamped on back ""Learning resources/photographic services.""",,,,
uarch112-g00650,statement_of_responsibility,Photograph by E. J. Ellison,,Title supplied by library staff.,,Date inferred from code on item.,,"Stamped on back ""Learning/photographic services.""",,,,,,
uarch112-g00659,statement_of_responsibility,by Ray Borges,,Title supplied by library staff.,,"Stamped on back ""Santa Barbara News Press.""",,Photographer's stamp on back.,,,,,,
uarch112-g00669,statement_of_responsibility,Photograph by D. Farrell,,Title supplied by library staff.,,Date from note on back.,,"Stamped on back ""Learning resources/Photographic services.""",,Photographer's stamp on back.,,,,
uarch112-g00671,statement_of_responsibility,Photograph by W. Swalling,,Title from note on back.,,Date inferred from code on item.,,Photographer's note on back.,,"Stamped on back ""Learning resources/photographic services.""",,"In pencil on back ""L. Glen Mosher - Arch. Santa Barbara, C. Goodspeed, Stephen S., R. Ralph Viola - Gen. Contractor Oxnard, California.""",,
uarch112-g00672,statement_of_responsibility,Photograph by W. Swalling,,Title supplied by library staff.,,Date inferred from code on item.,,Photographer's note on back.,,"Stamped on back ""Learning resources/photographic services.""",,,,
uarch112-g00673,statement_of_responsibility,Photograph by W. Swalling,,Title from note on back.,,Date inferred from code on item.,,Photographer's stamp on back.,,"Stamped on back ""Learning resources/photographic services.""",,"Written on back ""Ground breaking Library Phase 4"", ""June 23, 1975 1:30 PM Monday"", ""Chancellor Cheadle"" and ""Donald C. Davidson.""",,
uarch112-g00677,statement_of_responsibility,Photograph by E. J. Ellison,,Title from label on back.,,Date inferred from code on item.,,"Stamped on back ""Learning/Photographic services.""",,Photographer's stamp on back.,,,,
uarch112-g00678,statement_of_responsibility,Photograph by E. J. Ellison,,Title from label on back.,,Date inferred from code on item.,,"Stamped on back ""Learning/Photographic services.""",,Photographer's stamp on back.,,,,
uarch112-g00681,statement_of_responsibility,Photograph by E. J. Ellison,,Title from note on back.,,Date inferred from code on item.,,Photographer's stamp on back.,,"Stamped on back ""Learning resources/Photographic services.""",,,,
uarch112-g00684,statement_of_responsibility,Photo by Richard Reid,,Title supplied by library staff.,,Photographer's label on back.,,,,,,,,
uarch112-g00685,statement_of_responsibility,Photo by Richard Reid,,Title supplied by library staff.,,Photographer's label on back.,,,,,,,,
uarch112-g00688,statement_of_responsibility,Photograph by E. J. Ellison,,Title supplied by library staff.,,Date inferred from code on item.,,Photographer's stamp on back.,,"Stamped on back ""Learning resources/Photographic services.""",,,,
uarch112-g00692,statement_of_responsibility,Photograph by W. Swalling,,Title supplied by library staff.,,Photographer's stamp on back.,,"Stamped on back ""Learning resources/Photographic services.""",,,,,,
uarch112-g00693,statement_of_responsibility,Photograph by E. J. Ellison,,Title supplied by library staff.,,Photographer's stamp on back.,,"Stamped on back ""Learning resources/Photographic services.",,,,,,
uarch112-g00694,statement_of_responsibility,"Wayne Thom, Photographer",,Title from label on back.,,Date from finding aid.,,Photographer's stamp on back.,,,,,,
uarch112-g00697,statement_of_responsibility,Photograph by E. J. Ellison,,Title from note on back.,,Date inferred from code on item.,,Photographer's stamp on back.,,"Stamped on back ""Learning resources/Photographic services.",,,,
uarch112-g00704,statement_of_responsibility,Gilberts of Goleta,,Title supplied by library staff.,,Date supplied by library staff.,,"Stamped on back ""UCSB Publications Office.""",,Photographer's stamp on back.,,"Written on back ""Mr. Donald C Davidson (left) Univ. Library - View Collection"", ""Mr. Richard V. Fisher, Assist. Prof. of Geology"" and ""Mrs. Martha H. Peterson, Head of acquisitions.""",,
uarch112-g00706,statement_of_responsibility,Photography Jim Worrel,,Title supplied by library staff.,,Photographer's stamp on back.,,,,,,,,
uarch112-g00707,statement_of_responsibility,Photo by W. Swalling,,Title supplied by library staff.,,Date inferred from code on item.,,Photographer's stamp on back.,,"Stamped on back ""Photographic Services A.V. Dept.""",,,,
uarch112-g00708,statement_of_responsibility,Gilberts of Goleta,,Title supplied by library staff.,,Date supplied by library staff.,,Photographer's stamp on back.,,"Written on back ""Donald C Davidson - UCSB University Librarian"", ""Lawrence Clark Powell - University Librarian at UCLA.""",,,,
uarch112-g00713,statement_of_responsibility,Gilberts of Goleta,,Title and date supplied by library staff.,,Photographer's stamp on back.,,,,,,,,
uarch112-g00733,statement_of_responsibility,Photograph by W. Swalling,,Title from finding aid.,,Photographer's stamp on back.,,Date inferred from code on item.,,"Stamped on back ""Learning resources/photographic services.""",,,,
uarch112-g00734,statement_of_responsibility,Photograph by W. Swalling,,Title from finding aid.,,Photographer's stamp on back.,,Date inferred from code on item.,,"Stamped on back ""Learning resources/photographic services.""",,,,
uarch112-g00735,statement_of_responsibility,Gilberts of Goleta,,Title from note on back.,,Photographer's stamp on back.,,"Stamped on back ""Office of Public Information.""",,,,,,
uarch112-g00736,statement_of_responsibility,Photograph by W. Swalling,,Title from item.,,Photographer's stamp on back.,,Date inferred from code on item.,,"Stamped on back ""Learning resources/photographic services.""",,,,
uarch112-g00772,statement_of_responsibility,Photo by W. Swalling,,Title supplied by library staff.,,Date inferred from code on item.,,"Stamped on back ""Photographic services A.V. Dept."" and ""Office of Public information.""",,Photographer's stamp on back.,,,,
uarch112-g00779,statement_of_responsibility,Photograph by W. Swalling,,Title from pencil note on back.,,Date inferred from code on item.,,Photographer's stamp on back.,,"Stamped on back ""Learning resources/photographic services.""",,,,
uarch112-g00823,statement_of_responsibility,Photograph by W. Swalling,,Title supplied by library staff.,,Date from finding aid.,,Photographer's stamp on back.,,"Stamped on back ""Learning Resources/Photographic services.""",,,,
uarch112-g00825,statement_of_responsibility,Photograph by E. J. Ellison,,Title supplied by library staff.,,Date inferred from code on item.,,"Written on back ""Music Lib.""",,Photographer's stamp on back.,,"Stamped on back ""Learning Resources/Photographic services.""",,
uarch112-g00826,statement_of_responsibility,Photograph by W. Swalling,,Title supplied by library staff.,,Date inferred from code on item.,,Photographer's stamp on back.,,"Stamped on back ""Learning Resources/Photographic services.""",,"Written on back ""Arts Lib.""",,
uarch112-g00827,statement_of_responsibility,Photograph by W. Swalling,,Title supplied by library staff.,,Date inferred from code on item.,,Photographer's stamp on back.,,"Stamped on back ""Learning Resources/Photographic services.""",,,,
uarch112-g00828,statement_of_responsibility,Photograph by E. J. Ellison,,Title supplied by library staff.,,Date inferred from code on item.,,Photographer's stamp on back.,,"Stamped on back ""Learning Resources/Photographic services.""",,,,
uarch112-g00829,statement_of_responsibility,Photograph by E. J. Ellison,,Title supplied by library staff.,,Date inferred from code on item.,,Photographer's stamp on back.,,"Stamped on back ""Learning Resources/Photographic services.""",,,,
uarch112-g00830,statement_of_responsibility,Photograph by E. J. Ellison,,Title supplied by library staff.,,Date inferred from code on item.,,Photographer's stamp on back.,,"Stamped on back ""Learning Resources/Photographic services.""",,,,
uarch112-g00831,statement_of_responsibility,Photograph by W. Swalling,,Title supplied by library staff.,,Date from finding aid.,,,,,,,,
uarch112-g00835,statement_of_responsibility,Photograph by W. Swalling,,Title supplied by library staff.,,Date inferred from code on item.,,Photographer's stamp on back.,,"Stamped on back ""Learning Resources/Photographic services.""",,,,
uarch112-g00836,statement_of_responsibility,Photograph by E. J. Ellison,,Title from note on back.,,Date inferred from code on item.,,Photographer's stamp on back.,,"Stamped on back ""Learning Resources/Photographic services.""",,,,
uarch112-g00837,statement_of_responsibility,Photograph by W. Swalling,,Title supplied by library staff.,,Date inferred from code on item.,,Photographer's stamp on back.,,"Stamped on back ""Learning Resources/Photographic services.""",,,,
uarch112-g00838,statement_of_responsibility,Photograph by W. Swalling,,Title supplied by library staff.,,Photographer's stamp on back.,,"Stamped on back ""Learning Resources/Photographic services.""",,,,,,
uarch112-g00844,statement_of_responsibility,Photograph by W. Swalling,,Title from note on back.,,Date inferred from code on item.,,Date supplied by library staff.,,Photographer's stamp on back.,,"Stamped on back ""Learning Resources/Photographic services.""",,
uarch112-g00845,statement_of_responsibility,Photograph by E. J. Ellison,,Title supplied by library staff.,,Date inferred from code on item.,,Photographer's stamp on back.,,"Stamped on back ""Learning Resources/Photographic services.""",,,,
uarch112-g00846,statement_of_responsibility,Photograph by W. Swalling,,Title supplied by library staff.,,Date inferred from code on item.,,Photographer's stamp on back.,,"Stamped on back ""Learning Resources/Photographic services.""",,,,
uarch112-g00847,statement_of_responsibility,Photograph by W. Swalling,,Title supplied by library staff.,,Date inferred from code on item.,,Photographer's stamp on back.,,"Stamped on back ""Learning Resources/Photographic services.""",,,,
uarch112-g00848,statement_of_responsibility,Photograph by E. J. Ellison,,Title supplied by library staff.,,Date inferred from code on item.,,Photographer's stamp on back.,,"Stamped on back ""Learning Resources/Photographic services.""",,,,
uarch112-g00850,statement_of_responsibility,Photograph by W. Swalling,,Title supplied by library staff.,,Date supplied by library staff.,,Photographer's stamp on back.,,"Stamped on back ""Learning Resources/Photographic services.""",,,,
uarch112-g00854,statement_of_responsibility,Photograph by E. J. Ellison,,Title supplied by library staff.,,Date inferred from code on item.,,Photographer's stamp on back.,,"Stamped on back ""Learning Resources/Photographic services.""",,,,
uarch112-g00855,statement_of_responsibility,Photograph by W. Swalling,,Title supplied by library staff.,,Date from finding aid.,,Photographer's stamp on back.,,"Stamped on back ""Learning Resources/Photographic services.""",,,,
uarch112-g00879,statement_of_responsibility,Photograph by W. Swalling,,Title supplied by library staff.,,Date from finding aid.,,Photographer's stamp on back.,,"Stamped on back ""Learning Resources/Photographic services.""",,,,
uarch112-g00880,statement_of_responsibility,Photograph by E. J. Ellison,,Title supplied by library staff.,,Date from note on back.,,Photographer's stamp on back.,,"Stamped on back ""Learning Resources/Photographic services.""",,,,
uarch112-g00882,statement_of_responsibility,Photograph by W. Swalling,,Title supplied by library staff.,,Date inferred from code on item.,,Photographer's stamp on back.,,"Stamped on back ""Learning Resources/Photographic services.""",,,,
uarch112-g00883,statement_of_responsibility,Photograph by W. Swalling,,Title supplied by library staff.,,Date from finding aid.,,Photographer's stamp on back.,,"Stamped on back ""Learning Resources/Photographic services.""",,,,
uarch112-g00884,statement_of_responsibility,Photograph by E. J. Ellison,,Title supplied by library staff.,,Date inferred from code on item.,,Photographer's stamp on back.,,"Stamped on back ""Learning Resources/Photographic services.""",,,,
uarch112-g00887,statement_of_responsibility,Photograph by E. J. Ellison,,Title supplied by library staff.,,Date inferred from code on item.,,Photographer's stamp on back.,,"Stamped on back ""Learning Resources/Photographic services.""",,,,
uarch112-g00888,statement_of_responsibility,Photograph by E. J. Ellison,,Title supplied by library staff.,,Date inferred from code on item.,,Photographer's stamp on back.,,"Stamped on back ""Learning Resources/Photographic services.""",,"Written on back ""Justin Moss.""",,
uarch112-g00889,statement_of_responsibility,Photograph by E. J. Ellison,,Title supplied by library staff.,,Date inferred from code on item.,,Photographer's stamp on back.,,"Stamped on back ""Learning Resources/Photographic services.""",,,,
uarch112-g00891,statement_of_responsibility,Photograph by E. J. Ellison,,Title supplied by library staff.,,Date inferred from code on item.,,Photographer's stamp on back.,,"Stamped on back ""Learning Resources/Photographic services.""",,,,
uarch112-g00892,statement_of_responsibility,Photograph by W. Swalling,,Title supplied by library staff.,,Date inferred from code on item.,,Photographer's stamp on back.,,"Stamped on back ""Learning Resources/Photographic services.""",,,,
uarch112-g00894,statement_of_responsibility,Photograph by W. Swalling,,Title supplied by library staff.,,Date from finding aid.,,Photographer's stamp on back.,,"Stamped on back ""Learning Resources/Photographic services.""",,,,
uarch112-g00895,statement_of_responsibility,Photograph by W. Swalling,,Title supplied by library staff.,,Date from finding aid.,,Photographer's stamp on back.,,"Stamped on back ""Learning Resources/Photographic services.""",,,,
uarch112-g00896,statement_of_responsibility,Photograph by E. J. Ellison,,Title supplied by library staff.,,Date inferred from code on item.,,Photographer's stamp on back.,,"Stamped on back ""Learning Resources/Photographic services.""",,,,
uarch112-g00897,statement_of_responsibility,Photograph by E. J. Ellison,,Title supplied by library staff.,,Date inferred from code on item.,,Photographer's stamp on back.,,"Stamped on back ""Learning Resources/Photographic services.""",,,,
uarch112-g00900,statement_of_responsibility,Photograph by E. J. Ellison,,Title supplied by library staff.,,Date inferred from code on item.,,Photographer's stamp on back.,,"Stamped on back ""Learning Resources/Photographic services.""",,,,
uarch112-g00902,statement_of_responsibility,Photograph by W. Swalling,,Title supplied by library staff.,,Date from finding aid.,,Photographer's stamp on back.,,"Stamped on back ""Learning Resources/Photographic services.""",,,,
uarch112-g00903,statement_of_responsibility,Photograph by W. Swalling,,Title supplied by library staff.,,Date from finding aid.,,Photographer's stamp on back.,,"Stamped on back ""Learning Resources/Photographic services.""",,,,
uarch112-g00908,statement_of_responsibility,Photo by Mark Stucky,,Title from note on back.,,Date supplied by library staff.,,Photographer's note on back.,,,,,,
uarch112-g00911,statement_of_responsibility,Gilberts of Goleta,,Title and date supplied by library staff.,,Photographer's stamp on back.,,,,,,,,
uarch112-g00941,statement_of_responsibility,Photograph by W. Swalling,,Title and date supplied by library staff.,,Photographer's stamp on back.,,"Stamped on back ""Learning Resources/Photographic services.""",,,,,,
uarch112-g00942,statement_of_responsibility,Photograph by E. J. Ellison,,Title supplied by library staff.,,Date inferred from code on item.,,Photographer's stamp on back.,,"Stamped on back ""Learning Resources/Photographic services.""",,,,
uarch112-g00943,statement_of_responsibility,Jim Pitcher Photo,,Title from note on back.,,Photographer's stamp on back.,,,,,,,,
uarch112-g00948,statement_of_responsibility,Orie Damewood Photography,,Title from note on back.,,Photographer's stamp on back.,,,,,,,,
uarch112-g00949,statement_of_responsibility,Gilberts of Goleta,,Title from note on back.,,Photographer's stamp on back.,,"Stamped on back ""Office of Public Information.""",,,,,,
uarch112-g00950,statement_of_responsibility,Gilberts of Goleta,,Title from note on back.,,Photographer's stamp on back.,,,,,,,,
uarch112-g00956,statement_of_responsibility,Gilberts of Goleta,,Title from note on back.,,Photographer's stamp on back.,,,,,,,,
uarch112-g00957,statement_of_responsibility,Photograph by W. Swalling,,Title and date supplied by library staff.,,Photographer's stamp on back.,,"Stamped on back ""Learning Resources/Photographic services.""",,,,,,
uarch112-g00960,statement_of_responsibility,Photograph by E. J. Ellison,,Title and date from accompanying information.,,Photographer's stamp on back.,,"Stamped on back ""Learning Resources/Photographic services.""",,,,,,
uarch112-g00961,statement_of_responsibility,Photograph by E. J. Ellison,,Title and date supplied by library staff.,,Photographer's stamp on back.,,"Stamped on back ""Learning Resources/Photographic services.""",,,,,,
uarch112-g00962,statement_of_responsibility,Photograph by E. J. Ellison,,Title and date supplied by library staff.,,Photographer's stamp on back.,,"Stamped on back ""Learning Resources/Photographic services.""",,,,,,
uarch112-g00967,statement_of_responsibility,Please credit photo Don Saban,,Title supplied by library staff.,,Photographer's stamp on back.,,"Written on back ""Rick Gates Dir. of Library Automation.""",,,,,,
uarch112-g01037,statement_of_responsibility,Photograph by E. J. Ellison,,Title supplied by library staff.,,Date inferred from code on item.,,"Stamped on back ""Learning Resources/Photographic Services.""",,Photographer's stamp on back.,,,,
uarch112-g01038,statement_of_responsibility,Photograph by E. J. Ellison,,Title supplied by library staff.,,Date inferred from code on item.,,"Stamped on back ""Learning Resources/Photographic Services.""",,Photographer's stamp on back.,,,,
uarch112-g01039,statement_of_responsibility,Photograph by W. Swalling,,Title supplied by library staff.,,Date from finding aid.,,"Stamped on back ""Learning Resources/Photographic Services.""",,Photographer's stamp on back.,,,,
uarch112-g01041,statement_of_responsibility,Photograph by W. Swalling,,Title supplied by library staff.,,Date from finding aid.,,"Stamped on back ""Learning Resources/Photographic Services.""",,Photographer's stamp on back.,,,,
uarch112-g01083,statement_of_responsibility,Gilberts of Goleta,,Title supplied by library staff.,,,,,,,,,,
uarch112-g01084,statement_of_responsibility,Gilberts of Goleta,,Title supplied by library staff.,,,,,,,,,,
uarch112-g01085,statement_of_responsibility,Gilberts of Goleta,,Title supplied by library staff.,,,,,,,,,,
uarch112-g01086,statement_of_responsibility,Gilberts of Goleta,,Title supplied by library staff.,,Photographer's stamp on back.,,,,,,,,
uarch112-g01089,statement_of_responsibility,Photograph by W. Swalling,,Title supplied by library staff.,,Date inferred from code on item.,,"Stamped on back ""Learning Resources/Photographic Services.""",,Photographer's stamp on back.,,,,
uarch112-g01090,statement_of_responsibility,Photograph by W. Swalling,,Title supplied by library staff.,,Date inferred from code on item.,,"Stamped on back ""Learning Resources/Photographic Services.""",,Photographer's stamp on back.,,,,
uarch112-g01091,statement_of_responsibility,Photograph by W. Swalling,,Title from accompanying information.,,Date inferred from code on item.,,"Stamped on back ""Learning Resources/Photographic Services.""",,Photographer's stamp on back.,,,,
uarch112-g01092,statement_of_responsibility,Photograph by W. Swalling,,Title supplied by library staff.,,Date inferred from code on item.,,"Stamped on back ""Learning Resources/Photographic Services.""",,Photographer's stamp on back.,,,,
uarch112-g01093,statement_of_responsibility,Photograph by W. Swalling,,Title supplied by library staff.,,Date inferred from code on item.,,"Stamped on back ""Learning Resources/Photographic Services.""",,Photographer's stamp on back.,,,,
uarch112-g01094,statement_of_responsibility,Photograph by W. Swalling,,Title supplied by library staff.,,Date inferred from code on item.,,"Stamped on back ""Learning Resources/Photographic Services.""",,Photographer's stamp on back.,,,,
uarch112-g01095,statement_of_responsibility,Photograph by W. Swalling,,Title supplied by library staff.,,Date inferred from code on item.,,"Stamped on back ""Learning Resources/Photographic Services.""",,Photographer's stamp on back.,,"Written on back ""C. Isherwood - speaker.""",,
uarch112-g01097,statement_of_responsibility,Photograph by W. Swalling,,Title supplied by library staff.,,Date inferred from code on item.,,"Stamped on back ""Learning Resources/Photographic Services.""",,Photographer's stamp on back.,,,,
uarch112-g01098,statement_of_responsibility,Photograph by W. Swalling,,Title supplied by library staff.,,"Stamped on back ""Learning Resources/Photographic Services.""",,Photographer's stamp on back.,,,,,,
uarch112-g01099,statement_of_responsibility,Photograph by W. Swalling,,Title supplied by library staff.,,"Stamped on back ""Learning Resources/Photographic Services.""",,Photographer's stamp on back.,,,,,,
uarch112-g01101,statement_of_responsibility,Photograph by W. Swalling,,Title supplied by library staff.,,"Stamped on back ""Learning Resources/Photographic Services.""",,Photographer's stamp on back.,,,,,,
uarch112-g01102,statement_of_responsibility,Photograph by W. Swalling,,Title supplied by library staff.,,"Stamped on back ""Learning Resources/Photographic Services.""",,Photographer's stamp on back.,,,,,,
uarch112-g01103,statement_of_responsibility,Photograph by W. Swalling,,Title supplied by library staff.,,"Stamped on back ""Learning Resources/Photographic Services.""",,Photographer's stamp on back.,,"Written on back ""Miriam Hawthorne"", ""Brad Munson"", ""Jean Corte"", William Everson"", and ""Sharon Keech.""",,,,
uarch112-g01104,statement_of_responsibility,Photograph by W. Swalling,,Title from accompanying information.,,"From accompanying information ""Harold Kono (Grad., 3rd, tie), Jerry Vanley (Undergrad., 1st), Marlene Zuk (Undergrad., 2nd), Mr. Bradbury, Mrs. Corle, Alan Irwin (Undergrad., 3rd), Ronald Burr (Grad., 1st), Charles A. Keene (Grad., 2nd). Not shown is Edward Tafoya, Graduate, who tied for 3rd prize.""",,,,,,,,
uarch112-g01106,statement_of_responsibility,Photograph by W. Swalling,,Title from accompanying information.,,Date from accompanying information.,,"Stamped on back ""Learning Resources/Photographic Services.""",,Photographer's stamp on back.,,,,
uarch112-g01107,statement_of_responsibility,Photograph by W. Swalling,,Title supplied by library staff.,,Date inferred from code on item.,,"Stamped on back ""Learning Resources/Photographic Services.""",,Photographer's stamp on back.,,,,
uarch112-g01108,statement_of_responsibility,Photograph by W. Swalling,,Title supplied by library staff.,,Date inferred from code on item.,,"Stamped on back ""Learning Resources/Photographic Services.""",,Photographer's stamp on back.,,,,
uarch112-g01110,statement_of_responsibility,Photograph by W. Swalling,,Title from item.,,Date inferred from code on item.,,"Stamped on back ""Learning Resources/Photographic Services.""",,Photographer's stamp on back.,,"Written on back ""Prof Alan Stephens"", ""Chancellor Cheadle"", ""Dr. John Martin.""",,
uarch112-g01111,statement_of_responsibility,Photograph by W. Swalling,,Title from item.,,Date inferred from code on item.,,"Stamped on back ""Learning Resources/Photographic Services.""",,Photographer's stamp on back.,,"Written on back ""Mrs. Edwin Corle, Mrs. Jean Wheeler, Chancellor Cheadle, Prof Alan Stephens, Mr. John Martin and C. Brun.""",,
uarch112-g01117,statement_of_responsibility,Photograph by W. Swalling,,Title supplied by library staff.,,,,,,,,,,
uarch112-g01118,statement_of_responsibility,Photograph by W. Swalling,,Title from finding aid.,,Photographer's stamp on back.,,,,,,,,
uarch112-g01119,statement_of_responsibility,Photograph by W. Swalling,,Title from finding aid.,,Date inferred from code on item.,,Photographer's stamp on back.,,"Stamped on back ""Learning Resources/Photographic services.""",,,,
uarch112-g01121,statement_of_responsibility,Photograph by W. Swalling,,Title from finding aid.,,Date inferred from code on item.,,Photographer's stamp on back.,,"Stamped on back ""Learning Resources/Photographic services.""",,,,
uarch112-g01123,statement_of_responsibility,Photograph by W. Swalling,,Title from finding aid.,,Date inferred from code on item.,,Photographer's stamp on back.,,"Stamped on back ""Learning Resources/Photographic services.""",,,,
uarch112-g01124,statement_of_responsibility,Photograph by W. Swalling,,Title supplied by library staff.,,Date inferred from code on item.,,Photographer's stamp on back.,,"Stamped on back ""Learning Resources/Photographic services.""",,,,
uarch112-g01125,statement_of_responsibility,Photograph by W. Swalling,,Title from finding aid.,,Date inferred from code on item.,,Photographer's stamp on back.,,"Stamped on back ""Learning Resources/Photographic services.""",,,,
uarch112-g01215,statement_of_responsibility,Photograph by E. J. Ellison,,Title supplied by library staff.,,Date inferred from code on item.,,Photographer's stamp on back.,,"Stamped on back ""Learning Resources/Photographic services.""",,,,
uarch112-g01216,statement_of_responsibility,Photograph by E. J. Ellison,,Title supplied by library staff.,,Date inferred from code on item.,,Photographer's stamp on back.,,"Stamped on back ""Learning Resources/Photographic services.""",,,,
uarch112-g01220,statement_of_responsibility,Another photograph from Cal-Pictures by Jon Brenneis,,Title from note on back.,,Date from finding aid.,,"Stamped on back ""Cal-Pictures.""",,,,,,
uarch112-g01221,statement_of_responsibility,Jim Pitcher Photo,,Title supplied by library staff.,,Date from finding aid.,,,,,,,,
uarch112-g01222,statement_of_responsibility,Eldon L. Tatsch,,Title supplied by library staff.,,Date from finding aid.,,Photographer's stamp on back.,,,,,,
uarch112-g01224,statement_of_responsibility,Photograph by W. Swalling,,Title supplied by library staff.,,Date inferred from code on item.,,Photographer's stamp on back.,,"Stamped on back ""Learning Resources/Photographic services.""",,,,
uarch112-g01307,statement_of_responsibility,Photograph by W. Swalling,,Title from note on back.,,Date inferred from code on item.,,Photographer's stamp on back.,,"Stamped on back ""Learning Resources/Photographic services.""",,,,
uarch112-g01312,statement_of_responsibility,Photograph by W. Swalling,,Title supplied by library staff.,,Date inferred from code on item.,,Photographer's stamp on back.,,"Stamped on back ""Learning Resources/Photographic services.""",,,,
uarch112-g01409,statement_of_responsibility,Jacqueline HYDE,,Title from note on back.,,Mention Obligatoire Jacqueline HYDE.,,Date supplied by library staff.,,,,,,
uarch112-g01436,statement_of_responsibility,D.H. Moore,,Title supplied by library staff.,,Date from finding aid.,,"Stamped on back ""D. H. Moore.""",,,,,,
uarch112-g01437,statement_of_responsibility,D.H. Moore,,Title supplied by library staff.,,Date from finding aid.,,"Stamped on back ""D. H. Moore.""",,,,,,
uarch112-g01438,statement_of_responsibility,D.H. Moore,,Title supplied by library staff.,,Date from finding aid.,,"Stamped on back ""D. H. Moore.""",,,,,,
uarch112-g01439,statement_of_responsibility,D.H. Moore,,Title supplied by library staff.,,Date from finding aid.,,"Stamped on back ""D. H. Moore.""",,,,,,
uarch112-g01470,statement_of_responsibility,Photograph by W. Swalling,,Title from note on back.,,Date inferred from code on item.,,Photographer's stamp on back.,,"Stamped on back ""Learning Resources/Photographic services.""",,"Written on back ""Hobart O. Skofield.""",,
uarch112-g01529,statement_of_responsibility,D.H. Moore,,Title and date supplied by library staff.,,Photographer's stamp on back.,,,,,,,,
uarch112-g01530,statement_of_responsibility,D.H. Moore,,Title and date supplied by library staff.,,Photographer's stamp on back.,,,,,,,,
uarch112-g01700,,Title from item.,,Date from finding aid.,,,statement_of_responsibility,Brock-Higgins Photo,,,,,,
uarch112-g01731,,Title supplied by library staff.,,Date from finding aid.,,,statement_of_responsibility,Photographs by Smith & Clark,,,,,,
uarch112-g01733,,Title supplied by library staff from pencil note on back.,,Date from pencil note on back of item.,,,statement_of_responsibility,McCurry Foto Co.,,,,,,
uarch112-g01753,,Title supplied by library staff.,,Date from finding aid.,,,statement_of_responsibility,A. Sturtevant Photo ,,,,,,
uarch112-g01781,,Title from item.,,Date from finding aid.,,,statement_of_responsibility,N.H. Reed Studio,,,,,,
uarch112-g01803,,Title and date from written note on item.,,,,,statement_of_responsibility,Obert's Photoshops,,,,,,
uarch112-g01811,,Title from handwritten note on back.,,Date from item.,,,statement_of_responsibility,J.T. Janz,,,,,,
uarch112-g01819,,Title from item.,,Date supplied by library staff.,,,statement_of_responsibility,Theo Sohmer Los Angeles,,,,,,
uarch112-g01831,,Title and date from handwritten note on back.,,,,,statement_of_responsibility,J.T. Janz,,,,,,
uarch112-g01845,,Title and date supplied by library staff.,,,,,statement_of_responsibility,Faulding's Photography,,,,,,
uarch112-g01851,,Title supplied by library staff from handwritten note on back.,,Date supplied by library staff.,,,statement_of_responsibility,"Jackson and Semmelmeyer, photographic stores, Chicago-Santa Barbara",,,,,,
uarch112-g01855,,Title and date supplied by library staff.,,,,,statement_of_responsibility,Faulding's Photography,,,,,,
uarch112-g01893,,Title supplied by library staff from handwritten note on back.,,Date from similar item in collection,,,statement_of_responsibility,Cal-pictures by Jon Brenneis,,,,,,
uarch112-g01894,,Title supplied by library staff from handwritten note on back.,,Date from item.,,,statement_of_responsibility,Cal-pictures by Jon Brenneis,,,,,,
uarch112-g01958,,Title supplied by library staff from handwritten note from accompanying information.,,Date from accompanying information.,,,statement_of_responsibility,N.H. Reed Studio,,,,,,
uarch112-g01959,,Tite from item.,,Date supplied by library staff,,,statement_of_responsibility,N.H. Reed Studio,,,,,,
uarch112-g01960,,Title supplied by library staff.,,Date from item.,,,statement_of_responsibility,A. Sturtevant Photo ,,,,,,
uarch112-g01962,,Title and date from handwritten note on back,,,,,statement_of_responsibility,A. Sturtevant Photo ,,,,,,
uarch112-g01965,,Title and date supplied by library staff.,,,,,statement_of_responsibility,A. Sturtevant Photo ,,,,,,
uarch112-g01966,,Title from handwritten note on back.,,Date from stamp on back.,,,statement_of_responsibility,Santa Barbara News-Press Photo,,,,,,
uarch112-g01967,,Title supplied by library staff.,,Date from stamp on back.,,,statement_of_responsibility,Santa Barbara News-Press Photo,,,,,,
uarch112-g01978,,Title supplied by library staff.,,Date from stamp on back.,,,statement_of_responsibility,Santa Barbara News-Press Photo,,,,,,
uarch112-g01995,,Title and date from item.,,,,,statement_of_responsibility,N.H. Reed Studio,,,,,,
uarch112-g02018,,Title and date supplied by library staff.,,,,,statement_of_responsibility,Gilbert's Goleta Photo service,,,,,,
uarch112-g02019,,Title and date supplied by library staff.,,,,,statement_of_responsibility,Eldon L. Tatsch,,,,,,
uarch112-g02022,,Title supplied by library staff.,,Date from stamp on back.,,,statement_of_responsibility,Santa Barbara News-Press Photo,,,,,,
uarch112-g02029,,Title and date supplied by library staff.,,,,,statement_of_responsibility,Another Photograph from Cal-Pictures by Jon Brenneis,,,,,,
uarch112-g02040,,Title and date supplied by library staff.,,,,,statement_of_responsibility,Another Photograph from Cal-Pictures by Jon Brenneis,,,,,,
uarch112-g02042,,Title and date supplied by library staff.,,,,,statement_of_responsibility,Another Photograph from Cal-Pictures by Jon Brenneis,,,,,,
uarch112-g02046,,Title and date supplied by library staff.,,,,,statement_of_responsibility,Another Photograph from Cal-Pictures by Jon Brenneis,,,,,,
uarch112-g02048,,Title and date supplied by library staff.,,,,,statement_of_responsibility,Another Photograph from Cal-Pictures by Jon Brenneis,,,,,,
uarch112-g02607,statement_of_responsibility,Photograph by W. Swalling,,Title supplied by library staff.,,Date inferred from code on item.,,Photographer's stamp on back.,,"Stamped on back ""Learning Resources/Photographic services.""",,,,

sbhcmss1-g00001,,Title supplied by library staff from label on item sleeve.,,Date from label on item sleeve.,,"Architectural Advisory Committee, Architects.",,Photographer's stamp on back.,,No. 63 on back.,,,statement_of_responsibility,"P. H. Greene, Photographer, Santa Barbara"
sbhcmss1-g00002,,Title supplied by library staff from label on item sleeve.,,Date supplied by library staff.,,"Soule, Murphy & Hastings, Architects.",,Photographer's stamp on back.,,No. 639 on back.,,,statement_of_responsibility,"P. H. Greene, Photographer, Santa Barbara"
sbhcmss1-g00010,,Title supplied by library staff from pencil note on back.,,Date supplied by library staff.,,"From Plans & Planting Committee, Community Arts Association, 33 East Canon Perdido Street, Santa Barbara, California stamped on back.",,"Stamp on back ""Publication rights to this photograph herewith released if indicated credit is given to photographer. Plans & Planting Committee Community Arts Association Santa Barbara, California.""",,Photographer's stamp on back.,,,statement_of_responsibility,"Faulding's Photography, Santa Barbara, California"
sbhcmss1-g00011,,Title and date supplied by library staff.,,Photographer's stamp on back.,,"Property of Henry D. Minot 1708 Garden St. Santa Barbara, Cali. Please return. stamped on back.",,"From Plans & Planning Committee, Community Arts Association, Santa Barbara, California stamped on back.",,,,,statement_of_responsibility,"Faulding's Photography, Santa Barbara, California"
sbhcmss1-g00012,,Title supplied by library staff from label on item sleeve.,,Date from other copies of item in collection.,,Photographer's stamp on back.,,No. 63 on back.,,,,,statement_of_responsibility,"P. H. Greene, Photographer, Santa Barbara"
sbhcmss1-g00013,,Title supplied by library staff from label on item sleeve.,,Date from other copies of item in collection.,,Photographer's stamp on back.,,No. 63 on back.,,,,,statement_of_responsibility,"P. H. Greene, Photographer, Santa Barbara"
sbhcmss1-g00014,,Title supplied by library staff from label on item sleeve.,,Date from label on item sleeve.,,"Architectural Advisory Committee, Architects.",,Photographer's stamp on back.,,No. 617 on back.,,,statement_of_responsibility,"P. H. Greene, Photographer, Santa Barbara"
sbhcmss1-g00016,,Title supplied by library staff from label on item sleeve.,,Date from label on item sleeve.,,Photographer's stamp on back.,,No. 104 on back.,,,,,statement_of_responsibility,"P. H. Greene, Photographer, Santa Barbara"
sbhcmss1-g00020,,Title and date supplied by library staff.,,Photographer's stamp on back.,,"Written in pen on back ""no. 4.""",,"Written in pencil on back ""before 1925 Eside State""",,,,,statement_of_responsibility,"Faulding's Photography, Santa Barbara, California"
sbhcmss1-g00021,,Title and date supplied by library staff.,,Photographer's stamp on back.,,"Written in pen on back ""no. 4.""",,,,,,,statement_of_responsibility,"Faulding's Photography, Santa Barbara, California"
sbhcmss1-g00023,,Title supplied by library staff from pencil note on back.,,Date supplied by library staff.,,Photographer's stamp on back.,,No. 245 on back.,,,,,statement_of_responsibility,"P. H. Greene, Photographer, Santa Barbara"
sbhcmss1-g00025,,Title and date supplied by library staff.,,Photographer's stamp on back.,,"From Plans & Planting Committee, Community Arts Association, Santa Barbara, California stamped on back.",,,,,,,statement_of_responsibility,"Faulding's Photography, Santa Barbara, California"
sbhcmss1-g00026,,Title and date supplied by library staff.,,Photographer's stamp on back.,,No. 245 on back.,,"Written in pencil on back ""300 Blk State. Bothin Bldg. [after earthquake]""",,,,,statement_of_responsibility,"P. H. Greene, Photographer, Santa Barbara"
sbhcmss1-g00029,,Title and date supplied by library staff.,,"From sleeve ""Walker, deceased, Architect.""",,Photographer's stamp on back.,,No. 619 on back.,,,,,statement_of_responsibility,"P. H. Greene, Photographer, Santa Barbara"
sbhcmss1-g00032,,Title and date supplied by library staff.,,Photographer's stamp on back.,,No. 345 on back.,,,,,,,statement_of_responsibility,"P. H. Greene, Photographer, Santa Barbara"
sbhcmss1-g00039,,Title and date supplied by library staff.,,Photographer's stamp on back.,,"In pencil on back ""after 1925.""",,,,,,,statement_of_responsibility,"Faulding's Photography, Santa Barbara, California"
sbhcmss1-g00046,,Title and date supplied by library staff.,,"Pencil note on back ""309 State. Vince Wood. Good.""",,Photographer's stamp on back.,,,,,,,statement_of_responsibility,J. T. Janz
sbhcmss1-g00053,,Title supplied by library staff from label on item sleeve.,,Date supplied by library staff.,,Photographer's stamp on back.,,Greene no. 672.,,,,,statement_of_responsibility,"P. H. Greene, Photographer, Santa Barbara"
sbhcmss1-g00055,,Title supplied by library staff from pencil note on back.,,Date supplied by library staff.,,Photographer's stamp on back.,,Greene no. 672.,,"In pencil on back ""312 Estado remod. Hotel Del Mar.""",,,statement_of_responsibility,"P. H. Greene, Photographer, Santa Barbara"
sbhcmss1-g00057,,Title supplied by library staff from pencil note on back.,,Date supplied by library staff.,,Photographer's stamp on back.,,"From Plans & Planting Committee, Community Arts Association, Santa Barbara, California stamped on back.",,,,,statement_of_responsibility,"Faulding's Photography, Santa Barbara, California"
sbhcmss1-g00060,,Title and date supplied by library staff.,,Greene no. 200.,,,,,,,,,statement_of_responsibility,"P. H. Greene, Photographer, Santa Barbara"
sbhcmss1-g00061,,Title and date supplied by library staff.,,Greene no. 200.,,,,,,,,,statement_of_responsibility,"P. H. Greene, Photographer, Santa Barbara"
sbhcmss1-g00064,,Title and date supplied by library staff.,,Photographer's stamp on back.,,"Stamped on back ""Property of Henry D. Minot 1708 Garden St. Santa Barbara, Cal. Please return.""",,,,,,,statement_of_responsibility,"Faulding's Photography, Santa Barbara, California"
sbhcmss1-g00067,,Title and date supplied by library staff.,,Greene no. 65g.,,,,,,,,,statement_of_responsibility,"P. H. Greene, Photographer, Santa Barbara"
sbhcmss1-g00069,,Title supplied by library staff from pencil note on back.,,Date supplied by library staff.,,,,,,,,,statement_of_responsibility,J. T. Janz
sbhcmss1-g00070,,Title supplied by library staff from pencil note on back.,,Date supplied by library staff.,,,,,,,,,statement_of_responsibility,J. T. Janz
sbhcmss1-g00074,,Title and date supplied by library staff.,,"Written on back in pencil ""St. Paul Dye Wrks - Estado 407.""",,Photographer's stamp on back.,,,,,,,statement_of_responsibility,"Faulding's Photography, Santa Barbara, California"
sbhcmss1-g00075,,Title and date supplied by library staff.,,"Written on back in pencil ""St. Paul Estado 407.""",,Photographer's stamp on back.,,,,,,,statement_of_responsibility,"Faulding's Photography, Santa Barbara, California"
sbhcmss1-g00076,,Title and date supplied by library staff.,,"Written on back in pencil ""429 State, 435.""",,Photographer's stamp on back.,,,,,,,statement_of_responsibility,J. T. Janz
sbhcmss1-g00077,,Title and date supplied by library staff.,,"Written on back in pencil ""429 State, 435.""",,Photographer's stamp on back.,,,,,,,statement_of_responsibility,J. T. Janz
sbhcmss1-g00082,,Title and date supplied by library staff.,,"Written on back in pencil ""523 State.""",,Photographer's stamp on back.,,,,,,,statement_of_responsibility,J. T. Janz
sbhcmss1-g00083,,Title and date supplied by library staff.,,"Written on back in pencil ""509 State, 511.""",,Photographer's stamp on back.,,,,,,,statement_of_responsibility,J. T. Janz
sbhcmss1-g00084,,Title and date supplied by library staff.,,"Written on back in pencil ""507 State.""",,Photographer's stamp on back.,,,,,,,statement_of_responsibility,J. T. Janz
sbhcmss1-g00091,,Title supplied by library staff from label on item sleeve.,,Date from label on item sleeve.,,"In pencil on back ""Bates Bldg.""",,Photographer's stamp on back.,,Greene no. 652.,,"From label on item sleeve ""Edwards, Plunkett & Howell, Architects.""",statement_of_responsibility,"P. H. Greene, Photographer, Santa Barbara"
sbhcmss1-g00093,,Title and date supplied by library staff.,,Photographer's stamp on back.,,Greene no. 192.,,"Written on back in pencil ""600 block. Park Bldg.""",,,,,statement_of_responsibility,"P. H. Greene, Photographer, Santa Barbara"
sbhcmss1-g00094,,Title and date supplied by library staff.,,Photographer's stamp on back.,,Greene no. 192.,,,,,,,statement_of_responsibility,"P. H. Greene, Photographer, Santa Barbara"
sbhcmss1-g00096,,Title and date supplied by library staff.,,"Written in pencil on back ""619 State, 621. Wooden fence + corrugated iron walls. Bad.""",,Photographer's stamp on back.,,,,,,,statement_of_responsibility,J. T. Janz
sbhcmss1-g00097,,Title and date supplied by library staff.,,"Written in pencil on back ""619 State, 621.""",,Photographer's stamp on back.,,,,,,,statement_of_responsibility,J. T. Janz
sbhcmss1-g00098,,Title and date supplied by library staff.,,Photographer's stamp on back.,,,,,,,,,statement_of_responsibility,J. T. Janz
sbhcmss1-g00101,,Title and date supplied by library staff.,,Photographer's stamp on back.,,Greene no. 650.,,,,,,,statement_of_responsibility,"P. H. Greene, Photographer, Santa Barbara"
sbhcmss1-g00106,,Title supplied by library staff.,,Date from pencil note on back.,,Photographer's stamp on back.,,"Stamped on back ""From Plans & Planting Branch Community Arts Association.""",,,,,statement_of_responsibility,"Faulding's Photography, Santa Barbara, California"
sbhcmss1-g00120,,Title supplied by library staff.,,Date from pencil note on back.,,"Written on back in pencil ""1925-26.""",,"Photographer's stamp on back ""no. 16.""",,,,,statement_of_responsibility,"Faulding's Photography, Santa Barbara, California"
sbhcmss1-g00124,,Title supplied by library staff from pencil note on back.,,Date supplied by library staff.,,"Pencil note on back ""707 State. Fair""",,Photographer's stamp on back.,,,,,statement_of_responsibility,J. T. Janz
sbhcmss1-g00127,,Title supplied by library staff from pencil note on back.,,Date supplied by library staff.,,"Pencil note on back ""735 State Central Bldg.""",,Photographer's stamp on back.,,,,,statement_of_responsibility,J. T. Janz
sbhcmss1-g00135,,Title supplied by library staff from label on item sleeve.,,Date from label on item sleeve.,,Photographer's stamp on back.,,Greene no. 620,,"From label on item sleeve ""J. P. Sullivan, Builder and Designer.""",,,statement_of_responsibility,"P. H. Greene, Photographer, Santa Barbara"
sbhcmss1-g00136,,Title supplied by library staff from label on item sleeve.,,Date supplied by library staff.,,Photographer's stamp on back.,,Greene no. 431-A.,,"From label on item sleeve ""Lionel H. Pries, Architect.""",,,statement_of_responsibility,"P. H. Greene, Photographer, Santa Barbara"
sbhcmss1-g00137,,Title and date supplied by library staff.,,Photographer's stamp on back.,,Greene no. 431.,,"From label on item sleeve ""Lionel H. Pries, Architect.""",,"Stamped on back Plans & Planting Committee Community Arts Association.""",,"Written in pencil on back ""Old Mc Kay block remodeled by Pries - architect. Owned by Boskin[?] Estate.""",statement_of_responsibility,"P. H. Greene, Photographer, Santa Barbara"
sbhcmss1-g00138,,Title supplied by library staff.,,Date from pencil note on back.,,Photographer's stamp on back.,,"Pencil note ""State & de la guerra.""",,,,,statement_of_responsibility,"Faulding's Photography, Santa Barbara, California"
sbhcmss1-g00145,,Title supplied by library staff from handwritten note on back.,,Date from pencil note on back.,,Photograph's stamp on back.,,"Pencil note on back ""McKay Bldg State & de la Guerra 1924""",,,,,statement_of_responsibility,"Faulding's Photography, Santa Barbara, California"
sbhcmss1-g00147,,Title supplied by library staff.,,Date from other copies of item in collection.,,Photographer's stamp on back.,,Greene no. 620.,,,,,statement_of_responsibility,"P. H. Greene, Photographer, Santa Barbara"
sbhcmss1-g00149,,Title and date supplied by library staff.,,"Pencil note on back ""Ott Hdw Yard back of Central Bldg 735 State.""",,,,,,,,,statement_of_responsibility,J. T. Janz
sbhcmss1-g00150,,Title and date supplied by library staff.,,"Pencil note on back ""Ott Hdw Yard back of Central Bldg 735 State.""",,,,,,,,,statement_of_responsibility,J. T. Janz
sbhcmss1-g00151,,Title supplied by library staff.,,Date from pencil note on back.,,"Pencil note on back ""de la guerra before 1925.""",,Photographer's stamp on back.,,,,,statement_of_responsibility,"Faulding's Photography, Santa Barbara, California"
sbhcmss1-g00152,,Title supplied by library staff.,,Date from pencil note on back.,,"Pencil note on back ""de la guerra before 1925.""",,Photographer's stamp on back.,,,,,statement_of_responsibility,"Faulding's Photography, Santa Barbara, California"
sbhcmss1-g00154,,Title and date supplied by library staff.,,Photographer's stamp on back.,,Greene no. 491B.,,,,,,,statement_of_responsibility,"P. H. Greene, Photographer, Santa Barbara"
sbhcmss1-g00171,,Title supplied by library staff from photograph and label on item sleeve.,,Date from stamp on back.,,"Label on sleeve ""Mrs. James Osborne Craig, Architect.""",,"Stamped on back Plans & Planting Committee Community Arts Association.""",,Photographer's stamp on back.,,,statement_of_responsibility,"J. Walter Collinge, Santa Barbara"
sbhcmss1-g00175,,Title supplied by library staff from label on item sleeve.,,Date supplied by library staff.,,Photographer's stamp on back.,,Greene no. 657.,,,,,statement_of_responsibility,"P. H. Greene, Photographer, Santa Barbara"
sbhcmss1-g00179,,Title supplied by library staff from pencil note on back.,,Date supplied by library staff.,,"Pencil note ""Rear of Trenurith's West side 800 block State St.",,Photographer's stamp on back.,,,,,statement_of_responsibility,J. T. Janz
sbhcmss1-g00180,,Title supplied by library staff from pencil note on back.,,Date supplied by library staff.,,Photographer's stamp on back.,,,,,,,statement_of_responsibility,J. T. Janz
sbhcmss1-g00183,,Title supplied by library staff from pencil note on back.,,Date supplied by library staff.,,,,,,,,,statement_of_responsibility,J. T. Janz
sbhcmss1-g00184,,Title and date supplied by library staff.,,Photographer's stamp on back.,,Greene no. 658.,,,,,,,statement_of_responsibility,"P. H. Greene, Photographer, Santa Barbara"
sbhcmss1-g00191,,Title supplied by library staff.,,Photographer's stamp on back.,,Greene no. 353,,"Label on back ""The Santa Barbara Morning Press Bldg., on State St. was the usual brick front before the quake, and this is the result attained by Edwards, Plunkett and Howell in the new style. 1925.""",,,,,statement_of_responsibility,"P. H. Greene, Photographer, Santa Barbara"
sbhcmss1-g00194,,Title supplied by library staff from pencil note on back.,,Date supplied by library staff.,,Photographer's stamp on back.,,Greene no. 198.,,,,,statement_of_responsibility,"P. H. Greene, Photographer, Santa Barbara"
sbhcmss1-g00199,,Title and date supplied by library staff.,,Photographer's stamp on back.,,Greene no. 621,,,,,,,statement_of_responsibility,"P. H. Greene, Photographer, Santa Barbara"
sbhcmss1-g00200,,Title supplied by library staff.,,Date from label on item sleeve.,,Photographer's stamp on back.,,Greene no. 658.,,"On label ""Edwards, Plunkett & Howell, Architects. 1926.""",,,statement_of_responsibility,"P. H. Greene, Photographer, Santa Barbara"
sbhcmss1-g00201,,Title supplied by library staff.,,Date from pencil note on back.,,Photographer's stamp on back.,,,,,,,statement_of_responsibility,"Faulding's Photography, Santa Barbara, California"
sbhcmss1-g00202,,Title supplied by library staff.,,Date from stamp on back.,,"Stamped on back ""J. Walter Collinge Santa Barbara.""",,,,,,,statement_of_responsibility,"J. Walter Collinge, Santa Barbara"
sbhcmss1-g00203,,Title and date supplied by library staff.,,Photographer's stamp on back.,,"Stamped on back ""Plans & Planting Committee Community Arts Association.""",,"Pencil note on back ""Wm a Edwards architect.""",,,,,statement_of_responsibility,"Faulding's Photography, Santa Barbara, California"
sbhcmss1-g00206,,Title and date supplied by library staff.,,Photographer's stamp on back.,,"Stamped on ""Property of Henry D. Minot 1708 Garden St. Santa Barbara, Cal. Please return.""",,"Pencil note on back ""818 State St.""",,,,,statement_of_responsibility,"Faulding's Photography, Santa Barbara, California"
sbhcmss1-g00207,,Title and date supplied by library staff.,,Photographer's stamp on back.,,Greene no. 651.,,,,,,,statement_of_responsibility,"P. H. Greene, Photographer, Santa Barbara"
sbhcmss1-g00208,,Title and date supplied by library staff.,,Photographer's stamp on back.,,Greene no. 651.,,,,,,,statement_of_responsibility,"P. H. Greene, Photographer, Santa Barbara"
sbhcmss1-g00214,,Title supplied by library staff from pen note on back.,,Date supplied by library staff.,,Photographer's stamp on back.,,,,,,,statement_of_responsibility,"Faulding's Photography, Santa Barbara, California"
sbhcmss1-g00221,,Title and date supplied by library staff.,,Photographer's stamp on back.,,Green no. 622.,,"Pencil note on back ""1927 811 State.""",,"Stamped on back ""Plans & Planting Committee Community Arts Association.""",,,statement_of_responsibility,"P. H. Greene, Photographer, Santa Barbara"
sbhcmss1-g00222,,Title and date supplied by library staff.,,Photographer's stamp on back.,,"Pencil note on back ""Post earthquake 1925-1930.""",,,,,,,statement_of_responsibility,"P. H. Greene, Photographer, Santa Barbara"
sbhcmss1-g00223,,Title and date supplied by library staff.,,Photographer's stamp on back.,,"Pencil note on back ""921-923 State.""",,,,,,,statement_of_responsibility,J. T. Janz
sbhcmss1-g00224,,Title supplied by library staff from handwritten note on back.,,Date supplied by library staff.,,Photographer's stamp on back.,,Greene no. 665.,,,,,statement_of_responsibility,"P. H. Greene, Photographer, Santa Barbara"
sbhcmss1-g00225,,Title supplied by library staff.,,Date from pencil note on back.,,Photographer's stamp on back.,,,,,,,statement_of_responsibility,"Faulding's Photography, Santa Barbara, California"
sbhcmss1-g00226,,Title supplied by library staff from pencil note on back.,,Date from pencil note on back.,,Photographer's stamp on back.,,,,,,,statement_of_responsibility,"Faulding's Photography, Santa Barbara, California"
sbhcmss1-g00235,,Title and date supplied by library staff.,,Photographer's stamp on back.,,,,,,,,,statement_of_responsibility,"Faulding's Photography, Santa Barbara, California"
sbhcmss1-g00246,,Title supplied by library staff.,,Date from other copies of item in collection.,,Photographer's stamp on back.,,"Stamped on back ""Plans & Planting Committee Community Arts Association.""",,,,,statement_of_responsibility,"Faulding's Photography, Santa Barbara, California"
sbhcmss1-g00250,,Title and date supplied by library staff.,,Photographer's stamp on back.,,,,,,,,,statement_of_responsibility,"Faulding's Photography, Santa Barbara, California"
sbhcmss1-g00252,,Title supplied by library staff from the photograph and label on item.,,Date from label on item sleeve.,,"On label ""Charles Frederick Eaton, Designer.",,Photographer's stamp on back.,,Greene no. 665.,,,statement_of_responsibility,"P. H. Greene, Photographer, Santa Barbara"
sbhcmss1-g00253,,Title supplied by library staff.,,Date from stamp on back.,,Photographer's stamp on back.,,"Label affixed to photograph ""After Remodeling.""",,"Stamped on back ""Plans & Planting Committee Community Arts Association.""",,,statement_of_responsibility,"Faulding's Photography, Santa Barbara, California"
sbhcmss1-g00261,,Title and date supplied by library staff.,,Greene no. 165a.,,,,,,,,,statement_of_responsibility,"P. H. Greene, Photographer, Santa Barbara"
sbhcmss1-g00263,,Title supplied by library staff from copies in collection and pencil note on back.,,Date from pencil note on back.,,"Pencil note on back ""Rogers Bldg in it's third stage.""",,Photographer's stamp on back.,,,,,statement_of_responsibility,"Photo by F.G. Anderson, Santa Barbara, Calif."
sbhcmss1-g00264,,Title supplied by library staff.,,Date from pencil note on back.,,Photographer's stamp on back.,,,,,,,statement_of_responsibility,"Photo by F.G. Anderson, Santa Barbara, Calif."
sbhcmss1-g00265,,Title supplied by library staff from other copies in collection and pencil note on back.,,Date from pencil note on back.,,"Pencil note on back ""Designed by Soule, Murphy & Hastings."" and ""1926.""",,Photographer's stamp on back.,,Greene no. 638.,,,statement_of_responsibility,"P. H. Greene, Photographer, Santa Barbara"
sbhcmss1-g00268,,Title and date supplied by library staff.,,Greene no. 165.,,"Pencil note on back ""Plans & Planting Committee.""",,,,,,,statement_of_responsibility,"P. H. Greene, Photographer, Santa Barbara"
sbhcmss1-g00275,,Title supplied by library staff from label on item sleeve.,,Date from stamp on back.,,"Stamped on back ""Plans & Planting Committee Community Arts Association.""",,"Pencil note on back ""Lionel Pries architect"", ""P.H. Greene, photo."" and ""Bothin Building 905""",,Greene no. 293.,,,statement_of_responsibility,"P. H. Greene, Photographer, Santa Barbara"
sbhcmss1-g00277,,Title and date supplied by library staff.,,Photographer's stamp on back.,,,,,,,,,statement_of_responsibility,"Walter Collinge, Santa Barbara"
sbhcmss1-g00278,,Title supplied by library staff.,,Date from pencil note on back.,,Photographer's stamp on back.,,,,,,,statement_of_responsibility,"Faulding's Photography, Santa Barbara, California"
sbhcmss1-g00280,,Title and date supplied by library staff.,,Photographer's stamp on back.,,Greene no. 446.,,,,,,,statement_of_responsibility,"P. H. Greene, Photographer, Santa Barbara"
sbhcmss1-g00283,,Title and date supplied by library staff.,,Photographer's stamp on back.,,,,,,,,,statement_of_responsibility,"Karl Obert, 1921 Castillo Street, Santa Barbara, Calif."
sbhcmss1-g00284,,Title and date supplied by library staff.,,Photographer's stamp on back.,,,,,,,,,statement_of_responsibility,"Karl Obert, 1921 Castillo Street, Santa Barbara, Calif."
sbhcmss1-g00285,,Title supplied by library staff.,,Date from pencil note on back.,,Photographer's stamp on back.,,,,,,,statement_of_responsibility,"Photo by F.G. Anderson, Santa Barbara, Calif."
sbhcmss1-g00301,,Title and date supplied by library staff.,,,,,,,,,,,statement_of_responsibility,"Karl Obert, 1921 Castillo Street, Santa Barbara, Calif."
sbhcmss1-g00307,,Title and date supplied by library staff.,,Photographer's stamp on back.,,,,,,,,,statement_of_responsibility,"Karl Obert, 1921 Castillo Street, Santa Barbara, Calif."
sbhcmss1-g00308,,Title and date supplied by library staff.,,Photographer's stamp on back.,,,,,,,,,statement_of_responsibility,"Karl Obert, 1921 Castillo Street, Santa Barbara, Calif."
sbhcmss1-g00309,,Title supplied by library staff.,,Date from pencil note on back.,,Photographer's stamp on back.,,,,,,,statement_of_responsibility,"Faulding's Photography, Santa Barbara, California"
sbhcmss1-g00310,,Title supplied by library staff from pencil note on back.,,Date from similar items in collection.,,Photographer's stamp on back.,,Greene no. 293.,,,,,statement_of_responsibility,"P. H. Greene, Photographer, Santa Barbara"
sbhcmss1-g00311,,Title supplied by library staff from label on back.,,Date from label on back.,,Photographer's stamp on back.,,Greene no. 293.,,"From label ""(27B) The Bothin Bldg., Lionel Pries, architect.""",,"Stamped on back ""Plans & Planting Committee Community Arts Association.""",statement_of_responsibility,"P. H. Greene, Photographer, Santa Barbara"
sbhcmss1-g00313,,Title supplied by library staff from pencil note on back.,,Date from pencil note on back.,,Photographer's stamp on back.,,Greene no. 293.,,,,,statement_of_responsibility,"P. H. Greene, Photographer, Santa Barbara"
sbhcmss1-g00314,,Title supplied by library staff from similar items in collection.,,Date from label on item sleeve.,,Photographer's stamp on back.,,Greene no. 648a.,,"On label ""Edwards, Plunkett & Howell, Architects.""",,,statement_of_responsibility,"P. H. Greene, Photographer, Santa Barbara"
sbhcmss1-g00315,,Title supplied by library staff.,,Date from label on item sleeve.,,Photographer's stamp on back.,,Greene no. 659.,,"On label ""Soule, Murphy & Hastings, Architects.""",,,statement_of_responsibility,"P. H. Greene, Photographer, Santa Barbara"
sbhcmss1-g00318,,Title supplied by library staff from label and photograph.,,Date from label on item sleeve.,,Photographer's stamp on back.,,Greene no. 217.,,"From label ""A.C. Sanders Architect.",,,statement_of_responsibility,"P. H. Greene, Photographer, Santa Barbara"
sbhcmss1-g00323,,Title supplied by library staff from similar items in collection.,,Date supplied by library staff.,,Photographer's stamp on back.,,Greene no. 125.,,,,,statement_of_responsibility,"P. H. Greene, Photographer, Santa Barbara"
sbhcmss1-g00326,,Title supplied by library staff.,,Date from other copies of item in collection.,,Photographer's stamp on back.,,Greene no. 217.,,,,,statement_of_responsibility,"P. H. Greene, Photographer, Santa Barbara"
sbhcmss1-g00335,,Title supplied by library staff from similar items in collection.,,Date supplied by library staff.,,Photographer's stamp on back.,,,,,,,statement_of_responsibility,"J. Walter Collinge, Santa Barbara"
sbhcmss1-g00337,,Title supplied by library staff from similar items in collection.,,Date supplied by library staff.,,Photographer's stamp on back.,,Greene no. 678B.,,,,,statement_of_responsibility,"P. H. Greene, Photographer, Santa Barbara"
sbhcmss1-g00338,,Title supplied by library staff from similar items in collection.,,Date supplied by library staff.,,Photographer's stamp on back.,,Greene no. 678.,,,,,statement_of_responsibility,"P. H. Greene, Photographer, Santa Barbara"
sbhcmss1-g00342,,Title supplied by library staff from pencil note on back.,,Date from stamp on back.,,"Stamped on back ""Plans & Planting Committee Community Arts Association.""",,Photographer's stamp on back.,,,,,statement_of_responsibility,"J. Walter Collinge, Santa Barbara"
sbhcmss1-g00347,,Title supplied by library staff from label on item sleeve.,,Date from label on item sleeve.,,"Soule, Murphy & Hastings, Architects.",,Photographer stamp on back.,,Greene no. 676.,,,statement_of_responsibility,"P. H. Greene, Photographer, Santa Barbara"
sbhcmss1-g00352,,Title and date supplied by library staff.,,Photographer's stamp on back.,,,,,,,,,statement_of_responsibility,"Karl Obert, 1921 Castillo Street, Santa Barbara, Calif."
sbhcmss1-g00353,,Title and date supplied by library staff.,,Photographer's stamp on back.,,,,,,,,,statement_of_responsibility,"Karl Obert, 1921 Castillo Street, Santa Barbara, Calif."
sbhcmss1-g00354,,Title and date supplied by library staff.,,Photographer's stamp on back.,,,,,,,,,statement_of_responsibility,"Karl Obert, 1921 Castillo Street, Santa Barbara, Calif."
sbhcmss1-g00355,,Title and date supplied by library staff.,,Photographer's stamp on back.,,,,,,,,,statement_of_responsibility,"Karl Obert, 1921 Castillo Street, Santa Barbara, Calif."
sbhcmss1-g00356,,Title and date supplied by library staff.,,Photographer's stamp on back.,,,,,,,,,statement_of_responsibility,"Karl Obert, 1921 Castillo Street, Santa Barbara, Calif."
sbhcmss1-g00357,,Title and date supplied by library staff.,,Photographer's stamp on back.,,,,,,,,,statement_of_responsibility,"Karl Obert, 1921 Castillo Street, Santa Barbara, Calif."
sbhcmss1-g00358,,Title and date supplied by library staff.,,Photographer's stamp on back.,,,,,,,,,statement_of_responsibility,"Karl Obert, 1921 Castillo Street, Santa Barbara, Calif."
sbhcmss1-g00359,,Title supplied by library staff.,,Date from pencil note on back.,,Photographer's stamp on back.,,,,,,,statement_of_responsibility,"Photo by F.G. Anderson, Santa Barbara, Calif."
sbhcmss1-g00362,,Title supplied by library staff from pencil note on back.,,Date from pencil note on back.,,,,,,,,,statement_of_responsibility,"Faulding's Photography, Santa Barbara, California"
sbhcmss1-g00363,,Title supplied by library staff from pencil note on back.,,Date from pencil note on back.,,,,,,,,,statement_of_responsibility,"Faulding's Photography, Santa Barbara, California"
sbhcmss1-g00364,,Title supplied by library staff from pencil note on back and similar items in collection.,,Date supplied by library staff.,,"Stamp on back ""Plans & Planting Committee Community Arts Association.""",,Greene no. 637.,,,,,statement_of_responsibility,"P. H. Greene, Photographer, Santa Barbara"
sbhcmss1-g00365,,Title and date supplied by library staff.,,,,,,,,,,,statement_of_responsibility,Karl Obert
sbhcmss1-g00366,,Title supplied by library staff from similar items in collection.,,Date supplied by library staff.,,Photographer's stamp on back.,,,,,,,statement_of_responsibility,"Karl Obert, 1921 Castillo Street, Santa Barbara, Calif."
sbhcmss1-g00367,,Title supplied by library staff from similar items in collection.,,Date from pencil note on item.,,Photographer's stamp on back.,,,,,,,statement_of_responsibility,"Photo by F.G. Anderson, Santa Barbara, Calif."
sbhcmss1-g00374,,Title supplied by library staff from photograph and pencil note.,,Date supplied by library staff.,,Photographer's stamp on back.,,,,,,,statement_of_responsibility,J.T. Janz
sbhcmss1-g00376,,Title supplied by library staff from pencil note on back.,,Date supplied by library staff.,,,,,,,,,statement_of_responsibility,J.T. Janz
sbhcmss1-g00382,,Title and date supplied by library staff.,,Photographer's stamp on back.,,,,,,,,,statement_of_responsibility,"Karl Obert, 1921 Castillo Street, Santa Barbara, Calif."
sbhcmss1-g00383,,Title and date supplied by library staff.,,Photographer's stamp on back.,,,,,,,,,statement_of_responsibility,"Karl Obert, 1921 Castillo Street, Santa Barbara, Calif."
sbhcmss1-g00384,,Title supplied by library staff from photograph and pencil note.,,Date from pencil note on back.,,Photographer stamp on back.,,Greene no. 594.,,,,,statement_of_responsibility,"P. H. Greene, Photographer, Santa Barbara"
sbhcmss1-g00386,,Title supplied by library staff.,,Date from pencil note on back.,,"Stamped on back ""Plans & Planting Committee Community Arts Association.""",,Photographer stamp on back.,,Greene no. 985.,,,statement_of_responsibility,"P. H. Greene, Photographer, Santa Barbara"
sbhcmss1-g00390,,Title supplied by library staff.,,Date from label on item sleeve.,,"Stamp on back ""Plans & Planting Committee Community Arts Association.""",,,,,,,statement_of_responsibility,"J. Walter Collinge, Santa Barbara"
sbhcmss1-g00392,,Title and date supplied by library staff.,,,,,,,,,,,statement_of_responsibility,"Karl Obert, 1921 Castillo Street, Santa Barbara, Calif."
sbhcmss1-g00393,,Title supplied by library staff from label on item sleeve.,,Date from label on item sleeve.,,Photographer's stamp on back.,,Greene no. 293-B.,,"From label ""Soule, Murpny [sic] & Hastings, Architects.""",,,statement_of_responsibility,"P. H. Greene, Photographer, Santa Barbara"
sbhcmss1-g00394,,Title and date supplied by library staff.,,Photographer's stamp on back.,,Greene no. 633.,,,,,,,statement_of_responsibility,"P. H. Greene, Photographer, Santa Barbara"
sbhcmss1-g00396,,Title and date supplied by library staff.,,Photographer's stamp on back.,,,,,,,,,statement_of_responsibility,"Karl Obert, 1921 Castillo Street, Santa Barbara, Calif."
sbhcmss1-g00405,,Title supplied by library staff from pencil note on back.,,Date from label on item sleeve.,,Architects from label on item.,,Photographer's stamp on back.,,Greene no. 645.,,,statement_of_responsibility,"P. H. Greene, Photographer, Santa Barbara"
sbhcmss1-g00410,,Title supplied by library staff from copy of item in collection.,,Date supplied by library staff.,,Photographer's stamp on back.,,Greene no. 189.,,,,,statement_of_responsibility,"P. H. Greene, Photographer, Santa Barbara"
sbhcmss1-g00411,,Title supplied by library staff from pencil note on back.,,Date supplied by library staff.,,Photographer's stamp on back.,,,,,,,statement_of_responsibility,J.T. Janz
sbhcmss1-g00412,,Title supplied by library staff from pencil note on back.,,Date supplied by library staff.,,Photographer's stamp on back.,,,,,,,statement_of_responsibility,J.T. Janz
sbhcmss1-g00418,,Title supplied by library staff from label and photograph.,,Date from label on item sleeve.,,Photographer's stamp on back.,,Greene no. 213.,,"From label ""Edwards, Plunkett & Howell, Architects.""",,,statement_of_responsibility,"P. H. Greene, Photographer, Santa Barbara"
sbhcmss1-g00424,,Title supplied by library staff from pencil note on back and label on item sleeve.,,Date from pencil note on back.,,Photographer's stamp on back.,,Greene no. 468.,,"From label ""Sauter & Lockard, Architects.""",,,statement_of_responsibility,"P. H. Greene, Photographer, Santa Barbara"
sbhcmss1-g00425,,Title supplied by library staff from label on item sleeve.,,Date from label on item sleeve.,,Photographer's stamp on back.,,Greene no. 628a.,,"From label ""John M. Cooper, Architect.""",,,statement_of_responsibility,"P. H. Greene, Photographer, Santa Barbara"
sbhcmss1-g00426,,Title supplied by library staff from pencil note on back.,,Date supplied by library staff.,,Photographer's stamp on back.,,,,,,,statement_of_responsibility,"Faulding's Photography, Santa Barbara, California"
sbhcmss1-g00428,,Title supplied by library staff from pencil note on back.,,Date supplied by library staff.,,Photographer's stamp on back.,,Greene no. 629.,,,,,statement_of_responsibility,"P. H. Greene, Photographer, Santa Barbara"
sbhcmss1-g00432,,Title supplied by library staff from pencil note on back.,,Date supplied by library staff.,,Photographer's stamp on back.,,Greene no. 468.,,"Stamped on back ""Plans & Planting Committee Community Arts Association.""",,,statement_of_responsibility,"P. H. Greene, Photographer, Santa Barbara"
sbhcmss1-g00435,,Title and date supplied by library staff.,,Photographer's stamp on back.,,Greene no. 628a.,,,,,,,statement_of_responsibility,"P. H. Greene, Photographer, Santa Barbara"
sbhcmss1-g00436,,Title supplied by library staff from pencil note on back.,,Date supplied by library staff.,,Photographer's stamp on back.,,,,,,,statement_of_responsibility,J.T. Janz
sbhcmss1-g00445,,Title and date supplied by library staff.,,Photographer's stamp on back.,,,,,,,,,statement_of_responsibility,J.T. Janz
sbhcmss1-g00451,,Title supplied by library staff from pencil note on back.,,Date supplied by library staff.,,,,,,,,,statement_of_responsibility,J.T. Janz
sbhcmss1-g00454,,Title supplied by library staff from label on item sleeve.,,Date from pencil note on back.,,Photographer's stamp on back.,,Greene no. 420-B.,,"Stamped on back ""Plans & Planting Committee Community Arts Association.""",,"From label ""Florence Yoch, Landscape Architect.""",statement_of_responsibility,"P. H. Greene, Photographer, Santa Barbara"
sbhcmss1-g00455,,Title supplied by library staff from label on item sleeve.,,Date from label on item sleeve.,,Photographer's stamp on back.,,Greene no. 420-A.,,"From label Myron Hunt, Architect.",,,statement_of_responsibility,"P. H. Greene, Photographer, Santa Barbara"
sbhcmss1-g00461,,Title supplied by library staff from label on item sleeve.,,Date supplied by library staff.,,Photographer's stamp on back.,,Greene no. 668.,,"From label Arthur B. Benton, Architect (Hollywood).",,,statement_of_responsibility,"P. H. Greene, Photographer, Santa Barbara"
sbhcmss1-g00467,,Title supplied by library staff from information accompanying the item.,,Date from information accompanying the item.,,,,,,,,,statement_of_responsibility,"Karl Obert, 1921 Castillo Street, Santa Barbara, Calif."
sbhcmss1-g00469,,Title supplied by library staff from  information accompanying the item.,,Date from pencil note on back.,,"From accompanying information ""Wm. A. Edwards, architect and J.J. Plunkett, artist.",,Photographer's stamp on back.,,"Stamped on back ""Chamber of Commerce Santa Barbara, Calif.""",,,statement_of_responsibility,"De Marino and Bordeaux Photo, Santa Barbara"
sbhcmss1-g00470,,Title supplied by library staff from pencil note on back.,,Date supplied by library staff.,,Photographer's stamp on back.,,"Pencil note on back ""Very dangerous, boxes under awnings.""",,,,,statement_of_responsibility,J.T. Janz
sbhcmss1-g00471,,Title supplied by library staff from pencil note on back.,,Date supplied by library staff.,,Photographer's stamp on back.,,,,,,,statement_of_responsibility,J.T. Janz
sbhcmss1-g00472,,Title supplied by library staff from photograph and copy of item in collection.,,Date supplied by library staff.,,Photographer's stamp on back.,,Greene no. 668.,,Architect from copy in collection.,,,statement_of_responsibility,"P. H. Greene, Photographer, Santa Barbara"
sbhcmss1-g00473,,Title supplied by library staff from information accompanying the item.,,Date from information accompanying the item.,,,,,,,,,statement_of_responsibility,"Karl Obert, 1921 Castillo Street, Santa Barbara, Calif."
sbhcmss1-g00474,,Title supplied by library staff from photograph and information on back.,,Date from information on back.,,"Stamp on back ""Plans & Planting Committee Community Arts Association.""",,Photographer's stamp on back.,,,,,statement_of_responsibility,"Photo by F.G. Anderson, Santa Barbara, Calif."
sbhcmss1-g00483,,Title supplied by library staff from pencil note on back.,,Date supplied by library staff.,,"From label on item sleeve ""Carleton M. Winslow, Architect.""",,"Stamp on back ""Plans & Planting Committee Community Arts Association.""",,,,,statement_of_responsibility,"Faulding's Photography, Santa Barbara, California"
sbhcmss1-g00484,,Title supplied by library staff.,,Date from label on item sleeve.,,"From label ""Greene 627.""",,"Pencil note on back ""Edwards, Plunkett & Edwards.""",,"Stamped on back ""Plans & Planting Committee Community Arts Association.""",,"Stamped on back ""Obert's Photoshop.""",statement_of_responsibility,"Obert's Photoshop, 630 Chapala Street, Santa Barbara"
sbhcmss1-g00486,,Title supplied by library staff.,,Date from pencil note on back.,,Photographer's stamp on back.,,,,,,,statement_of_responsibility,"Jessie Tarbox Beals, 6553 Sunset Boulevard, Hollywood, Cal."
sbhcmss1-g00494,,Title supplied by library staff.,,Date from pencil note on back.,,"Stamped on back ""Plans & Planting Committee Community Arts Association.""",,Photographer's stamp on back.,,,,,statement_of_responsibility,"Jessie Tarbox Beals, 6553 Sunset Boulevard, Hollywood, Cal."
sbhcmss1-g00496,,Title supplied by library staff.,,Date from pencil note on back.,,,,,,,,,statement_of_responsibility,"Obert's Photoshop, 630 Chapala Street, Santa Barbara"
sbhcmss1-g00497,,Title and date supplied by library staff.,,Greene no. 799.,,,,,,,,,statement_of_responsibility,"P. H. Greene, Photographer, Santa Barbara"
sbhcmss1-g00498,,Title supplied by library staff from photograph and note accompanying the item.,,Date from pencil note on back.,,,,,,,,,statement_of_responsibility,"Obert's Photoshop, 630 Chapala Street, Santa Barbara"
sbhcmss1-g00500,,Title supplied by library staff.,,Date from pencil note on back.,,"Stamped on back ""Plans & Planting Committee Community Arts Association.""",,,,,,,statement_of_responsibility,"Obert's Photoshop, 630 Chapala Street, Santa Barbara"
sbhcmss1-g00501,,Title supplied by library staff from similar item in collection.,,Date supplied by library staff.,,Photographer's stamp on back.,,Greene no. 799.,,"Stamped on back ""Plans & Planting Committee Community Arts Association.""",,,statement_of_responsibility,"P. H. Greene, Photographer, Santa Barbara"
sbhcmss1-g00502,,Title supplied by library staff from label on item sleeve.,,Date from label on item sleeve.,,Photographer's stamp on back.,,Greene no. 216.,,"From label ""Mr. Avery, Contractor & Designer.""",,,statement_of_responsibility,"P. H. Greene, Photographer, Santa Barbara"
sbhcmss1-g00503,,Title supplied by library staff from label on item sleeve.,,Date from label on item sleeve.,,Photographer's stamp on back.,,Greene no. 216.,,"From label ""Mr. Avery, Contractor & Designer.""",,,statement_of_responsibility,"P. H. Greene, Photographer, Santa Barbara"
sbhcmss1-g00522,,Title supplied by library staff from pencil note on back.,,Date from pencil note on item.,,Photographer's stamp on back.,,"Stamped on back ""Plans & Planting Committee Community Arts Association.""",,,,,statement_of_responsibility,The McAllisters of Santa Barbara
sbhcmss1-g00536,,Title supplied by library staff.,,Date from copy of item collection.,,Photographer's stamp on back.,,Greene no. 1994,,,,,statement_of_responsibility,"P. H. Greene, Photographer, Santa Barbara"
sbhcmss1-g00537,,Title supplied by library staff.,,Date from pencil note on back.,,Photographer's stamp on back.,,Greene no. 1994,,,,,statement_of_responsibility,"P. H. Greene, Photographer, Santa Barbara"
sbhcmss1-g00539,,Title and date supplied by library staff.,,Greene no. 1991.,,,,,,,,,statement_of_responsibility,"P. H. Greene, Photographer, Santa Barbara"
sbhcmss1-g00545,,Title supplied by library staff.,,Date from copy in collection.,,,,,,,,,statement of responsibility,"Obert's Photoshop, 630 Chapala Street, Santa Barbara"
